<?xml version="1.0" encoding="UTF-8" standalone="no"?>
<!-- Created with Inkscape (http://www.inkscape.org/) -->

<svg
   xmlns:dc="http://purl.org/dc/elements/1.1/"
   xmlns:cc="http://creativecommons.org/ns#"
   xmlns:rdf="http://www.w3.org/1999/02/22-rdf-syntax-ns#"
   xmlns:svg="http://www.w3.org/2000/svg"
   xmlns="http://www.w3.org/2000/svg"
   xmlns:xlink="http://www.w3.org/1999/xlink"
   xmlns:sodipodi="http://sodipodi.sourceforge.net/DTD/sodipodi-0.dtd"
   xmlns:inkscape="http://www.inkscape.org/namespaces/inkscape"
   version="1.1"
   id="svg172"
   width="427"
   height="427"
   viewBox="0 0 427 427"
   sodipodi:docname="raulhc.svg"
   inkscape:export-filename="/home/viniml/testeProjetos/raulhc.gitlab.io/public/assets/img/raulhc.png"
   inkscape:export-xdpi="96"
   inkscape:export-ydpi="96"
   inkscape:version="0.92.2 2405546, 2018-03-11">
  <metadata
     id="metadata178">
    <rdf:RDF>
      <cc:Work
         rdf:about="">
        <dc:format>image/svg+xml</dc:format>
        <dc:type
           rdf:resource="http://purl.org/dc/dcmitype/StillImage" />
        <dc:title />
      </cc:Work>
    </rdf:RDF>
  </metadata>
  <defs
     id="defs176">
    <filter
       style="color-interpolation-filters:sRGB;"
       inkscape:label="Drop Shadow"
       id="filter243">
      <feFlood
         flood-opacity="0.996078"
         flood-color="rgb(0,0,0)"
         result="flood"
         id="feFlood233" />
      <feComposite
         in="flood"
         in2="SourceGraphic"
         operator="in"
         result="composite1"
         id="feComposite235" />
      <feGaussianBlur
         in="composite1"
         stdDeviation="5"
         result="blur"
         id="feGaussianBlur237" />
      <feOffset
         dx="0"
         dy="0"
         result="offset"
         id="feOffset239" />
      <feComposite
         in="SourceGraphic"
         in2="offset"
         operator="over"
         result="composite2"
         id="feComposite241" />
    </filter>
    <filter
       style="color-interpolation-filters:sRGB;"
       inkscape:label="Drop Shadow"
       id="filter459">
      <feFlood
         flood-opacity="1"
         flood-color="rgb(0,0,0)"
         result="flood"
         id="feFlood449" />
      <feComposite
         in="flood"
         in2="SourceGraphic"
         operator="in"
         result="composite1"
         id="feComposite451" />
      <feGaussianBlur
         in="composite1"
         stdDeviation="5"
         result="blur"
         id="feGaussianBlur453" />
      <feOffset
         dx="0"
         dy="-4"
         result="offset"
         id="feOffset455" />
      <feComposite
         in="SourceGraphic"
         in2="offset"
         operator="over"
         result="composite2"
         id="feComposite457" />
    </filter>
  </defs>
  <sodipodi:namedview
     pagecolor="#ffffff"
     bordercolor="#666666"
     borderopacity="1"
     objecttolerance="10"
     gridtolerance="10"
     guidetolerance="10"
     inkscape:pageopacity="0"
     inkscape:pageshadow="2"
     inkscape:window-width="1366"
     inkscape:window-height="722"
     id="namedview174"
     showgrid="false"
     inkscape:zoom="1.1939037"
     inkscape:cx="103.35711"
     inkscape:cy="213.5"
     inkscape:window-x="0"
     inkscape:window-y="20"
     inkscape:window-maximized="1"
     inkscape:current-layer="svg172" />
  <path
     id="circle195"
     style="opacity:1;fill:#000000;fill-opacity:1;stroke:none;stroke-width:2.09059095;stroke-linecap:round;stroke-linejoin:bevel;stroke-miterlimit:4;stroke-dasharray:none;stroke-opacity:1;paint-order:stroke markers fill;filter:url(#filter459)"
     sodipodi:type="arc"
     sodipodi:cx="213.5"
     sodipodi:cy="213.5"
     sodipodi:rx="207.5"
     sodipodi:ry="207.5"
     sodipodi:start="3.1415927"
     sodipodi:end="0"
     sodipodi:open="true"
     d="M 6,213.49999 A 207.5,207.5 0 0 1 213.5,6 207.5,207.5 0 0 1 421,213.5" />
  <circle
     style="opacity:1;fill:#ffffff;fill-opacity:1;stroke:none;stroke-width:2.01265836;stroke-linecap:round;stroke-linejoin:bevel;stroke-miterlimit:4;stroke-dasharray:none;stroke-opacity:1;paint-order:stroke markers fill"
     id="path193"
     cx="213.5"
     cy="213.5"
     r="199.76485" />
  <image
     y="0.16667175"
     x="0.16667175"
     id="image190"
     xlink:href="data:image/png;base64,iVBORw0KGgoAAAANSUhEUgAAAyAAAAMgCAYAAADbcAZoAAAABHNCSVQICAgIfAhkiAAAAAlwSFlz AAAbrwAAG68BXhqRHAAAABl0RVh0U29mdHdhcmUAd3d3Lmlua3NjYXBlLm9yZ5vuPBoAACAASURB VHic7N13nFTV/f/x19lCl14U6aACUgQEDaiIJQoWxODXhlgRlEQURY0lJhjbgoIlKpZoRH5WiKBI LGBjCc0o4AIqiNJBpNcF9vP7YxZdkbp7z5yZ2ffz8fg8FnH3nPfdHWbnM/fec5yZISIiIiIiEg9p oQOIiIiIiEjxoQZERERERETiRg2IiIiIiIjEjRoQERERERGJGzUgIiIiIiISN2pAREREREQkbtSA iIiIiIhI3KgBERERERGRuFEDIiIiIiIicaMGRERERERE4kYNiIiIiIiIxI0aEBERERERiRs1ICIi IiIiEjdqQEREREREJG7UgIiIiIiISNyoARERERERkbhRAyIiIiIiInGjBkREREREROJGDYiIiIiI iMSNGhAREREREYkbNSAiIiIiIhI3akBERERERCRu1ICIiIiIiEjcqAEREREREZG4UQMiIiIiIiJx owZERERERETiRg2IiIiIiIjEjRoQERERERGJGzUgIiIiIiISN2pAREREREQkbtSAiIiIiIhI3KgB ERERERGRuFEDIiIiIiIicaMGRERERERE4kYNiIiIiIiIxI0aEBERERERiRs1ICIiIiIiEjdqQERE REREJG7UgIiIiIiISNyoARERERERkbhRAyIiIiIiInGjBkREREREROJGDYiIiIiIiMSNGhARERER EYkbNSAiIiIiIhI3akBERERERCRu1ICIiIiIiEjcqAEREREREZG4UQMiIiIiIiJxkxE6gIiIRM85 dwhQZbeqmv+xElASKFHg4+5/3tf/2/VngNz82raXP+/r/+368xrgp/xaVeDPP5nZ+mi/MyIiEpoz s9AZRERkH5xzacBhQB1+aSKq7Pbn3avEHgdLPtuB1ezWmPDbhmUVsAhYYmZ5YaKKiMiBUAMiIhKY c84BNYB6QP3dPtYD6pI6DYVv24GFwPf5tWC3j8tMv/hERIJSAyIiEgfOuWr8trEo+OdSQYIVP9uA H/h1U/Lzn81sRahgIiLFhRoQEZEIOedKA02BFkDz/I8tiV0uJYlvDTADmAnMyv+YY2abgqYSEUkh akBERAoh/7KpesQajILNRiMgPVwy8SAP+I5YM1KwMflO95uIiBw8NSAiIvvhnKvILw3Gro/NgENC 5pLgNgE5/LopmWlmq4OmEhFJcGpAREQKcM5lAK2ADvl1PFAraChJNkuBqUA2MBH4n5nlho0kIpI4 1ICISLHmnCsP/I5Ys3ECcBxQJmgoSTVb+aUhyQYmmdmasJFERMJRAyIixYpzrg6/nN04gdglVWlB Q0lxY8BsYmdHsoGJZrYgbCQRkfhRAyIiKSt/A78W/NJsdABqBw0lsmfL+KUhyQa+NLMdYSOJiPih BkREUopzrhZwBtAZOA2oEDaRSKGsB8YD/wH+Y2YLA+cREYmMGhARSWrOuRLEzm6cSazpaBY2kYgX c4BxxBqST81sW+A8IiKFpgZERJKOc64+vzQcnYByYROJxNVm4GN+OTvybdg4IiIHRw2IiCS8/N3F O/JL03Fk2EQiCWU++c0I8JF2bReRRKcGREQSUv69HH8g1nScDJQKGkgkOeQCnxFrRkZqdS0RSURq QEQkYTjnagLdgf8D2gMubCKRpDcVeB143cwWhQ4jIgJqQEQkMOfcocTOdPwfsZvJtSeHSPQMmEys GXnDzJYEziMixZgaEBGJO+dcdX5pOk5CTYdIPBmxvUZeB940s2WB84hIMaMGRETiwjlXFTifWNNx MpAeNJCIAOQRu2dkVzOyMnAeESkG1ICIiDfOucr80nR0AjLCJhKRfdgJfEKsGRlpZqsC5xGRFKUG REQi5ZxLI7YT+bXA2ajpEElGO4D3gWeAsWa2I3AeEUkhakBEJBLOudrAVflVJ3AcEYnOMuAF4Hkz +y50GBFJfmpARKTQnHMZxM5y9CK2X4duJhdJXQaMB54D/m1muYHziEiSUgMiIgfNOdcQuBq4Ejg0 cBwRib9VwEvAs2Y2N3QYEUkuakBE5IA450oA3Yid7TgFbRIoIjETgWeJ7S+yJXQYEUl8akBEZJ+c c02Aa4CeQNXAcUQkca0FRhA7KzIjdBgRSVxqQETkN/LPdlxC7DKrEwLHEZHkM43YvSLDdVZERHan BkREfuacqwRcB/wJ3dshIkW3CngSeMLMfgwdRkQSgxoQEcE5Vx+4idgSumUDxxGR1LMV+BfwiJl9 EzqMiISlBkSkGHPOtQNuIbZbeXrgOCKS+vKAt4FBZpYdOoyIhKEGRKSYcc454BxijceJgeOISPE1 GRhMbE+RvNBhRCR+1ICIFBPOuVLEVrLqDxwVOI6IyC7zgSHAC2a2OXQYEfFPDYhIinPOVQWuB/oC 1QPHERHZm5/45Yb1laHDiIg/akBEUpRzrjZwO7HdyksHjiMicqC2AsOBB83su9BhRCR6akBEUoxz 7jDgDmI7lpcMHEdEpLB2AC8AfzezhaHDiEh01ICIpAjnXDViZzyuQ2c8RCR15ALPAveb2dLQYUSk 6NSAiCQ551xlYACxzQO1h4eIpKqtxO4ReUj3iIgkNzUgIknKOVeB2IpWNwLlA8cREYmXTcDjxPYS WR06jIgcPDUgIknGOVcO6AfcDFQKHEdEJJT1xJbvHWJm60KHEZEDpwZEJEk458oQW0r3VqBq4Dgi IoliDbENDR8zs42hw4jI/qkBEUlw+RsI9gb+DNQIHEdEJFH9CGQB/zCzLaHDiMjeqQERSVDOOQdc DvwdODxwHBGRZLEcGAg8Y2Y7Q4cRkd9SAyKSgJxzHYChwLGhs4iIJKlZwE1mNj50EBH5tbTQAUTk F8652s65V4CJqPkQESmK5sCHzrl/O+cahg4jIr/QGRCRBJB/g/ltxPbz0CaCIiLR2kbsrPJ9ZrYh dBiR4k4NiEhA+fd5XAI8CNQKHEdEJNUtB+4AXjS9ABIJRg2ISCDOuXbAo8DxobNI6nLOUalSJcqW LUupUqUoWbIkpUqVwjlHbm4uubm5bNu2jfXr17N69Wry8vJCRxaJh8+BfmaWHTqISHGkBkQkzpxz NYEHgMsAFziOJLmqVavSpEkTGjduTN26dTn00EM59NBDqVGjxs8fMzMzD2isnTt38tNPP7FixQq+ /fZbZs+eTU5ODtOnT2fevHmej0QkiFeB28xsYeggIsWJGhCROMnfz+NmYvt5lA0cR5JMuXLlaNu2 La1bt6Zx48Y/Nx1VqlSJy/w//PAD48eP5+2332bs2LFs3749LvOKxMEWYvuHZJnZ5tBhRIoDNSAi ceCc6wYMAeqGzhJvmZmZtGrViubNm9OsWTMaN2788zvzFSpUYPv27Wzfvp1Vq1Yxf/58vvnmG7Kz s/nkk09YtWpV6PhBpKen06xZM9q1a8dxxx3HcccdR9OmTUlLS4yFC3/88UdGjBjB448/znfffRc6 jkhUFgM3m9nroYOIpDo1ICIeOecOA54Azg+dJZ5at25Nly5d6NixI+3bt6dMmTIHPYaZ8eGHH/LE E0/wzjvvpPy9CUcddRS///3vOf300+nUqRPlypULHWm/tm/fzosvvsi9997LokWLQscptDJlylCy ZEnWrFkTOookhneA68xsceggIqlKDYiIB/mrW10NDAIqBo4TFx06dKB79+5069aNunWjPdEzc+ZM +vfvz/jxqbOfWMmSJenatevPTUedOnVCRyq0TZs2MWDAAJ5++mmS8XdKz549ef7555k4cSKjR49m zJgxOrMjG4Dbgae0WpZI9NSAiETMOdcIeAboFDqLb3Xq1KFnz55cfvnlNGrUyPt8w4cPp0+fPmze nPyXaderV48FCxaEjhGp9957jwsvvJB169aFjnJQRo4cyfnn//ok5VdffcWYMWMYM2YMU6dOTcrG SiKRDfQyszmhg4ikEjUgIhFxzmUA/YG/kuKbCZ5yyincdNNNdOnSJe73JcyaNYuuXbsm/Yv3SpUq sXr16tAxIjdz5kzOPPNMli1bFjrKASlZsiSrVq3a5yVvy5Yt45133mH06NGMHz+erVu3xjGhJIBc 4D7gATPT6gsiEVADIhIB51wr4HmgVegsvpQoUYKLL76Ym266iZYtWwbNsnDhQjp27Mj3338fNEdR pKens2PHjtAxvJg3bx7HH388P/30U+go+9WlSxfGjh17wJ+/adMm3n//fcaMGcM777xTbBdKKKZy gGvMbHLoICLJTg2ISBE450oTO+PRH8gIm8aP8uXL07t3b2688UZq1qwZOs7Pvv/+e373u9+xfPny 0FEKbcOGDUlxs3lhfPLJJ5x++ukJv1zv008/Te/evQv1tXl5eUyaNOnn+0a++eabiNNJAsojtrDI nWa2MXQYkWSlBkSkkJxznYjd6+H/5ocADjvsMG688UZ69+5NhQoVQsfZo0mTJtGpUydyc3NDRymU xYsXc/jhh4eO4c0jjzzCzTffHDrGXjnnWLx4cWSN9dy5cxkzZgyjR49m0qRJkYwpCWsh0MfMxoUO IpKM1ICIHCTnXEViq1tdTQruZN64cWNuueUWLrvsMkqUKBE6zn499dRTXH/99aFjFEpOTg5NmzYN HcObvLw8jj/+eKZNmxY6yh61bduWqVOnRj7u999/T/369SMfVxLSCOBGM9O1eCIHITF2tRJJEvkb Cs4GriHFmo/27dvz1ltvMXv2bK6++uqkaD4ArrvuOk455ZTQMQol2VaLOlhpaWk8++yzCbOB4u66 du3qZdzRo0d7GVcS0qXAHOfcpaGDiCSTxPytIJJgnHOHOOdeAEYBh4XOExXnHOeccw4TJ04kOzub rl27EtvCJLkMGzaMUqVKhY5x0FK9AQFo2bIlF1xwQegYe3Tuued6GVcNSLFTFXjZOfe6c65S6DAi yUANiMh+OOeOB74ArggcJTIlSpTgyiuvJCcnhzFjxtChQ4fQkYqkUaNG9OvXL3SMgxavBsTMgt4M fueddyZcY1u/fn2aN28e+bhr1qzhs88+i3xcSQoXADOdcyeHDiKS6FJy1R6RKDjn0oE7gbtJkX8r ibqiVRQGDBjAk08+yYYNG0JHOWBr164t0tevWbOGmTNnMm/ePObPn8+CBQtYsWIFK1euZOXKlWze vJnc3Nyfm49SpUpRpUoVqlSpQqNGjWjTpg3HHnssHTt2pGTJklEc0h41b96c008/nffff9/bHAfL 19mPsWPHpuzyynJAagHjnXODgLu1b4jInqXEiyqRqDnn6gMvA+1DZ4lCMqxoVVRVqlThhhtu4L77 7gsd5YAd7BmQOXPm8OGHH/LJJ5/w+eefH/Q+KFu3bmXJkiUsWbKEmTNnMmrUKAAqV67MJZdcQv/+ /b3dPN2jR4+EakB83f8xZswYL+NKUkkDbgNOc85damZfhw4kkmi0CpbIbpxzlxFb57186CxFlWwr WhXV4sWLqVu3Lnl5eaGjHJA77rhjnw3Tzp07+fTTTxk5ciRvvfUWS5Ys8ZqnXLlyPPLII/Tq1Svy sTdu3Ej16tXZsmVL5GMfrEqVKrFy5UoyMqJ9D27btm1Uq1bN61k45xz6vZ1UNgM3mdkzoYOIJBLd AyKSzzlX0Tn3CvASSd58JOuKVkVVq1YtzjjjjNAxDtjezoD88MMP3HnnndSqVYtTTjmFf/zjH96b D4g1Cddeey2PPvpo5GOXK1eO0047LfJxC6NLly6RNx8A48eP934J4O9//3sWLFjAo48+yqmnnurl OCRSZYBhzrl/O+eqhA4jkijUgIgAzrmOwAzgotBZCitVVrQqqquvvjp0hAO2ewPy+eefc/7559Og QQPuv//+YLu89+/f38uN1J06dYp8zMLwdf/HW2+95WXcgrp27Uq9evW44YYb+PDDD/nxxx8ZMWIE F154IeXLJ/X7JgfknHPOSdhlnffjPGCWc+700EFEEoKZqVTFtoBM4H5gJ2DJWCVKlLArr7zSZs+e bWKWm5trlSpVCv5zOZA655xzzMxsxowZduaZZwbPU7DOOuusyH82X3zxRfDjKlGihK1bty7yY9u5 c6cdeuih3vMvXrx4rxlyc3Pt/ffft759+1rt2rWDf6+jrnPPPdfMzKZMmWItWrQInqeQlQc8DJS0 BPgdqFKFquABVKpQBRwJTEuAX0iFqvLly9uAAQNsyZIlJr929tlnB//5HEgdc8wx1qtXL0tLSwue Zfdyztny5csj/bns3LnTypUrF/S4fv/730d6TLtMmjTJe/Y2bdocVKb//e9/9te//tVatWoV/PFU 1DrkkENs0aJFPx/b9u3b7f7777dSpUoFz1bI+hJoagnwu1ClClG6eFSKJefclcDjQNnQWQ5Woq9o tWsfhB9++OHnG30bNmzISSedRJ06deKSoX379rzzzjtxmasovvzyS7788svQMfbIzJg1axY1atSI bMy0tDSaNGnCtGnTIhvzYPla/Spel18djFatWtGqVSvuueceFi1axJgxYxg9ejQff/xx0H1hCuOB Bx6gVq1aP/93RkYGf/7zn7ngggu49tpr+eijjwKmK5SWwHTn3C1m9mToMCJxF7oDUqniWUAJ4GnC v/tVqMrMzLSVK1daolm+fLndf//91rZt272+m5+enm7nnnuuzZs3z3uejz/+OPjPKhXq8ccfj/xn 07Nnz6DHVPBd9CgdeeSR3rN/+eWXkWRdt26dvfrqq3bJJZdYxYoVgz/O9le/+93vbOfOnfs8pn/+ 859WuXLl4FkLWS8DZSwBfkeqVPGq4AFUqngVsQ2ipiTAL5siVVZWliWKiRMn2oUXXmiZmZkHnL9S pUr2n//8x2uuNWvWBP85pUL95S9/ifxn88ADDwQ7ntatW0d+PGZms2fP9p69bt26XrJ/+eWXwR9n +6rMzEybNWvWAR3LihUr7KKLLgqeuZA1A2hoCfC7UqWKR+kSLCkWnHOdgNeAaqGzFNXQoUPp169f sKV1zYzRo0eTlZXFf//734P++jVr1nDeeeeRnZ1N69atPSSEChUqkJaWljT7gcRTeno6FSpUoEKF CpQvX/7nP++p2rZtG/n88boMb0+SefUrnzu3J7LbbruNZs2aHdDnVq9enVdeeYXLLruM6667joUL F3pOF6kWxC7JutTM3g0dRsQ3bUQoKc85NwB4AEgPnSUq//znP7nyyivjOue2bdt46aWXePjhh/n6 66Jv7Fu3bl2++OILKlWqFEG636pUqRJr1671MnYiSk9Pp2HDhjRo0ID69evToEEDatWqRdWqValS pQpVq1alcuXKlC0b9ran8ePHB9sP5IsvvuCYY46JfNzjjjuOqVOnRj5uQR9++CGnnnpq5OMef/zx TJkyJfJxo3DkkUcyc+ZMSpYsedBfu2nTJu666y4ee+yxZHsjwoC/AQNNL9AkhakBkZTlnCsHvAB0 D50lak2aNCEnJycu+3ysXbuWp556isceeyzyfSluvPFGhgwZEumYu9SrV48ffvjBy9ihpaWl0axZ M0466STatGlDixYtaNq0KaVKlQodbb+++uormjdvHvd569Sp4+XxsHTpUmrVqoXP36UVKlTgxx9/ JDMzM9Jxly9fTs2aNb1mLyznHB999BEdO3Ys0jjTpk2jV69ezJgxI6JkcTMW6GFmxeddFCleQl8D plL5KKAxMJvw1/V6qzFjxphvgwcP9rpsaokSJWz+/PlesifxDal7rMqVK9vll19u//73v2316tVe vmfxsHLlyiDfvz/+8Y9ejufJJ5/0nv3iiy/2kv2ZZ54J/rjeW11zzTWRHef27dvtgQcesNKlSwc/ roOseUBzS4DfqSpV1JWU24mK7Itz7nxgKtAkdBafHnroIe9zlCtXjo0bN3obPzc3lwceeCDycTds 2MDq1asjHzfeMjIy6NatG+PGjWPFihW8+OKLnHfeed4uW4uHihUrBplX93/81ujRo72MW1SHHnoo gwYNimy8jIwMbr/9dmbOnMkpp5wS2bhx0BCY7Jy7JHQQkajpEixJGc65dOA+4LbQWeIlOzub9u3b ext/69at1KtXjxUrVnib45BDDmHZsmWR3pswa9YsWrRoEdl48VayZEmuu+46BgwYQM2aNUPHiVzZ smXZvHlz3ObzdQnTunXrqFatmtc9NTIzM/nxxx8j3/Nn06ZNVK1ala1bt0Y6bhRef/11LrjgAm/j P/fcc/Tq1cvb+J48CtxiZjtCBxGJgs6ASEpwzlUF3qMYNR8AWVlZXscvVaoUN9xwg9c5NmzYwMiR IyMdc/bs2ZGOF08XXnghX3/9NUOGDEnJ5gOI+waaZ555ZuTNB8C7777rfUO/jh07evl+vf/++wnZ fJx99tlemw+IrcSXhPoBE5xzh4YOIhIFNSCS9JxzbYH/AdEvEZPgxowZw9y5c73Ocd1111GuXDmv c0yYMCHS8ZJhF/TdVa9enVGjRvHqq69St27d0HG8incD4mv383hcwuQr+5gxY7yMWxTlypXjySf9 bgr+3Xffcc8993idw6MTgc+dcx1CBxEpKjUgktSccxcAnwK1Q2cJwcwYPHiw1zkqVark/XKFL774 IrKxduzYwbvvJtcy+k2bNmX69Ol069YtdJS4iGcDkpmZSefOnSMfNzc3Ny6PMx/3f+zcuTMhm/T7 77+f2rX9PpX36dOHLVu2eJ3Ds5rAR865+K7DLhIxNSCStPL393gNSPy1Rz0aPnw4y5Yt8zrHTTfd 5OUSll0WLFgQ2ViffPJJUt2AfuyxxzJx4kTvL7wSSTxvRD/ppJO8zDdhwgQ2bNgQ+bgFHXPMMV42 bvzvf//LqlWrIh+3KI477jj69u3rdY7hw4fzwQcfeJ0jTjKBfzrn7g0dRKSw1IBI0nHOpTvnngKy AP8bYSS43Nxchg4d6nWO2rVrc/HFF3sbP8pd3eOxOlhUGjZsyNixY5N6VavCiOcZEK1+9VuJtvpV ZmYmzz77LGlp/l6SrFq1iv79+3sbP5C7nHMvO+eiewIViRM1IJJU8jcXHAP0CZ0lkQwbNoz169d7 nWPAgAHexq5WrVok43zyySdJ8w5nyZIlGTNmDNWrVw8dJe7i2YD4uIfCzOJyD0Uy37tyMAYMGOB9 c8qbbrop4c76RORS4H3nXPF6F0OSnhoQSRrOuZrE7vfoEjpLolm3bh3Dhg3zOkezZs3o0sXPtz6q a/TvuuuuSMaJh3vuuYemTZuGjrFHGzduZPHixeTk5LB2bfQbMcerAWnZsqWXG/qnTJni/bLHWrVq 0bp168jHnTt3Lt9++23k4xbWEUccwd133+11jvfff5+XX37Z6xyBdQQmOefqhw4icqAyQgcQORDO uebAWIrpzeYHYujQofTr1y/Sy5l2d+utt0Z+421aWho9evQo8jjPPPMMEydOjCCRf3Xq1PF6Rml3 a9as4YsvvmDx4sUsW7aMZcuWsXbtWtatW/ebj+vWrWPnzp0/f+2rr77KhRdeGGmeeDUguvzqtxLt 7MewYcMoVcrfbXybN2+mT59iccK8MbFNC88xs6mhw4jsjxoQSXjOudOBN4HyobMksqVLlzJixAiu vNLf4igdO3akXbt2TJ0a3e+3vn37Fvmd3lmzZnHjjTdGlMi//v37k5Hh9+l38uTJjBgxggkTJjBn zhwKu+msjxut43UTejJfwlQclt+96qqr6NSpk9c5/vrXv0a6yEWCq05shaxLzcx/lyxSFGamUiVs AVcB2wFT7b+aNGlieXl55tObb74ZWd6TTjrJNm7cWKQ8mzZtsiZNmgT/3h9olS5d2jZs2BDRT+O3 JkyYYEcffXRkeZ944onIM7700kvev8+HH364l38LX3/9tffshxxyiG3bti3y7CtWrLC0tLTg/wYA q1Gjhq1evTryYyzof//7n6Wnpwc/1gC1E7jREuB3uEq1t9I9IJKwnHN/B55HZ+oO2Jw5c3j77be9 ztGtWzeOOOKIIo/TsWNH3n33XcqWLVvoMbZv385FF13EnDlzipwnXjp37uxlY0cz46abbuKUU04h JycnsnF9nKmJxyVY5557Ls5Fv0hePPb+6Ny5s5dLKd955x3y8vIiH7cwHn30Ua+rv+3cuZNevXr9 6nLCYiQNGOKce9Q5p9d5kpD0wJSE45wr4Zx7GbgzdJZklJWV5XX8tLQ0brnllkJ/fXp6OnfeeScf fPBBkZqPHTt2cOGFF3pvuKLm69Kavn37elmO2ccL4Xg1ID6MHTvWy7gFpfr9H126dIn8vqLdPfro o3z++ede50gCNwCjnHNlQgcR2Z0zs9AZRH6Wv5Tgv4mt6iGFlJ2dTfv27b2Nv3XrVurVq8eKFSsO 6utat27NY489RocOHYo0/86dO+nRowfZ2dlUqlSJnTt3snnzZn744YeEeYd3b2bPnk2TJk0iHXPC hAmceuqpkY65y1tvvRV50/Tll1/SqlWrSMcsqHTp0qxZs4aSJUtGOu7GjRupUqUKubm5kY5bUEZG BitXroz87MCWLVuoUqVK8F3Ay5UrR05OjpcNFnf5/vvvOfroo9m8ebO3OZLMNOAcMzu4J2wRj3QG RBKGc+4wYCJqPorM91mQUqVKccMNNxzw5zdp0oQ333yT6dOnF7n5AMjLy+PFF19k4cKFzJgxg6++ +orvvvuOjRs3Mn36dB566CHat2/vdWOzwihTpgxHHXVU5OM+8MADkY+5y7HHHhv5mL7PgJx00kmR Nx8A48eP99p8AJx44oleLk364IMPgjcfAH//+9+9Nh8A1113nZqPX2sLfOqc0yqSkjhC34SiUpkZ QF1gHuFv3kuJcs7ZnDlzzKc1a9ZYuXLl9pmjXbt29uabb9rOnTu9ZtmbBQsW2I033miHHHJI8J8J YEcddVTkx7hp0yYrWbKkl7w1a9aMPK+Z2erVq71+nwcPHuwld69evbw/RoYOHeol+9VXXx388d+2 bVvvzwUjRowIfpwJXN8DDS0BfuerVIn19qAUS865I4HPgIahs6QKM2PQpFdpagAAIABJREFUoEFe 56hYsSLXXnvtb/7eOUeXLl34+OOPmTJlCn/4wx+CnYmoV68eQ4YMYdGiRdx2221e3hU/GFHt+F7Q woUL2bZtW+TjApx99tlexi1f3u+K2ieffLKXcceNG+dl3IJ83P+Rl5cX/F6pjIwMnnvuOa/PBT/9 9FNSLccdQF3gM+dcYu6AKsVL6A5IVbwLaA4sJ/w7QylXJUqUsKVLl5pPCxcutMzMTAMsMzPTLr/8 cvvqq6+8zlkUCxYssO7duwf7mXTt2jXyY5o2bZq3vDNmzIg87y77O3tW2CpVqpTl5uZGnvebb77x /vho3rx55LnNzCZNmhTsMb+rbr/9di/HVtAVV1wR/DiTpH4EWlsCvAZQFd/SGRAJxjnXDvgYqBE4 SkrKzc31sipSQbVr1+baa6/l5ptv5rvvvuPFF1/k6KOP9jpnUdSrV4833niDN99808vZiBB8nU3o 1KkTLVq08DI2+LsP5JhjjiEzMzPycSdOnBj5mLtL1dWvGjVqxF/+8hevc4wfP54XX3zR6xwppCow wTlX9BvyRApJDYgE4Zw7CfgQqBw6Syp7+umnWb9+vdc5nnjiCQYPHkytWrW8zhOlP/zhD+Tk5NCt W7e4zutjT4L69etHvldHmTJleOqppyIdc3e+GpCWLVt6Gfezzz7zMm5BF110kZdxQ+9+PmzYMEqX Lu1t/C1bttC7d29v46eoCsB7zrnTQgeR4kkNiMSdc+5M4D/AIaGzpLr169czbNiw0DESUrVq1Rg1 ahSPP/64l70u9mTjxo2Rj5mZmclpp0X7GmLQoEFeVusqqGLFil7GbdCggZdxfZ8BadWqFc2aNYt8 3G+//TboRp1XXHEFp5xyitc5Bg4cyPz5873OkaLKAu845/ycehPZBzUgElfOufOB0YC/t8PkV4YO Hep96dBk9sc//pHs7Gzq16/vfa5vvvnGy7h7WgygsP74xz9y/fXXRzbe3vg6A+Lj57h27Vq+/fbb yMctqGfPnl7GDXn5VfXq1Xn44Ye9zjFjxgwGDx7sdY4UVxIY6Zzzc/pNZC/UgEjcOOcuA14H4vN2 swCwdOlSXn755dAxEtqxxx7L559/zhlnnOF1nqVLl7Jhw4bIx+3WrRtnnXVWkce58cYbefzxxyNI tH++GpDDDjss8jEXLlwY+ZgFZWRkcMkll3gZO+TlV0OHDqVyZX9X2ebl5dGrVy927NjhbY5iIgMY 4Zy7OnQQKT7UgEhcOOf6AP8C0kNnKY4GDx6MmYWOkdAqVarE2LFjueWWW7zO4+ssyIgRI/jd735X qK+tWrUqL730EkOGDIk41d75akB83JS/aNGiyMcsqGfPnlSvXj3ycVetWsWkSZMiH/dAdO7cmYsv vtjrHI8//jjTpk3zOkcxkgY865zrFzqIFA9qQMQ759wtwFOAC52luJozZ07wfQCSQXp6OoMGDWLE iBHebpr1dT1+hQoV+PDDD7n77rsPOHvVqlXp168fc+bM4bLLLvOSa2+SqQFZs2ZN5GPuUqJECW8r RI0dO9bLwgf7U7ZsWe+LGCxcuJC77rrL6xzFkAOGOuf0jRXvol06RWQ3zrm7gYGhcwhkZWV5W+Yz 1VxyySU0btyY8847L/J3v99991169OgR6Zi7lClThoEDB3LzzTczevRoJkyYwNy5c1mxYgUApUqV 4sgjj6Rx48Z06NCBzp07e1my9kD4akB8nOmrUcPfSuHXXnstdevW9TJ2qPs/7r33Xm/HtMv111/v ZVEHAeBe51xpM7szdBBJXU6XZYgv+Wc+/G7HLQclOzub9u3bh46RNFauXEn37t0jXYK1TJkyrFy5 krJly0Y2ZjJ68skn6du3b+Tjzp07N/IVvObNm8cRRxwR6ZgQa2xmzpzp5fKrrVu3UrVqVTZt2hT5 2Pty7LHHMnnyZNLT/V1t+9prr3lbslh+5W4z+3voEJKadAmWeOGcuw41HwnnoYceCh0hqVSvXp3x 48fTp0+fyMbcvHlz8I3hDtbq1asjH9PXGRAf+940atSI448/PtIx09PTeeWVV7w0HxDbmC/ezUdG RgbPPvus1+ZjzZo19Oun2xTi5F7dEyK+qAGRyDnnegL/CJ1Dfuvtt99m7ty5oWP8xoYNG5g9ezaf fPIJU6dOZcmSJaEj/SwzM5OnnnqKp59+OrLLlZJpVbLp06d7WRnLVwPiaz+IP/3pT5GO97e//Y1O nTpFOmZBIVa/6t+/P8ccc4zXOQYMGPDzJYUSF0O0OpZ4YWYqVWQFdAd2AKZKzLrqqqssEXz55ZfW v39/a9WqlaWlpf0mZ61ataxPnz42derU0FF/9tlnn1mNGjUi+Tl89NFHoQ9nv7Zs2WJNmjSxvn37 Rj72p59+6uXxPXDgwMiz7vKHP/whkoz9+vWzvLw8bznz8vLssMMOi+vzSoMGDWzz5s3ejsnM7KOP Pgr+/FlMaydwkSXAawxV6lTwAKrUKaALkJsAT5aqfVSJEiVsyZIlFsL27dvtpZdesrZt2x5U5tNP P90mTZoUJPPuFi1aZG3atCnyz6Fx48a2bdu20IezT9dff70B1qNHj8jHnjFjhpfH9znnnBN51l3W rVtX5J/9vffe6y3fLlOmTIn788oHH3zg9Zi2bNliRx55ZPDnz2Jc24FzLQFea6hSo4IHUKVGAZ2A LQnwJKk6gLr11lstnjZs2GBDhgyxOnXqFDqzc86uvvpqW7VqVVyz78mWLVusR48eRf45+Hy3vqie eOKJn3OeffbZkY//ww8/eHlsV6lSJfKsBW3dutV69ep10Lnq1KljI0eO9JptlzvuuCOuzyc9e/b0 fkx33nln8OdNFVuB0ywBXnOokr+CB1AlfwHHAxsS4MlRdYBVvnx5W7dunfm2YsUKu+uuu6xSpUqR Za9ataqNHTvWe/YDMXjwYEtPTy/0sZQqVSphzuwUNG7cuF8d1wknnBD5HGvXrvX2+J48eXLkeXc3 bdo0u+yyy6xkyZL7zHL44YfbwIEDvV+eVFCzZs3i9lxSrVo1728KzJo1yzIzM4M/b6owYCPQwRLg tYcquUvL8EqROOdaAROAiqGzyMF56KGHuPXWW73Ocd5553lZ8ck5xx133MHAgQNJSwu7lsb777/P RRddVOjN6sqXL88HH3xAu3btIk5WOO+++y4XXHABmzdv/vnvmjdvzsyZMyOdJy8vj4yMDHz8Durb ty9PPPFE5OPuyebNm/niiy+YPn06s2fPJi0tjdKlS1OjRg3OOOMM7zdl7+67776jYcOGcZvv5Zdf 5tJLL/U2fl5eHh06dGDy5Mne5pCDtg44xcz+FzqIJLHQHZAqeQtoAqwk/DsyqkJUzZo1vd+D8PHH H3s9htNOO81++uknr8dwIObNm2dHH310oY+jYsWK9vnnn4c+DPvXv/5lGRkZv8lXu3ZtL/OVL1/e y+OiUqVKcTnDl4geeeSRuD2HnHHGGd6P5/HHHw/+XKnaY/0INLUEeC2iSs7SMrxSKM65hsCHQLXQ WaRwli5d6n052I4dO3p9Z//DDz+kbdu2zJo1y9scB6Jhw4ZMnjyZ8847r1Bfv3btWk4//XTGjh0b cbIDs23bNvr3788VV1zBjh07fvP/165d62VeX0vxrlmzhqFDh3oZO9HFa/ndMmXK8NRTT3mdY/Hi xdxxxx1e55BCqwp8mP9aQOSg6RIsOWjOuVrAZ0C9wFGkiBo3bszs2bNxznmbY+TIkXTv3t3b+ADl ypXjX//6F+eff77XefbHzPjb3/7GwIEDKexz61VXXcWQIUMoX758xOn2bObMmVx22WX7vMTKOceO HTt+c7nb5s2bWbduHevWrWPt2rU//7lg7evv165dW+jv0/6UL1+e2bNnc/jhh3sZPxGtXr2aGjVq 7LGJjNrgwYO5+eabvc7RtWvXIPuZyEH5ATjRzBaFDiJJJvQpGFVyFbF3Pb4m/OlfVUQ1evRo82nn zp12xBFHeD8O55zdfffdXvdXOFCjRo2ycuXKFfpYateubW+//bbXY8nJybGLL754j3uw7KlOPPFE a926tTVo0MCqVKmyx0u1Eq06d+7s7fuXiIYPHx6X72vr1q1tx44dXo/ljTfeCP74UR1wfQ3UsAR4 jaJKngoeQJU8BZQCshPgyU4VYbVv3958e/rpp+N2PF27drX169d7P6b9+eqrr6xhw4ZFOpZGjRrZ gw8+aMuXL48k0+rVq+2FF16wzp07H3Djkez1wAMPRPK9Swbdu3f3/v1MT0/3fr/SmjVr4r6RoqrI NRUoYwnwWkWVHKVLsOSAuNg1Oq8BF4TOItGbOHEiHTp08Db+1q1bqVevHitWrPA2R0FNmzZl9OjR NGrUKC7z7c20adPo2LEjW7ZsKdI4mZmZnHnmmbRv3542bdrQunVrqlSpss+vycvLY9myZUybNo0p U6YwefJksrOz2b59e5GyJBvnHC+++CI9e/YMHcWr3NxcqlatyoYNG7zOc8sttzBo0CCvc/Tu3Ztn nnnG6xzixWjgfDPLCx1EEp8aEDkgzrmHAL9rtkow5557rpflcgu6//77ufPOO73OUVClSpV45ZVX OOOMM+I25y7Tp08nKyuLkSNHkpfn53dx3bp1qVmzJunp6WRkZJCenk56ejrr1q1jyZIlLF++PC73 AiSDtLQ0nn76aXr16hU6ijf/+c9/6Ny5s9c56tevz1dffUWZMmW8zfHZZ5/RsWNH9NokaT1mZv1C h5AkEPoUjCrxC+hD+NO7Ko/lnLPZs2ebT6tXry7SfRGFqfT0dBs0aJDX4ypo3Lhx1qlTp+A/T9We 64477rDt27fH7fGwux07dtiyZcu8jH3dddd5//699957XrLvsnXrVmvcuHHwx4mqyHWjJcBrF1Vi V/AAqsQuoDOwIwGe0FSe66qrrjLfbrrppiDHdumll3rbiXr79u328ssvW4sWLYL/DFX7r3bt2tnc uXO9PBb2JTs721q2bGkzZ86MfOy8vDw7/PDDvX7fevToEXnu3f3lL38J/vhQRVI7gfMsAV7DqBK3 ggdQJW4BxwAbEuDJTBWHKlGihC1ZssR8WrhwoWVmZgY5vjZt2tiiRYsiO5aNGzfa0KFDrU6dOsF/ dqqDq8zMTLv55pvjslnh/Pnz7YorrjDnnNWvX9/LHNOnT/f6/apatar9+OOPXrLvkpOTYyVKlAj+ 2FBFVpuAdpYAr2VUiVnBA6gSs4DawJIEeBJTxbEGDBhgvl122WXBjq9GjRr22WefFSn/ihUr7K67 7rLKlSsH/3mpilYVK1a0W2+91RYvXhzRo/sXOTk51qNHD0tPT/95vn79+kU+j5nZ3Xff7fX79NJL L3nJvUteXp61b98++ONBFXmtAOpbArymUSVeBQ+gSrwCygMzE+DJSxXnKl++vPd3hWfNmhX0GDMz M23YsGEHnfvbb7+1Pn36WKlSpYL/nFTRVkZGhp155pn2r3/9y9auXVvox/b69evtueeesxNOOGGP 84wfP77QY+9Ly5YtvX1vTj/9dC+ZC3ryySeDPwZU3moOUMkS4LWNKrFKq2DJrzjnMoB3gdNDZ5Ew HnroIW691e+CZ2eddRbvvvuu1zn2p0+fPjz22GNkZmbu8/OmTZtGVlYWo0aN8railSSOjIwMWrdu TceOHenQoQNHHHEE9evXp3Tp0r/6vB07drBkyRK+/fZbJk6cyKeffsp///tftm7dusdxK1asyI8/ /khGRkakeX/44Qfq1asX6Zi7lC5dmq+++ooGDRp4GR9g6dKlNGnShPXr13ubQ4L7BPi9meWGDiIJ JHQHpEqsAp4j/DsmqoBVs2ZN27Ztm/n08ccfBz9OiO3uvWLFij1m1IpWql3lnLNq1apZzZo1rXbt 2lazZs1fXVp1IHXJJZd4+bf02GOPeTvurKwsL5kL6tatW/Cfryou9bIlwGscVeJU8ACqxCngzgR4 klIlQD3//PPmW7t27YIfJ2C1a9f+eWfn7du32/Dhw7WilSryevXVV738Ozr11FO95G3VqpX3JYtH jRoV/OeiimvdawnwWkeVGKVLsAQA59wlwMuAC51FwmvcuDGzZ8/GOX8Ph5EjR9K9e3dv4x+M0qVL 06dPH0aOHMnChQtDx5EUk5mZyapVqyhfvnyk465du5bq1atHvrt9eno6U6ZMoU2bNpGOW9D69etp 0qQJS5cu9TaHJKSrzOyF0CEkvLTQASQ859yxwAuo+ZB8c+fOZcyYMV7n6NatG0cccYTXOQ7Uli1b GDJkiJoP8eLII4/0siv9uHHjIm8+APr16+e1+QC4/fbb1XwUT8Occ+1Dh5Dw1IAUc865qsBIoETo LJJYsrKyvI6flpbGzTff7HUOkUSQk5ND9erVOfnkkxkyZAjz58+PZNzRo0dHMk5B9erVY+DAgZGP W1B2djZPP/201zkkYWUCbzjnDg0dRMLSJVjFmHMuHXgPODV0FklMEydOpEOHDt7G37p1K/Xq1WPF ihXe5hBJREcffTRdu3ala9eutG3b9qAvd9y+fTvVqlVj3bp1keYaN24cZ555ZqRjFpSbm0urVq2Y PXu2tzkkKXwGnGJm0Z8alKSgMyDF232o+ZB98H0WpFSpUtxwww1e5xBJRDk5Odx///0cd9xxHH74 4fTu3Zt33313r8v47u7jjz+OvPm45JJLvDYfAA8++KCaDwE4ERgcOoSEozMgxZRz7nxil16J7JVz jpycHJo0aeJtjjVr1lCnTh02btzobQ6RZFG2bFnOOOMMunbtyllnnUWVKlX2+Hl/+tOfeOKJJyKb t0qVKsyZM4dq1apFNubu5s6dyzHHHMO2bdu8zSFJ51Iz+3+hQ0j86QxIMeScawy8GDqHJD4zY9Cg QV7nqFSpEr169fI6h0iy2LRpE6NGjeLyyy+nRo0adOzYkUceeYR58+b96vOiXiTi4Ycf9tp8mBnX Xnutmg/Z3bPOueahQ0j86QxIMeOcOwSYCjQOnUWSQ4kSJViwYAE1a9b0NseiRYto2LChlxV9RFJF 06ZN6dq1K0cddRRXXHFFZOOeeuqpfPjhh5GNtyfPPPMMvXv39jqHJK35wLFmtjZ0EIkfNSDFjHNu JHB+6BySXAYMGOD9fpCePXsyfPhwr3OIyK+VLl2aWbNm0bBhQ29zLFu2jKZNm7J2rV5fyl6NBc4x vSgtNnQJVjHinLsNNR9SCMOGDYv8htfd3XrrrV7HF5Hfuueee7w2HwA33HCDmg/Zn7OAv4QOIfGj BqSYcM6dRmzVK5GDtn79eoYNG+Z1jmbNmtGlSxevc4jIL1q2bOl9L54xY8bw5ptvep1DUsY9zjn9 EigmdAlWMeCcqwN8DlQNnUWS12GHHcb3339PiRL+9qz85JNPOPnkk72NLyIxaWlpTJ48mbZt23qb Y8OGDTRt2pTFixd7m0NSzlpi94NEs1unJKyM0AHEL+dcSWLL7ar5kCJZtmwZw4cP5+qrr/Y2R8eO HWnXrh1Tp071Nof8hhH7pf9Tfm0CcoFtBWpv/w1QskCV2Md/lwOq5Fd54OB23pNI3XDDDV6bD4A7 7rhDzYccrIrAKOfc78xsc+gw4o/OgKQ459xzgL9XjFKsNG7cmNmzZx/0rs0HY+TIkXTv3t3b+MXI WuB7YAGxVWaW80uTUbDWmNnOeAZzzmUAlfmlISlYhwINgfpAPWLNikSobt265OTkULZsWW9zTJ48 mQ4dOpCXl+dtDklpI8ysR+gQ4o/OgKQw59y1qPmQCM2dO5cxY8bQtWtXL+PPnz+fDz74wMvYKWgT sebi+/yPBf/8fSIvaWlmO4CV+bVPzrnKxBqR+gU+FvxzaU8xU9aTTz7ptfnYvn07vXr1UvMhRXGp c26SmT0ZOoj4oTMgKco51xSYjn45S8Tat29PdnZ2pGNOnz6dQYMGMXLkSHbujOub8ckgD5gHzARm Ffj4XXFfstI5lwY0ApoDLQp8bIAu8dqjiy66iFdeecXrHPfddx933XWX1zmkWNhC7H6Q2aGDSPTU gKSg/Ps+pgAtQ2eR1DRx4kQ6dOhQ5HHee+89srKymDBhQgSpUsI6Ym8czOKXZiPHzLYETZVknHNl gWb8ujFpAxwSMldolStXZs6cOVSvXt3bHN988w0tW7Zk69at3uaQYmUGcJyZbdvvZ0pS0SVYqel+ 1HyIR1lZWYwePbpQX7tjxw5ee+01srKymDlzZsTJks73QDYwMf9jjpnpupUiMrNNxN6EmbLr75xz 6cSakQ75dQJQK0jAQNq0aeP10iuA3r17q/mQKLUk9prG73rREnc6A5JinHOnA++hyw/EI+ccOTk5 NGnS5IC/ZtOmTTz33HM88sgjLFy40GO6hLWD2Lt5u5qNbDNbGjZS8Za/RHmHAtWCFN8fq27dujz1 1FN07tw58rGff/55rrnmmsjHlWLPgDPMTDcIphA1ICnEOVeF2GUbh4XOIqnvyiuv5J///Od+P2/l ypU8/vjjPPnkk6xevToOyRLK98A44F3go/x35iVBOefKA6cCnYEzgdphE/lz8cUXM3To0Mgux1qx YgVNmjRhzZo1kYwnsptlQHMz+yl0EImGGpAU4pz7N3Be6BxSPJQoUYIFCxZQs2bNPf7/efPm8fDD D/Piiy8Wp0sycoFPyW86zGxu4DxSBM65ZsSakc7ELtnKDJsoWpUrV2bw4MFceeWVRR7roosu4rXX XosglchevWVm3UKHkGioAUkR+UvuDgudQ4qXAQMGkJWV9au/mzZtGllZWYwaNaq4LMP5A7GGYxww Xmc5UpNz7hDgNFLw7EinTp0YNmwYRxxxRKG+fuzYsZx99tkRpxLZo95m9kzoEFJ0akBSgHPuKOB/ QJnQWaR4KV++PAsXLqRChQqMGzeOrKwsPv7449Cx4mE+8Drwupl9GTqMb865isRWkTq0QNXI/5gL 5BSo2cVh1S7nXBvgQuACYnuSJLVSpUpx9913M2DAADIzD/xEz8aNGzn66KOL631dEn+bgdZm9nXo IFI0akCSnHMuE/gvsRcHInH3f//3f8yZM4dZs2aFjuLb98AbwGtm9nngLN7lP7d0Bi4DzgFKHuCX 5hHbDPENYKiZrfCTMHE4547jl2YkqVfWat68Oc8++yzHHXfcAX3+jTfeyKOPPuo5lcivfA78zsy2 hw4ihacGJMk55x4EbgudQyRFLSL2Qvp1M5uyv09OBc65tkBP4CKgahGH2wo8Dww2s++LOFbCc845 oD2xZqQ7SbogSFpaGn379uW+++7jkEP2vnXKtGnTOP7444vLpZaSWB4ys9tDh5DCUwOSxJxzJwPj SfFlI0XibCPwGvACMKm47DbunKsM/INY4xG1HcArwEAzm+dh/ISTv0t7R+Aq4A9A6bCJDl7t2rX5 xz/+wTnnnPOb/7djxw6OPfZYZsyYESCZCHnAqWb2ceggUjhqQJKUc64SsV2Sk/p0v0gCmQI8B7xq ZhtDh4kn51xnYse+5yXNorMWONfMPvM8T0LJv4emB3ANSbhJ7AUXXMBjjz3GoYce+vPfPfjgg/z5 z38OmEqExUALM9Paz0lIDUiScs69Tux6YxEpvNXAcOA5M/sqdJh4c86VAx4Gro3jtFuBS81sVBzn TBj5l7hdA1wM7P36pgRTsWJFsrKyuOaaa5g/fz4tWrRgy5aUX2tAEt8bZvZ/oUPIwVMDkoScc5cC L4fOIZKkDJhA7B3/f5vZtsB5gsh/Ifwq0CDA9HnAH83sqQBzJwTnXFlil7tdAxwfOM4BO/HEE8nL yyM7Ozt0FJFdepjZiNAh5OCoAUkyzrmqwByKfnOoSHGTC/w/4OHieLajoPyluycBlQNH+buZ3R04 Q3DOuebATcClQInAcUSSzSqgiZmtCh1EDpwakCTjnHuZ2C8pETkwa4CngcfNbFnoMKE556oDk4H6 obPku9DMXg8dIhE45w4D/gT0ASoFjiOSTEaYWY/QIeTAqQFJIs65M4nttiwi+/cdMAR4QbuTxzjn ygAfAe1CZylgGdDYzNaHDpIo8i/PuorYWZFEaRRFEl0XM9NrpCShBiRJ5P9CygHqhs4ikuD+S+zG 6n+bmTYoyJe/LOwooGvoLHvwuJndEDpEonHOpQPnA7eQWE2jSCJaCBxd3FYxTFbaPyJ53IeaD5F9 GQe0N7P2ZjZSzcdvDCUxmw+Avs65Y0OHSDRmttPM3jCz44CTiJ29EpE9q0PstZIkAZ0BSQLOueOI 3TCqhlHktz4C7jKzSaGDRCH/Xe8SQMkCH1cX5TIy59xNwCPRJPTmc+A4M9sZ1YDOufLEFuyokl9l iW00uT6/libbHgLOuVOAe4ntuC4iv5YHdDCzyaGDyL6pAUlwzrlMYr+Ym4fOIpJg/kus8ZgQOsjB cs45Yi8gO+R/bAdUINZspO/ly5YD84nd2zI/v74FvtzXUsLOuWuAYSTHGxj9zOyxg/0i51xJoCmx Tf5a5FdL9r9aoAGzgU/za7SZJcXmFvmbRw4EdOZI5NdygFZmtj10ENk7NSAJzjl3F7F3u0Qk5n/A 3Wb2buggByv/hXJP4GbgqIiG3UbsTYpsYCLwBbFLEVoCZwOdI5onHjYCzczsh319knOuJrGNWI8n 1mwcCWREMP8y4O/As8ny4sU5dx7wN2LfBxGJucfMBoYOIXunBiSB5a/VP4PYu6IixV0O8BdiN5cn 3ROXc+40YruuHxo6S4J7z8zO3P0vnXMVgT8AlwAn4/eMzgLgMjNLit328s+o/R/wV6Bx2DQiCSEX OMbM5oQOInumBiRB5f9C+QQ4MXQWkcCWA3cCLybrjeXOueuAx4jmXfrioJeZPQfgnDsS6AdcTuwe jnjZCHQ2s4lxnLNI8u8fuobYWfNqgeOIhJYNnJiMb1gVB2pAEpRzrg/wVOgcIgFtI7aPx/1mtiF0 mMJyzv0ZuD90jiQ0I/9jC8AFypB0TQiAc64CsbOFfwIyA8cRCalmCueJAAAgAElEQVSvmT0ZOoT8 lhqQBOScO5zYjZHlQ2cRCWQkMMDMFoQOUhTOuSbAl8RWs5LktBpoYGbrQgc5WM65I4itfnZ26Cwi gWwAmprZ4tBB5NeSYVWU4ugfqPmQ4ukLoKOZdU/25iPfU6j5SHaViW0EmHTM7FszOwc4g9g9VCLF zSHoapKEpDMgCcY5143YbsUixckKYvd5vJCs93nszjl3CTAidA6JxEZiZ0F+DB2ksJxzGUBvYkv3 Vg4cRyTeLjSz10OHkF+oAUkg+Ut0zgYahM4iEicGPAPcloyXuOxN/s3As4ktDyup4REzuzl0iKJy zlUhdm/VZaGziMTRYuAoM9scOojE6BKsxHITaj6k+PgGONnM+qRS85HvUtR8pJrezrlKoUMUlZn9 ZGY9iV2W9X3gOCLxUgu4NXQI+YXOgCQI59xhxF6QlQudRcSzHUAWcK+ZbQ0dJmrOuRLErrdvFDqL RO42M8sKHSIqzrkyxJbs7QekB44j4tsWoLGZLQwdRHQGJJHcj5oPSX3TgDZmdmcqNh/5/o6aj1T1 x/x7KVKCmW3Ov6zseH5Z9lgkVZUGHgodQmJ0BiQBOOeOBaYSbq17Ed82A3cDj5rZztBhfHHOnQyM R2/upLKLzOy10CGilt9Y3QLcA5QKHEfEpxPMLDt0iOJODUgCcM5lA+1D5xDx5GPgqhRZVnevnHN1 iO28Wyt0FvFqHtAyVW9mdc41Al4EOgSOIuLL50Bb7ZAelt6lC8w5dzFqPiQ15QF/BU4tBs3HUcBE 1HwUB42AB0KH8MXM5gEdgfuIrVInkmraAFeEDlHc6QxIQPk3AH6NXrRI6lkGXGpmH4UO4pNzri6x Fa9uAqoGjiPxY8RWcPs0dBCfnHO/B4YD1UNnEYnYcuBIM9sQOkhxpQYkIOfcX4ldbyuSSj4AepjZ ytBBouCcqwmcDJwA1AVq5Fd1tMt5cbYM6GJmX4YO4lP+Co3/j9i/AZFU8pCZ3R46RHGlBiQQ51xt Ymc/SofOIhKRncQa6geSeTdz55wDzgS6EXvRdUTQQJLINgAXmNl7oYP4lL+x5l+Au9Cl25I6tgFH m9n80EGKIzUggTjnXgEuCp1DJCJLgEuS+ZIU51w54HLgBrSJoBy4ncAE4G3gE2C+mW0KG8kP59yp wMvAoaGziETkLTPrFjpEcaQGJADnXAdiN6yKpIL/AJeZ2arQQQrDOXcIsSWCrwUqBI4jqWEZsX8X rwHjzWxH4DyRcc7VAEYAp4bOIhKR08xsfOgQxY0akDjLv7xjGrFVGESS2Q5iL9wfStblDJ1z5wBP ooUgxJ+FQB8zGxc6SFScc2nAncQuudQO6pLsZgGtUnmPqkSkaznj7wrUfEjyW0xsFaAHk7H5cM7V cM69DoxBzYf4VQd41zn3knOucugwUTCzPDO7FziN2NkekWTWnNgZcIkjnQGJI+dcaWA+cFjoLCJF MBa43Mx+Ch2kMJxzbYhdHqNlcyXeVgJ/NLM3QgeJinOuOrGlen8fOotIESwHGpjZltBBigudAYmv vqj5kOS1HRgAnJPEzcdJxG4YVvMhIVQHXnfOjcxf9CDp5S+3fSaxS7J0CYskq0OJvUaTONEZkDjJ /2XzHVAtdBaRQlgIXGhmk0MHKSznXBfgTbT0tSSGiUBnM9sYOkhUnHMnAq8Ah4fOIlIIPxI7C5Iy /yYTmc6AxM8NqPmQ5PQOcEySNx+nAm+h5kMSxwnAuFQ5EwJgZp8BxwDvh84iUgjViL1WkzjQGZA4 cM5VABYAlUJnETlIzwDXJ/PqIPk3/s5E78pKYhpuZj1Dh4iS+//s3Xm8H+P5//HXlUUiESKRNlIi JLEEpU1RYimqmtKQRupHKLXUXmtLaalELC1fFK3aFa0KDaKqtqJ2Yk0QWUlEmkQsySGyXb8/ZkLE WT7LzFwz91zPx2MeOM5n5n3O+Xzmvq+5Z+5bpA1wDdG6Os4VyfvA+qr6oXWQ0PkISDZOxIsPVzzn qOoRRS4+Yn/Ciw+XXweKyD7WIZIUr3vyU+D31lmcq9KaRH02lzIfAUlZfPV1KrC6dRbnKrQMOF5V L7cOUi8ROYBohh7n8mwesFFRF/NsjoicTFSIiHUW5yr0EdEoyDzrICHzEZD0/QIvPlxxLAL2D6T4 WBW41DqHcxXoAhxuHSINqnoR0a1YwawG74K3OlHfzaXIR0BSFM+PPgXoaJ3FuQosAAar6oPWQZIg IgcBN1jncK5CbxPNwFP0Wx4bJSIDiWah62CdxbkKNBB9HmdbBwmVj4Ck61S8+HDFMIdoZfMgio/Y EdYBnKtCT6KVxYOkqv8CdiW63cy5vOtI1IdzKfECJCUi0gM42jqHcxWYCgxQ1bHWQZIiIpsD21rn cK5KW1oHSFM8lff2wHTrLM5V4Oi4L+dS4AVIek4H2luHcK4FrxAVHxOtgyTMp/90RbSRdYC0qerr wHbA69ZZnGtBe6K+nEuBFyApEJGeBPpAoQvKY8COqvqudZAU9LMO4FwNgi9AAFR1BtFIyFPWWZxr weFxn84lzAuQdPwaWMU6hHPNuBPYPeDFltazDuBcDTa0DpCVeIrT7wL3WmdxrhmrEPXpXMJ8FqyE icgGwASgjXUW55pwDXBkqLPtAIjIAnwCCFdMa6rqB9YhshKvmn4dcKB1FueasIRonZ4p1kFC4iMg yTsNLz5cfo1U1cMDLz7WwosPV1xbWQfIUrxq+kHARdZZnGtCG6K+nUuQFyAJitf98Ks4Lo8U+Lmq lmEoeQPrAM7V4UjrAFnTyClEi7/5bRkujw6M+3guIV6AJOsYfOYrlz8K/ERVL7MOkpGvWwdwrg57 lfWhV1W9EPgZXoS4/GkPHGsdIiRegCRERFbF1/1w+XS8qt5sHSJDW1gHcK4OrYHfW4ewoqrXAL+0 zuFcI44WkQ7WIULhBUhyDgLWsg7h3ErOLdHIx3JegLii+7GIHGYdwko8EuLPhLi86Qr81DpEKHwW rASISCvgDaCvdRbnVnCtqpaqEyMiqwMzgE7WWZyr08fA3qr6gHUQCyIiwI34c5UuXyYDG6rqMusg RecjIMkYhBcfLl/uAo6wDpElEVkFuAQvPlwYOgD3iciv4854qWh0dfQQfJ0Qly+9gcHWIULgIyAJ EJH/Eq3q6lwePA7spqoLrYNkRUQOBkYCPYyjOJeGfxFNJDHXOkjW4nvuHwS2tc7iXOxpVfX3Y528 AKmTiGwDPG2dw7nYOGCHki1k9gvgd9Y5nEvZDGA/VX3cOkjWRKQL0YWVTayzOBfbXlWfsA5RZH4L Vv1OsQ7gXOwtYPeSFR8/AM63zuFcBtYBHhSRAdZBsqaq84DvAdOtszgX+4V1gKLzEZA6iMgGwJtE 0yY6Z2ku0RWZCdZBshI/8zEB6GUcxbkszQW2UdUp1kGyJiKbEI2EdLHO4kpvGbCJqr5pHaSofASk PifgxYez1wDsUabiI3YEXny48lkLuEdEVrMOkjVVfR3Yg2iGMOcstQJOsg5RZD4CUiMRWZNoOLij dRZXaouBH6rqv62DZElEOgJTgK9YZ3HOyAWqepp1CAsiMhC4G2hjncWV2kKgp6rOsQ5SRD4CUruj 8OLD2VLgp2UrPmIn4sWHK7cTRaS3dQgLqvovoil6/Qqqs9QeONY6RFH5CEgN4nvP3wK6W2dxpXaS ql5sHSJrItKVaPRjdesszhm7W1X3sg5hRUROBi60zuFKbS7RKMgn1kGKxkdAajMMLz6crd+VsfiI /QovPpwDGCQiW1qHsKKqFwG/t87hSm0t4EDrEEXkBUhtjrIO4ErtRlU91TqEBRFZlZKt8O5cC35m HcDYqcCN1iFcqR1mHaCI/BasKonIFsBL1jlcad1PNOPVEusgFkRkKHCbdQ7ncuQjoIeqNlgHsSIi bYB/Eq0V4pyFLVX1ZesQReIjINU73DqAK613gGFlLT5i+1kHcC5nVgf2tQ5hKT4nDiM6RzpnwfuG VfIRkCrEt3/MBDpbZ3GlsxTYWVX/ax3EioisDswG2llncS5nRqvqj6xDWBORHYD/4Otzuex9QDQS 6Q+jV8hHQKozFC8+nI0zy1x8xH6IFx/ONWYnERHrENbic+SZ1jlcKXUm6iO6CnkBUh0fYnMW7gfO sw6RA1+3DuBcTnXBPx/LnUd0znQua95HrIIXIBUSkY2B7a1zuNJ5FzhQ/V5JgL7WAZzLsZ2sA+RB fK48kOjc6VyWto/7iq4CXoBUzitbl7WlwP6qOts6SE54AeJc0/zzEYvPmfsTnUOdy5L3FSvkBUgF 4pXPf2Kdw5XOcFV9xDpEjvS2DuBcjvWwDpAn8bnzbOscrnR+EvcZXQu8AKnMYKLVLp3LykPAOdYh cmahdQDncswLkC8bSXQudS4raxH1GV0LvACpjK9y6bI0i2i9j2XWQXLGb0VzrmlrWwfIm/gcOozo nOpcVrzPWAEvQFogIhsAu1rncKWxDDhAVf9nHSSHvABxrml+waIR8bn0APz347Kza9x3dM3wAqRl hwKln1/dZeYcVfVbBhrnVzGda9oC6wB5FZ9T/ZZWlxUh6ju6ZngB0gwRaQP81DqHK41HgOHWIXLs UesAzuXYfOsAOTec6BzrXBZ+GvchXRO8AGneHvh9tS4bs4mm3PVpI5t2t3UA53LsfesAeRafW/fH b+V02VibqA/pmuAFSPN8CM1lQYkWG/SFs5qhqtOBF61zOJdTT1sHyLv4HHsg0TnXubT9zDpAnnkB 0gQRWQPY3TqHK4VzVfV+6xAF4aMgzjXuYesARRCfa8+1zuFK4Xsi4ks4NMELkKbtDfhiMi5tTwBn WYcokDHWAZzLoQXAc9YhCuQsonOvc2lqAwyxDpFXXoA0bV/rAC54C4GD/bmPqrwAvGMdwrmc+a+q LrYOURTxOfdgfHFTl74fWwfIKy9AGiEiXYDvWudwwTtbVSdZhygSVVXgHusczuXMg9YBiiY+955t ncMFbycR+Yp1iDzyAqRxPwLaWodwQXsJuNA6REH5bVjOfZGvHVSbC4GXrUO4oLUG9rEOkUdegDTO b79yaVoKHKaqS6yDFNRDwKfWIZzLiTnAK9Yhiig+Bx9GdE52Li1+G1YjvABZiYh0A3a2zuGCdomq jrUOUVSquhBf88C55ebEtya6Gqjq88Cl1jlc0HYQEV9TbiVegHzZEKIhM+fSMBU40zpEAD62DuBc TrS3DhCA3wDTrEO4YLXCb8P6Ei9Avsxvv3JpOkJVvfNcvwbrAM7lxKrWAYouPicfYZ3DBc1vw1qJ FyAriIfIdrTO4YL1F1V9wDpEIPyWE+ciq4uIt+V1ihcovMk6hwvWABH5mnWIPPGT1hftg/9OXDre A06yDhGCeGXZzaxzOJcTHYHtrUME4kRgnnUIFyQBhlqHyBPvbH+R337l0nKmqr5nHSIQe+LnLudW 5KstJyA+R/szei4tfhvWCsQnz4iIyDrA20RVqnNJGgds6SueJ0NE/gEMts7hXI7MAHr6bFj1E5E2 ROs0bWqdxQVHgfVUdbp1kDzwq4ifG4oXHy4dJ3jxkQwRWQP4nnUO53JmHWAH6xAhiNcG8dtlXRoE HwX5jBcgn/Pbr1wa7lRVX6U4OacR3fPunPui4dYBQhE/kH6PdQ4XJC9AYn4LFiAivYjWZ3AuSZ8C /VR1inWQEMQziEzEpx11rikDVfU+6xAhEJG+wHigrXUWF5wNVLX0fU4fAYnsaR3ABeliLz4SNQIv Ppxrznki4rcSJ0BVJwKXWedwQfJJI/ACZLnvWwdwwXkXGGkdIhQishlwkHUOB8BfgD8Bi6yDuC/Z Evh/1iECMhyYYx3CBcf7nPgtWIhIO6J5vztYZ3FBOVhVb7QOEQoRGYOPVObBv1X1+wAisilwPbCV bSS3ksnAJqq62DpICETkCOBK6xwuKIuALqraYB3Eko+AwE548eGS9QrRVWKXABHZCi8+8uK85f+i quOBbYHf2cVxjegN/Mw6RECuAd6wDuGCsgqws3UIa22sA+RAqYfC+vTpw6BBg+jfvz89evT4bAOY OXPmZ9vYsWO5++67mTRpknHiQjjL5+NP1NnWARwAj6jqoyt+IZ5e+lQR+RC/5TBPfiMiN6rqAusg RaeqS0Xkt8Ct1lnyzvsTVfk+JZ9pzW/BEnkd2Ng6R5a6d+/Osccey+DBg+nXr19Vr33ttdcYPXo0 l19+ObNmzUopYaG9oKr9rUOEQkS2AZ62zpGRucBa1iGaoEB/VX2xqW8QkeOBS7KL5Fpwlqr61LwJ iB/sfwn4unWWvPH+RM0mq2of6xCmVLW0G9CLqGEtxdapUyc9++yzdcGCBVqvBQsW6Nlnn62dOnUy /7lytu1h/b4OaQPuy8HfNIvtaKA10a0zs3OQZ+Xthgr/XocDS3OQ1zf4COhm/RkOZQP2zsHfNDeb 9ycS2fpav69NP1PWAUx/eDgyB2/ATLahQ4fq7NmzNWmzZ8/WoUOHmv98Odmetn5Ph7QRPV9g/TfN YntupZ97fWBKDnIt3xqAr1Xxd9ufaA0c69y+wSXWn+OQNuC5HPxNzTfvTyS2HWf9nrbczAOY/vBw Vw7egKluIqLnnHOOpu2cc85RETH/eY233azf0yFtwP05+JtmsR3QyM/+NeD1HGT7iGhxu2r/drsA H+Qgf9m3T4Fe1p/lUDZgYA7+pmab9ycS3/5p/Z623MwDmP3g0SwE83PwBkxt69ixo955552alTvv vFM7duxo/nMbbf/N4n1blo3yjH5MAdo28TvoBrxomO1t4Ot1/A03i/dh/Tsu+3aB9ec5pA14Igd/ 08w370+ksjUA7bJ43+ZxK/M0vNsDq1mHSIuIcMstt7DXXntldsy99tqLW265hZIuxPsb6wCB2d86 QEbO0CbWa1DVOcAAokX/svY8sLWqvlLrDlR1HPBt4MHEUrla7G4dIDClO9d7fyI1HYAdrUNYKXMB MtA6QJpGjBiR6cliub322osRI0ZkflxjD6vqI9YhAvND6wAZGEsLU3uq6seqejTR72N2BplmAScD O6hq3dPSqOpMVd0NOIJoxDlNSnTb3jHASUSrWE9N+ZhF8HUR+ap1iFCo6sPAf6xzZMn7E6kq71IQ 1kMwVhswDvvht1S2oUOHqrWSPUi2o+bgPR3KRnTrjvXfNItt1yp/L18BbgeWpJBlOnAc0D7Fv2tP YDSwLOHsc4jWIOnVyDFXA67Kwd/aevvSc0a+1fVe3iEHf9NMNu9PpL69pjl4T1tspVwHRETWJbo3 OTidOnVi8uTJdOvWzTTHnDlz6N27N/Pnp33R09yzqrqNdYiQiMjPgD9b50jZv1W1pitf8dXsfYFh wNZ1ZJhFdCX3PuBWVV1Ux74qJiKbAL8gyr9KHbt6A7gYuElVP2nhmPsCf6W8o/43qepPrEOERESe ob7PX+55fyIz66lqkH3S5pT1ZBzskNcpp5xifrIA6NatG6eccop1jCxcaB0gQL2tA6RsMfDLWl+s qv9T1T/EhW8fos78VcC/iTrlH6/w7cuAecBEogUdRwHHAv1UdW1V3V9V/5JV8RHnf11VDyFah+kY 4E7gwwpeuozo2ZQLgF2JfoarWio+4mP+HTih5tDFt5t1gAAFf+73/kRmgu2TNqesIyD/AAZb50ha 9+7dmTRpEh07drSOAkBDQwN9+vQJeYXTqUQLCS21DhISEbkdGGKdI0XHq+of0jyAiKxFNLz/vqou S/NYSRCR1sAWRLdpdY+3dsD/iEZqZgEvq+r7dR7nIqLnQ8qoS72/P/e5+D07kWjdnuB4fyJTo1X1 R9Yhsla6ERARaUN09Sw4xx57bG5OFgAdO3bk2GOPtY6Rpou9+EhFd+sAKRqVdvEBoKpzVfW9IhQf AKq6VFVfUNU7VfVKVf2tqv5KVS9R1VtV9ZGEOs+nED1HU0ala+/TFJ/7L7bOkRbvT2Rq17hvWipl PCFtCaxuHSINgwfnb1Anj5kS8j5wnXWIQDU6LW0A3gQOtQ5RZhoN+R9MtMhj2bS2DhCg64jaguDk se3OY6aErE7UNy2VMhYgA6wDpKFPnz7069fPOsaX9OvXjz59+ljHSMOVqtpgHSJQC60DpOATYB9V DfYpyqKIP7c/JvqblMUyolXtXYLi99KV1jmS5v0JE0H2TZvjBUggBg0aZB2hSXnOVqNFwGXWIQK2 wDpACo5S1VetQ7iIRoskBns/RyOmq2qIhX0eXEbUJgQjz212nrPVKci+aXPKWIBsbx0gDf3797eO 0KQ8Z6vRLar6rnWIgL1kHSBhN6nqjdYh3Bep6nXATdY5MjLROkCo4rbgFuscScpzm53nbHUKsm/a nFIVICKyPrC2dY409OjRwzpCk/KcrUYXWQcI3LPWARK0CDjDOoRr0lFEUxeH7nnrAIEL6mH0PLfZ ec5Wp7XjPmpplKoAIeAKM88fyjxnq8EjqjreOkTgniO6Zz0EV6vqdOsQrnHxPfxDCf95kH9YBwhZ fHvl09Y5kpLnNjvP2RIQbB+1MWUrQIK9xy7PH8o8Z6vBNdYBQqeqHxAtTld0C4FzrUO45sXPgxxn nSNFb6vqc9YhSiCYtiHPbXaesyUg2D5qY8pWgJSqunSJex+4wzpESfyfdYAEXKWqM61DuJap6rXA zdY5UjLaOkBJ3Ar4LHeuHqXqo5amABGRNYH8zSuXkJkz89vPyXO2Kt3sM8lkQ1WfoNjPgnwCnGcd wlXlSMJ8HsQvmmQgvp3vb9Y5kpDnNjvP2RLQL+6rlkJpChBgO0CsQ6Qlzx/KPGerUjBD7AVR5FGQ P6nqLOsQrnJxB3Jv4APrLAmaBTxhHaJEgmgj8txm5zlbAoSor1oKZVr6Peh76/L8ocxztio8p6qv WIcomTuAt4Ge1kGq9DFwQT07EJEOwLeBvkCf+J99gR40fiFFgXlEHc5ZwLsr/PuK//0/VV1ST7Ys iEgbYC2g2wr/XL51ARYTrRczP/7ngpX++yNgsqpWtT6Dqk4QkX2A+wijfbxTVUOZ0CH3VPU5EXkZ 2MI6Sz3y3GbnOVtCBgD/tA6RhRBOsJUKugAZO3Ys+++/v3WMRo0dO9Y6QhKutg5QNqq6RET+AFxo naVKl6vq7FpeKCJfI1og72dEHe1qdAY2aOF7VETm8nlRMh14K97ejv85Q1UXV3nsiojIqsDXVtjW WeHf1+bzImMN6h+x/lREXiSanegp4B5V/bilF6nqQyJyLGGscO23X2XvGgq+UK33J0wF3Vddkaiq dYbUicgqwIdAe+ssaenTpw8TJ+Zzram+ffsyadIk6xj1aADWVlV/wDBjIrI6MAPoZJ2lQguA9VV1 bjUvEpEewO+BH2N/YWgZUXHyFtHv/iO+PNqw/N8XAasCHYEO8T9X/vfufF5sWN7fPJ/oQeFrVfWZ lr5ZRC4GTkg9VXo+BLqlVUy6xolIZ2Am0eeikLw/YWohsEa1o7dFVJYC5NtEV8CCNn78ePr1y9dz 9q+99hqbbrqpdYx6Xauqh1mHKCsRuQQ43jpHhc5T1dOreYGI7E101bRrOpFcIx4AjlbVJnsyItIK uITiTtE7SlV/bB2ijETkJuAA6xz18P6EqW1VNZh1ZZpSlofQSzG12ejR+ZttMY+ZanCtdYCSu4xi LEy4CLi+0m8WkQ4iciXRNKlefGRrN2CciJwZP2/yJaq6TFV/DgwkumWtaO6xDlBi11kHqFce2+48 ZkpJKfqsZRkBGU00u0nQunfvzqRJk+jYsaN1FAAaGhro06cPs2YVse3+zFuq2ss6RNmJyF3AIOsc FVoATGtqU9X3RKQL8DAFf1g1EH8Hhqnq0qa+QUR6EXXoi3L5dRnw1WpvBXTJiEfPZhA911RI3p8w daeqDrYOkbayjIBsbR0gC7NmzeKiiy6yjvGZiy66KISTxW3WARwAf7YOUIXVgM2APYkeKL8QuB14 HpgrIguIOidefOTDvsD1cacR+Gx06tsicqSIjAJeozjFB8AkLz7sxDOP3W6dox7enzBVij5r8CMg 8ZXG96xzZKVTp05MnjyZbt26meaYM2cOvXv3Zv78wj+3/S1VDX7ajbyLZ096H2hnncUF62FgDrAl 0ZTHRb5Ad7uqDrUOUWYiMgB43DpHPbw/Yaqrqs6zDpGmIp9gK/V16wBZmj9/Psccc4x1DI455pgQ ThaTvfjIB1X9BF9QzaVrF6LRkI0oftv4snUAx5NEI52F5f0JU8H3XYt+kq1E8H/ElY0aNYqRI0ea HX/kyJGMGjXK7PgJ8tuv8uUB6wDOFYQvmmpMo9tLCt8Qen/CTPB91zLcgnU1ULopVEWE0aNHs9de e2V63LvuuovBgwcTyPtqS1X1K4k5ISL9iZ6jcM41b31VnWYdouxEZBuihTALzfsTJq5R1cOtQ6TJ R0ACpaoMGzaMu+66K7Nj3nXXXQwbNiyUk8UELz5y50WgxZWsjT0A3Ei07lDQ9++6XJtpHcBBvODl NOsc9fL+hIng+65BFyDxrCZFmrkkUQ0NDQwePDiT4dORI0cyePBgGhoaUj9WRvz2q5yJZ5YZb52j BT9T1YNVdTtV7QqsBewOlLYVLbgGotuZ7iBa56UIFpVhFeUCCeL+Ie9PZG7TFWfmC5KqBrsBfYga /tJvQ4cO1dmzZ2vSZs+erUOHDjX/+VLYNrV+//rW6Gf62hy8N5raPiS+rXWlzHvmIJtv1W2/BXqs 9Hecl4NclWxzrD+nvn3hfdM/B++JRDfvT2S29bF+/6a5hV1dlWAIq1KjRo2id+/eDB8+PJGrCg0N DQwfPpzevXuH+IDYJFXN+5X2shpnHaAZ76hGPY6V7JR5kvR9ah0gZRuq6sq3MTX2t82jj6wDuM9p NJPidOscSfL+RGbC7sNaV0BpbsBZ2Fewudu6d++u55xzjo4fP16rNX78eD3nnHO0e/fu5j9Hittl 1u9d35r8TH83B++PprYnmsj8bA6yJbU9BWwX/1ydgPOAJXCKr4EAACAASURBVDnIlfT2AdBqpb/j 3BzkqmR7yfpz6tuXzgFX5eB9kcrm/YlUt7Os37tpbkHPgiUidwA/ss6RZ3369GHQoEH079+fHj16 fLYBzJw587Nt7Nix3H333UyaNMk4cSb2UNV7rUO4LxORnsBb1jmacK+q7rHiF0RkFaIH51vbRErU aODHqrpkxS+KyPbAfUBHk1TpWUdV31n+HyIyG7Bdka0y/1XVHa1DuM+JyGDgH9Y50ub9icT9Q1WH WIdIS+gFyESi50Ccq9SnQBdVzftsS6UkIh2BBdY5mnCLqh6w4hdEpAvwnlGeJE0BNlbVxY39TxEZ QvSwrWSaKl0DVPXJ5f8hIv8DvmKYp1L/VNU9rUO4z4lIJ6LzQFvrLK5QJqlqX+sQaQn2GZC4o7KB dQ5XOI958ZFfqtpAfmcj+qCRr3XIPEU6Tmiq+ABQ1TuIbnkNyXor/XdRrtb5MyA5o6rzgcetc7jC 2SDuywYp2AKEaPrdkH8+l477rAO4Fr1vHaAJjeUKoQBpoILPhaqOAP6TfpzMrFyALDNJUb351gFc o/5lHcAVTtBLSYTcQQ979gCXFm8k8i+vBUioIyB/b270YyVHEs4MWT1W+m8fAXH18LbF1SLYvmzI Bcjm1gFc4bytqq9bh3AtyuszFY09mxJCAXJxpd+oqm8SzYwVgpULqaIUIKVevS2vVHUcgU3H6zIR bF825AIk2KrRpcZvvyqGOdYBmtDYLTp5fV6lUg/EHadqnAdMSCNMxla+lakoBciSlr/FGfE2xlUr 2L5syAVIsFWjS40PkRfDbOsATWisAFl5MbuiqXj0YzlVXQQcSnGemWjKyiNaRfl5ipKzjLyNcdXa wjpAWoIsQERkDaCrdQ5XKMuAh61DuIrkdQRkaSNfm9XE14vgWWq8YquqT1D8WbGKOgJS1PdbGTyE F4iuOmuKyFetQ6QhyAIEWN86gCucV1TVH94shsKMgKjqMqIipGiWAkdqfQtFjaTYt2KtPKmAFyCu LnEb84p1Dlc4vawDpMELEOciT1gHcBUrTAESe6eJr+fZZar6Yj07iIuXbwIzkomUuZU7ikW5cl2U nGXlbY2rVpB9Wi9AnIt4o1Ac1T4UnZVQCpB3gDOT2FG8qOcpSewrY/OBN1f6WlFGQBqbDtrlh7c1 rlq9rAOkwQsQ5yLeKBTHeGCedYhGNFWAFO2Wi+PjlZsToap/B55Oan8ZeaGR28+KUoCMtQ7gmuVt jatWL+sAaQi1AOllHcAVygxVfds6hKtM3DF80jpHI5oqQB7MNEV97lXVO1LY78kp7DNNjXXii3Br 0ydEBbrLqbitKeptic5GkBfVQy1AgvxjudQ8bh3AVe2/1gEa0dTDv8/Q+CKFefMJcGwaO1bVJ4Gr 09h3Sp5q5GtFGAF5QVV9HZD88zbHVaOXdYA0eAHinA+JF1EeG/BGr5Cr6mLgsYyz1GKEqk5Ncf8n UIxZsT4E/tnI14tQgDxnHcBVxNscV431RESsQyQtuAJERL4CdLDO4QrFG4PieZb8Pdzd3C06eb8N 63ngwjQPED+Qvj/5Xx3+b6r6SSNfL0IB4ittF4O3Oa4a7YC1rUMkLbgCBB/9cNWZT/EeEi69+DaT q6xzrKS5AuSf5LcDOxXYMx6pSZWqvgCckfZx6nRdE1/P+zMgL6vqv61DuIq8wpcXunSuOb2sAyTN CxBXdmNV1RfuKqargNQ7zVVosoOqqm8CaTzcXa/3gO+r6v8yPOZFQF47yuNUtanbmPJaQC53nnUA V5m4zfHZylw1guvbegHiyu5V6wCuNqo6C/iHdY4VtHSF/Gzy1Yn9BPhhXBxlJp7F7MfAS1ket0LN 3YaWp7/dyiYBt1uHcFXxtsdVo5d1gKR5AeLKzm+/KrbLrQOsoNkCRFXHAaMyytKSZcD+qtrYbE+p U9WPgIFEt3/lxdPAX5r5/3m+BesCH8ktHG97XDWC69uGWID0sg7gCsWvQhWYqj4O/N06R6ySDuDZ 5KMje5yq3mkZIB7B2h2YY5kjtgw4ppHFB1eU1xGQh2n6uRWXX972uGr0sg6QtBALkOCqRJcaBcZZ h3B1O47oWQZrLRYWqvoaMDyDLM05X1X/aJwBAFWdCOyB/QO5V8cPyDcnjwXIXOBAVc1DUeuqM458 vqdcPvWyDpC0oAoQEWkFrGedwxXGFFVtsA7h6qOqc4jWmLBWaSdwOHBvmkGacR1wutGxGxU/9L0j MNMowkQq+53ksZP/U1W1+r25OsRtzxTrHK4wesZ93GAE9cMAXwPaWodwheH34AZCVW/GrlO/XEUd 1Pg2nwPI9vkHBc5S1UNbuM3IhKq+BGwLvJbxoWcAu6nqvAq+N2+/t8tU9R7rEK4u3ga5SrUl6uMG I7QCZF3rAK5Q/B7csBwJLDA8fsVXyFX1fWAIkMUI3CfA/1NV61u/mqWqbwMDgEczOuQcouLjrQq/ P08FyEvAL6xDuLp5G+SqEVQfN7QCZC3rAK5Q/OpTQFR1Ora3F1V1i46qvkjU4X47nTgAvAHsqKq3 pXiMxKjqB8D3iNYKSfOWp7lE65+8UcVr8nIL1gJgX1X91DqIq5u3Qa4aQfVxQytAuloHcIXiV5/C cwXRdKoWqu6gqurLwFbAkwlnWQj8BthCVZ9PeN+pUtVFqnoKUXFWTYFQiWVEC1huVMFD53l1ZNZr t7jUeBvkqhFUHze0AiSo6tCl6hOixbtcQOLZgA7DZoX0NrW8SFVnAzsTrWlS71XtBuAmYHNVPUdV F9W5PzOq+jTwDeACYEkCu3we+LaqHlHhMx8ry0N7ea2q3mIdwiVmElFb5Fwlgurj5uGEmqSgqkOX qqk+dWWYVHU8cL7BoWueACO+6n8c0BM4C5hVxcuXAvcDBwJfVdWfqGoQxbWqLlTV04imoBxBdb8X gAnASOCbqrpVPONWrazby6lEU067QMRtUJ4W43T5FlQft6YrdjkW1B/HpcpP+mEbCQwFNs7wmHXP wBePhgwXkfOB7wC7EI2O9Adar/CtC4GXiVZW/6uqvlvvsfNMVd8BzhSREUQP7/8AWCfevkbUlk0D JhNNbToJeCAuRpNiXYCcpKp+tTw804B+1iFcIQTVx/UCxJXVNOsALj2q+qmIHA48BkhGh01sCvD4 1qn74w0RWR3oDXQmGgV4U1UrWXk9KKq6GLg13j4jIpLB9MKWBcgD1ivXu9T4xTBXqaD6uF6AuLLy k37gVPVxEbmFaM2NLKS2BpGqfgS8mNb+myMiqxLdGrYun486LN/aEz1vsyjeFhPd0/4G0VSxL8ej OqnKaG0TqwJkMXC80bFd+rwtcpUKqo/rBYgrq2nWAVwmLgCGkc0oSOHOpyIiQHeiAqOpra4HH0Vk FnExEm8vUcwRHKsC5HpVfd3o2C5906wDuMIIqo9buAazBUHNEOBS5VedSkBVx4nIvcAeGRwutRGQ eolIJ2CzeNsc2JTowe51gFVSPnx34PvxttxCEXkZeAZ4FnhWVSemnKNeVgXIH4yO67LhbZGrVFB9 3NAKkC7WAVxhTLMO4DLze0pUgMSjGlsRPaj9LaKiYz3TUF/WHtgm3gAQkXnAc0RFycPAf3M2U51F AfJQwg/Su/yZZh3AFUZQfVzJ5tbZ9MUPaX5oncMVwkequoZ1CJeNuEM+A+iR8qEOU9VrUz5Gs0Tk /wEXEs0MVXSzgNuB24DHM3rOo0kiMgHYMOPD7qWqd2d8TJcxEfkQWN06hyuENeJnAgvPelrBJAV1 b5xL1TTrAC47ccf13gwOZToCIiInAH8jjOIDolu3jiWayWyGiFwiIlsb5sm6vVwKPJjxMZ2NadYB XGEE09f1AsSVkd9zWz5jMjhGpre0isguInKGiPyfiNwDXJzl8TPWg2gmqGdE5HwRsWi7sj7mG6r6 ccbHdDa8TXKVCqavG9IzIMH8UVzqJlsHcJm7H2gAOqZ4jExGQERkC+B3wPeyOF4OnQpsKSL7qer7 GR436wLkhYyP5+x4m+QqFUxfN6QRkKBmB3CpmmUdwGVLVReS/m1YqRcgInIQ0YPaZS0+ltsdeFZE smyMs24vJ2R8PGfH2yRXqWD6uiEVIMFUhS5171kHcCbuSHn/qRYgInI6cEPaxymQPsBf4kkGspB1 ezkp4+M5O94muUoF09f1AsSVkZ/sy+mfwMIU959aYSAiOwAj09p/gf0A+GVGx8q6vXwm4+M5O94m uUoF09cNqQBZ0zqAKww/2ZeQqi4gehYkLWmOTJyd4r6LboSIbJLBcVpncIzlnlDVaRkez9nyNslV Kpi+bkgFSNqr+bpw+Mm+vEYCaS1ul8o8/iKyAbBzGvsORFuyWS08y3Ua/pLhsZw9b5NcpYLp64ZU gLSzDuAKw0/2JaWqzwLXpLT7tNbfOCql/YbkuyIyJK2di0gHYNW09r+SN4HrMzqWywdvk1ylgunr hlSABFMVulQpMM86hDP1K2BuCvtNvAARkb2Bk5Peb6D+T0TSKhKyvO/6RFVdnOHxnL15RG2Tcy0J pq/rBYgrm49UdYl1CGdHVecBp6Ww63WS3JmI9CW6FSerWZ6Kridwekr7zqoAuVBV054u2uVM3CZ9 ZJ3DFUIwfd2QCpBghqVcqnyo2wFcBzyZ8D6/KiKJPKgsIu2AvwOdkthfifwiLtySlkUBciPZzejl 8sfbJleJYPq6IRUgwVSFLlV+kneoqgIHEa2OnpTWwNoJ7WsI8I2E9lUm7YDzU9hv2gXIY8Dh8fvS lZO3Ta4SwfR1vQBxZbPAOoDLB1WdBJyY8G6Teg5kp4T2U0Z7iEjSI0dpFiBTgSH+3EfpedvkKhFM XzekAiSYYSmXqk+tA7j8UNWrgTEJ7jKpAmSXhPZTRu2IFihM0loJ72+5BcAgVU1jUgRXLN42uUoE 09cNqQAJpip0qfKTvFvZYcDshPZV94PoIrIF0CeBLGV2QML7S2sE5HhVHZfSvl2xeNvkKhFMX9cL EFc2i6wDuHxR1dkkNytWEiMg+ySwj7IbKCJJToucRgHyCXBbCvt1xeRtk6tEMH1dL0Bc2fhVJteY m4ApCexnw3peLCLtgWEJ5Ci71sChCe4vjZm1/qWqft+/W87bJleJYPq6IRUgwdwX51LlJ3n3JfE8 /OclsKtdRKRNHa8/G1g/gRwOThKRumclE5E1gW8lkGdlo1LYpysub5tcJYLp64ZUgARTFbpU+Une NeVG4K0697E6sF0tLxSRrfBVz5O0BnBZAvvZhWhEJUmfAvckvE9XbN42uUoE09f1AsSVjd9n6xoV T4N6bgK7GljtC0RkFeB6ku/olt0QERlU5z6+l0iSL3rEb79yK/G2yVUimL5uSAVIMMNSLlV+lck1 51rghTr3sa+IVHtuPR/YtM7jusZdFq8sX6ukC5ClwMiE9+mKz9smV4lg+rohFSDBVIUuVX6Sd01S 1aXAEcCSOnazPrB3pd8sInuS/IKI7nM9gaNreaGI9AV6JZoGzlXV/ya8T1d83ja5SgTT1/UCxJWN n+Rds1T1eeDH1HdLxAmVfFM869XVdRzHVeb0GldH3y3hHNcTTTTg3Mq8bXKVCKavG1IB4pxziVDV 0cCPqL1TsIOIVPIw+k+B7jUew1VuLeCUal4gIq2BIxPMcLaqHhKPsjnnXKmFVID4A1yuEsHcP+nS par/BAYAb9a4iz+LSNsWvufgGvftqndiXFRU6nBg8wSOuwQ4TFV/m8C+XLi8bXKVCKavG1IB4sOX rhLBDF+69KnqWOCbRA+nV2sz4NQWvmfdGvbratMJ2KCSbxSRzsCIBI65ABikqrW8f1y5eNvkKhFM XzekAiSYqtClyq8yuaqoaoOqHgYMBd6v8uW/FpGNGvsf8dX4r9Sbz1Vlkwq/77dEt23V40lge1X9 V537ceXgbZOrRDB9XS9AXNn4Sd7VRFVvB7YAHq3iZe2Aq0VEGvl/X8HX/cjaxi19g4hsDBxTxzEm AkNUdYCqvlzHfly5eNvkKhFMXzekAiSYYSmXKj/Ju5qp6nSilbEvqOJlOxBN7buytRMJ5apRyQjI pUCbGvY9BzgW6Keq/6jh9a7cvG1ylQimr1vLSTavgqkKXar8PltXF1VdBpwmIm8Af6ay99QFInK3 qs5c4WtfTSWga86Gzf1PETmF5hcenA7cGP97P6Av8CrRqNjfVHV+EiFdKXnb5CoRTF/XCxBXNn6V ySVCVW8QkSnAP4CuLXz76sAf+eIChaunlc01qWdT/0NEvkO0In1TngC+p6ofJx3KObxtcpUJpq/r t2C5svGTvEuMqj4GfBuYUMG37yUiv1zhv2tZGM/Vp4eIfOnCm4h8Dfg7TT+T8wKwhxcfLkXeNrlK BNPXDakACaYqdKnyk7xLlKpOAnaksiLkfBH5UfzvXoBkrxXwtRW/EK/VMoqmZyR7DdhdVT9MOZsr N2+bXCWC6et6AeLKxu+zdYlT1dnAd4FpLXyrADeJyLfwAsTKeiv998XAtk187zzgB6o6N91Iznnb 5CoSTF/XCxBXNh2tA7gwqeoMYFdgZgvf2gG4G2h0fRCXuq2X/4uIHEDTU+4uA4ap6luZpHJl522T q0Qwfd2QCpBg7otzqWrpYWHnaqaqU4hGQlq6Yr428KMWvselY18AEfk60SxmTRmuqvdlE8k5b5tc RYLp64ZUgARTFbpU+UnepUpVXyeayvWDFr61fQZx3Jd9S0S+STR7WYcmvuc+YER2kZzztslVJJi+ rhcgrmw6i4ivPu1SpaovAj8AfF2IfLoD6N3E/3uL6NarZRnmcSUWt0mdrXO4QgimrxtSARLMsJRL lQBrWodw4VPVp4ieCXnPOov7kl5NfH0e0XS78zLM4tyaRG2Tcy0Jpq8bUgESTFXoUudD3S4Tqvoc sBPwrnUW16IFwEBVHW8dxJWOt0muUsH0dUMqQIKpCl3q/GTvMhN3aLcHplpncU36FNhbVZ+1DuJK ydskV6lg+rohFSDvWwdwheEne5epeHas7YkWtXP5shTYT1Ufsg7iSsvbJFepYPq6IRUgfp+1q5Sf 7F3mVHUm0Yrp/nxBfihwuKqOtg7iSs3bJFepYPq6IRUgvlKtq5Sf7J0JVX0PeMk6h/vM1ap6vXUI V3reJrlKBdPXDakACaYqdKnrbh3AlVpTa0+47D1hHcA5vE1ylQumr+sFiCujpub/dy4La1gHcJ/x KbldHnib5CoVTF/XCxBXRutbB3Cl1mAdwH1minUA5/A2yVUumL6uFyCujHpZB3Cl9rx1APeZV60D OIe3Sa5ywfR1gylAVHU+AS3Q4lLVWUQ6W4dwpeUFSD4sAN6yDuHKLW6LvD1ylVgU93WDEEwBEgum MnSp62UdwJWWL3aXD8+rqlqHcKXXyzqAK4yg+rhegLiy8ntunQlVfRV42jqH4wrrAM7hbZGrXFB9 XC9AXFn1sg7gSu1c6wAlNxXwxQddHvSyDuAKI6g+rhcgrqz8qpOzdA/+ALSli1V1qXUI5/C2yFUu qD6uFyCurHpZB3DlFT97cL51jpL6ALjOOoRzMS9AXKWC6uN6AeLKyk/6ztptwAzrECV0jar6Wiwu L3pZB3CFEVQfN7QCZK51AFcY64uIWIdw5aWqS4DLrXOUzFL8d+5yIm6D/GKYq1RQfdzQCpCgqkOX qo7ABtYhXOldha+MnqU7VdXX/nB5sQFRW+RcJYLq43oB4spsc+sArtxU9X1gjHWOEvmrdQDnVuBt kKtGUH3c0AqQoIanXOq+bh3AOWCedYAS8YUHXZ54G+SqEVQfN7QC5G3rAK5Q/OqTy4Nu1gFKpKd1 AOdW4G2Qq0ZQfdzQCpCZwKfWIVxh+NUnZyp+CHUX6xwlMsg6gHMr8DbIVWoR8K51iCQFVYDEc+v7 A4auUn1EZFXrEK7UegJdrUOUyI4i4g/9OnNx29PHOocrjLdUdZl1iCQFVYDEploHcIXRCtjUOoQr tQ2tA5RMG2BL6xDOEbU9IfbBXDqmWQdIWohvfi9AXDV8CNxZ6msdoIT6WwdwDm97XHWmWQdIWogF yDTrAK5Q/CFAZ6mzdYAS8gLE5YG3Pa4awV1cD7EACe6P5FLljYCz9Jp1gBLqYh3AObztcdWZZh0g aV6AuLL7loiE+DlwxfCqdYAS+q91AFducZvzLescrlCC69uG2PEK7o/kUrUG/iC6szMFaLAOUTIP WwdwpbcpUdvjXKWmWQdIWnAFiKrOBRZY53CFMsA6gCuneOrwO6xzlMiHwIvWIVzpeZvjqrEQ+J91 iKQFV4DEfBTEVWN76wCu1M4FgprfPcdGq+pS6xCu9LzNcdWYFl+sCooXIM751ShnSFUnALdb5yiB xcBw6xDO4W2Oq8406wBpCLUAmWYdwBVKLxHpYR3CldqvgJnWIQJ3lar6xSlnKm5relnncIUS5Hkr 1AIkyD+WS5VfkXJmVHUKsAN+8SQtzwFnWodwDm9rXPWmWQdIgxcgzkW8UXCm4iJkR6KZsVxyHgZ2 VtV51kGcw9saV71p1gHS4AWIcxF/KNCZU9XpwC7A29ZZArEM+JGq+lTHLi+8rXHVCrJPKwE+WI+I dAI+ss7hCmUJ0Nk7Ki4PRGRr4BnrHAGYqKobWodwDkBEOgIfAG2ss7hC+YqqzrEOkbQgR0BUdT4w 2zqHK5Q2wM7WIZwDUNVngRnWOQLwhnUA51awM158uOrMDbH4gEALkNir1gFc4XzfOoBzK7jXOkAA /FY2lyc/sA7gCudl6wBpCbkAecU6gCucgdYBnFvBQ9YBAuAjIC5PvI1x1Qq2LxtyAeIjIK5aG4hI X+sQzsUesw5QcMuAf1iHcA5ARDbG1/9w1Qu2LxtyARJs1ehS5VeoXC6o6izgTescBfawqvriji4v /PYrV4tg+7IhFyCvAUutQ7jC8QLE5cmfrAMU1CLgROsQzq3A2xZXraVEfdkgBVuAqOonwCTrHK5w dhKR9tYhnItdDoyzDlFAZ6qq/95cLsTT7+5oncMVzqS4LxukYAuQWLBDVy41qwLfsQ7hHICqLgGO tc5RME8BF1qHcG4FuwKrWIdwhRN0Hzb0AiTYh3dcqnw6Xpcbqvoo3qGu1MfAwarqt9+6PPHbr1wt gu7Dhl6ABF09utR4Y+FyRVV/AVxinSPnpgE7qao/uO/yxtsUV4ug+7BegDj3ZRvGUyY6lxuqeiLw e3xyjcaMAb6pqs9bB3FuRSKyJbCedQ5XSEH3YUVVrTOkRkQE+BDoZJ3FFc5ZqjrcOoRzKxORnsCR wEFAD+M41pYCZwC/05AbM1dYInIu8CvrHFlbbbXV2Gqrrdh8883ZfPPN6dmzJ507d6Zz5860bt2a xYsXs2jRIubNm8fMmTN55513eOONN3j++ed57bXXWLJkifWPYG0+sEbI57WgCxAAEXkS2NY6hyuc 11R1U+sQzjUlvsAyDLiWcj3guhCYANwG/EVVZxjnca5JIjIJ6G2dIwu9e/dm3333Zffdd2fbbbel bdu2Ne1n4cKFPPPMM9x///3cf//9vPDCCyxbtizhtLn3lKpuZx0iTWUoQK4EjrDO4QppM1Udbx3C ueaIyC+BC6xzZOBBohnB3gz5qqALh4j0B4K+LbBNmzYccMABHH744Wy3XTr95VmzZjFq1Cj+9re/ 8dRTT6VyjBz6s6oeaR0iTaE/AwKBzyLgUrWvdQDnKvAHYLp1iJT9SVV3U9UJXny4Agm2DWnVqhU/ /elPmTBhAtdff31qxQdA9+7dOe6443jyySeZPHkyJ510Ep07d07teDkRfN+1DCMgOwCPWedwhTRB Vf1hdJd7IvIT4EbrHCl5F9hYVT+yDuJcNURkKtDLOkfSNt54Y6699tpUi46WNDQ0cMMNN3DBBRcw fXqQ1192VNX/WodIUxkKkM7A+9Y5XGFtqaovW4dwrjki0goYC2xpnSUFB6jqLdYhnKuGiGwDPG2d I2mHH344l112Ge3atbOOAsCiRYu4+uqrOffcc5k5c6Z1nCStqaofWIdIU/C3YMV/QH9IscDWWGMN hg4danX4H1sd2LlKqeoy4ATrHCl4wIsPV1BBtR2tW7fmiiuu4KqrrspN8QGwyiqrcMwxxzBx4kRO O+20mh98z5kZoRcfUIICJBbcVYgy6NSpE2eccQZTp07l1ltvZbPNNrOIEVQj4sIVr5h+u3WOBC0A DrcO4Vy14hnqzK6aJU1EuP766zn66KOtozSpQ4cOnHfeebz00ksMGDDAOk69StFnLUsB8oR1AFe5 jh07cuqppzJ16lTOOecc1lxzTVq1asVvf/tbizh94plMnCuCXxBNUxuC01T1LesQztVgO2Bd6xBJ ufzyyznwwAOtY1SkX79+PProo5x55pm0alXYLm4p+qzBPwMCICJbAc9a53DNW3XVVTn66KM59dRT 6dat25f+v6ryzW9+k5deeinraH9S1fxe+nFuBSKyN3AL0ME6Sx2uAI7zGa9cEYnINcCh1jmScPDB B3P99ddbx6jJI488wtChQ5k7d651lGptrarPWYdIW1kKkDZEK6IXuUEOVvv27TniiCM47bTT6N69 e7PfO2bMGAYNGpRRss98BKytqh9nfWDnahGP2o0B1rbOUqUlwM9V9U/WQZyrhYisRjRz22rWWeq1 ySab8Pzzz9OhQ3G7TpMmTWLgwIFMmjTJOkqlPiZaAT34peALOz5VjfgP+Yx1DvdFyx8emzx5Mpdc ckmLxQfAD3/4Q7baaqsM0n3B6vizIK5AVHUssDVQpKto7wIDvfhwBff/CKD4APjjH/9Y6OIDoE+f Pjz11FN84xvfsI5SqWfKUHxASUZAAERkOPAb6xwO2rZtyyGHHMIZZ5zBuutWf5vsfffdx8CBA1NI 1qwnVbXwT7blnYh0JOo49wHWB7oCnYBViB5K/gh4B5gCvKqqbxhFLQwRGQD8jOih2FWN4zRmBtFK 7teoaijPr2RCRDYEvg5sAKxD9FlZDVgMzAfmAVOBgbcA1QAAIABJREFUScCzqrrAKGppiMjTwDbW Oeq1zz77MGrUKOsYiZk7dy7f+c53GD9+vHWUloxQ1TOtQ2ShTAXI7sB91jnKrE2bNhx00EH8+te/ plevXnXta7vttuOpp55KJljlNlXV17I+aOhEpBswDNiHqPioZh7FWcC/iRbhe8SfGWhavCbSDkDr Fb48n6iD2gE4Ejgm5RjvE52HZwBzgLeB0aq6KOXjBiGeXWkn4CfA7kCPKl6+hGhEbBRws6rOST5h uYnIZgSwgnWrVq1444036Nu3r3WURM2aNYvtttuOqVOnWkdpzvdV9d/WITKhqqXYiG6jWQqob9lu rVu31oMOOkgnTZqkSXnwwQctfpb/s34fh7QRXbG9CliU0N/nDWA/oJX1z1bUDbgppc/O/4A9gbbW P2MRN0CAfeP3eBJ/j0XA1UBP658tpA24xKBdSnwbPHiwhuqll17SDh06mP+Om9iWAqtrDt7LWWyl GQEBEJGXgC2sc5RFq1at2G+//TjzzDPZcMMNE9//TjvtxGOPPZb4fpvxHtBD/WptXeJVu08ARgLt UzjEs8CBqvpmCvsOmoj0BCYS3fKWlA+AnVU18+nrQiAifYlG+LZNYfefEt2afJFGi1m6GolIO2Am 0MU6S70ef/zxENbSaNJf//pXhg0bZh2jMS+r6pbWIbJSiofQV/C4dYAyEBH23Xdfxo0bx80335xK 8QEwYsSIVPbbjK7A4KwPGhIRWRN4ALiIdIoPiG7jelFE9ktp/8FS1beBPye4ywZgDy8+ahO/h18i neIDoB3wO+CB+LPpajeYAIqP9dZbL+jiA2D//fdnv/1y2TyUqo9atgKkFIu7WBERhgwZwiuvvMKt t97KJptskurxdtxxR3bddddUj9EIX5m5RiKyDtEJdpcMDtcBuEVETsvgWKH5DdGMVPVaCgxV1ScT 2FfpiMjJZLeeyy7AkyKyXgbHCtVh1gGSsM8++1hHyMSll15K165drWOsrFR9VC9AXCL22msvXnjh BW6//XY222yzzI5rMAqySzzzjKuCiHQlGvnol+VhgfNE5LgMj1l4qvohcGICuzpaVf+VwH5KR0SO Bi4keg9nZWPg/viz6qoQP3yexYWV1A0eXI5B/m7dujFy5EjrGCsrVR+1VM+AAIjI20D1c7+6Ru2x xx6cffbZ9O/f3yzDD37wA/71r0z7OVeq6lFZHrDI4oVAHwGsxvWXAT9U1XuNjl9I8ejRuVTfCV4G /EZVz00+VfhEZA/gbuwuED4BfEdLshZBEkTkeuBg6xz1atu2LfPnz6ddu3aJ7nfRokXMmDGDdu3a 0alTJ1ZbbTVatbK//r148WI23HBDpk2bZh0FYLqq9rQOkSX7d0D2SlVhpuV73/seTz/9NPfcc49p 8QEwfPjwrA95UDx1rKvMr7ErPiA6z10vIl8xzFA4qno+cCDRg8qVmgTs6MVHbeL36HXYts0DgDMM j18oIrI2sL91jiRsvvnmiRQfixcvZvTo0QwZMoQ+ffrQoUMHevfuzTrrrMMaa6xB27Zt6devHwce eCCXXHIJzz1ns15q27ZtOf30002O3Yjy9U2tp+HKeiOa5956qrXCbrvssos+/vjjmjeDBg3K+nfx W83B+znvG9EiaYtr/B0vBZ4BbiV6MPpeollmav2b3Wb9+yjiBnwNuJhoIcimfrdjiWY262Cdt8gb cFsd7+93gX8RTW39N+Bpap96fjHwdevfRxE2olFC87Y5ie2QQw7Ret1www3arVu3qo/ds2dPPfHE E/WJJ57QZcuW1Z2jUp988omuueaa5r974BjNwfs5y808QOY/MGyZgzda4bYdd9xRH3nkEc2rF198 UUUky9/JHGBVzcF7Os8b0SKBtfx+/wr0bWR/bYjW+ni3xv3uYP07KepGtJbSjsBRwHnAyfHfYhPr bCFsRDNd1fKe/h9wAI2ssUK0QvqNNe73QevfSd43oCPRavPmbXQS269//WutVUNDgx5wwAGJ5Ojb t69eccUV2tDQUHOeahx33HHmv3tgS83BezrLrYzPgLQiOmGsYZ2lCLbbbjuGDx9uMdtU1fbZZx/u uOOOLA95lKpemeUBi0REdiJ69qNa56pqs7eAiMj6RA+1965y30+p6nY1ZKqYiPQiutCxCdE0p9W4 S1VfTDqTi4hIR2BzovWgulPd8y0fqurFqQQDROQ/wHeqfNlbwG6qOrGFfZ8JnF1DrN1V9f4aXlcK InIscJl1jqRcdtllHHvssVW/TlUZMmQIo0ePTjRP165dOeqoozj55JPp3Llzovte0XPPPcfWW2+d 2v4r8CHQRcu2Fo91BWSxAaOwr3ZzvW2zzTZ63333aZG8+uqr2qpVqyx/T2/iq2439zkbXcPv9P4q 9v9togeeqz3G1gn9fO2BbwGHEnVCHiNadK+e99Sh1n+3UDZgHaLV188gurVpArXfkqRED4mmlXWL GvIsAwZUcYx7azjGvdZ/x7xuRM/pTE6gHcnNduONN2otfvWrX6Waq1u3bnrdddeldmvW0qVLrW/D ul1z8J7OeivjQ+gQ3SfrGtG/f3/uuecenn76aXbffXfrOBX7+OOPuffee1lllSQXcG5RX2CvLA9Y FPGK2oOqfNlSott7KqKqTwN/qfIYANVf4gNEZCsROVVE/ioi44meiXgOuCbe5w74yKoJEekoIgeJ yMUi8rCIvAdMB8YA5wBDgQ3J78Qrtbwn/6Kq1Ty4ehzRZ6wa3xeRakcZy2Iw0S1uwfj444+rfs2r r77K+eefn0Kaz82ZM4dDDjmEAQMGMHFis4N9NWnVqhU77rhj4vutQin7pHk9GaftPusAebPFFltw 55138vzzz7PHHntYx6nYJ598wsUXX8z666/PqaeeysKFC7OOcErWByyIfan+/PKIqk6u8jXXVvn9 AHuLSC1TvZwKnE/03EM/oHUN+3DpWB+4gehB+J0p0IrUIrIKUMvqb9dU883xZ+vRKo8hwI+rfE1Z nJzFQbp06cIBBxzAqquumvqxGhoaqn7NWWedtXxEKHVPPfUU22yzDQ8//HDi+95yyy0T32cV/m15 cCulLEBUdSbwinWOPNhss824/fbbefHFF9lrr+JczP/000+57LLL6N27NyeddBKzZ8+2irKdiGxr dfAcq6XTcmsNr3kcmFHlazoBu9VwLOfSsBtQ7Q3uM6ht2s5aPmNDanhN0OJzfibn/QMPPJCbbrqJ mTNncsUVV/DNb34ztWO9++67VX3/+PHjufPOO1NK07j333+f3Xffneuvvz7R/W6wgdlg1jhVrbYN C0IpC5BYKYe8lttkk0249dZbeeWVVxgyZAgiWS64W7tFixZx5ZVX0qdPH37+859XfcJMyW+sA+SJ iKxF9GxEtR6q9gUaXXr7Tw3HKs79hS5036/hNQ9rbZedq/6MAf3jz7T7XGbn/EMPPRSAzp07c/TR RzN27FheeOEFjjnmmMQfzB4/fnxV3z9mzJjMRj9WtGTJEg4//HAefPDBxPbZs6fZGoCl7Yt6AVIy ffv25eabb2bcuHHsu+++hSk8lixZwjXXXMOGG27IUUcdxYwZubpgMNBHQb6glt/FB6o6tcbj1TJr 1A41Hsu5pNUyK1tNM6Wp6hSiGXeqtX0txwuRiGwHDMziWFtvvTWbb775l77+jW98g8svv5x3332X m2++mZ133jmRtrzaAuT+++0mSFu6dCn77rsvU6ZMSWR/HTp0SGQ/NSjtIwFlLkCeBD6yDpGVDTbY gBtuuIHXX3+dYcOG0apVMf70S5cu5cYbb2SjjTbi8MMP56233rKO1JQR1gFy5Ns1vOalOo5XS2ds cxFZvY5jOlc3EVmVaLHOatUzVXMtnzUvQD53TlYHWj760ZT27dszbNgwHn74YSZOnMjpp59Ojx49 aj7e9OnTmTy5ssfwVJUnn3yy5mMlYd68eZxwwgmJ7CvjCWyWW0B0G3EpFaMXmgJVXUxtw9GF0qtX L6655homTJjAQQcdROvWxXhudtmyZfz1r3+lX79+HHzwwYld5UjRrvG6Fw42reE1b9ZxvFpe24po nY40KDAJGJfS/l195hM9P/GJdRBgI6LFNauV9eells90cERkF6JJDlLXsWNH9ttvv4q/v3fv3owc OZK3336bMWPGsPfee9OmTfVvrTFjxlT0fQsWLODTTz+tev9JGzNmDGPHjq17PwYT2AD8R1UXWRw4 D0pbgMSCvQ1r3XXX5corr+TNN9/k0EMPrelEZEFVue2229hss80YNmwYb75ZTzubOR8FiWxcw2v+ V8fxZhN1+qtVS86VLQCeAq4kmkJ4O2B1Ve0LXJrA/l3tFJhCtB7N2cCPiBauXENVtydakNZaLe9B BebUccxaPmtJfFZCkNnox9ChQ+nUqVPVr2vdujV77rkno0ePZsaMGVxwwQVstNFGFb++0ofKP/oo PzeQXHxx/euDzpo1K4EkVQu2D1qJYvRK0xPcvXc9evTg9NNP57DDDqNdu1pmGrWhqtx5552cddZZ vPrqq9ZxarWDiOymqg9YB7EiIq2ofnVyqKMAUdUlIjIP6FrlS/tW+f3vAHcRzaD3crxNrvFhYJes xcAzfP53eRl4VVXz00tqXLXvQYD3VHVJHces5bPWU0RWKfPVWhH5ARnNfAVw2GGH1b2Pr371q/zy l7/kl7/8JY8//jjXXHMNo0aNana9j8cee4wJEya0WLRkMS1wpZK4Feydd95JIEnVguuDVqPUBYiq TheRccBm1lnq1b17d0477TSOOOII2rdvbx2nKmPGjOGss87ixRfrua05N0YApS1AgG7Udl6pZwRk +eurLUC+Ws03q+rxVe4/GPFaFd8ieni/D9E6G8u3NYGFRCMKy7c5RIs0/ldVp6edT1UnUNuzR9Zq uWE/ic9KtVoRfbZNemnWJHrCO7MR7o033pgBAwYkus/tt9+e7bffnj/84Q/87W9/49prr+W55577 0vepKn/84x+59NLmB3C7dOlC3759U1kYsFpTp07lvffeo2vXapuAzxn0P96sY+KVIJT9FiwoeAXa rVs3LrzwQqZMmcLxxx9fqOLjvvvuY+utt2bQoEGhFB8A24jIntYhDHWv8XXz6zxuLa/vVucxgyYi XUTkVyLyCNHMSU8QLcR4GNHtTN8heoB6XaIr+dsQzQ40jGhBwFuAt0VkqojcGN8/776ols+LxWcF yv15GQyktwDHSlp6+Lweq6++OkcccQTPPvssr7zyCj//+c/p0uWL63becMMNvP/++y3ua9tt8zP5 YyV5m/PMM88klKRipb79CrwAgYK+Cbp27cp5553H1KlTOfnkk3M1HNqShx56iAEDBjBw4MBGr8AE YLgUZX7j5NXaSan3acZaXl/75bKAici6InIJ8DZwLrATUM+VjV7AT4CHROQ5EdknvlXP1fZ5sfis QEk/L/F7dXhWx2vbti0/+clPMjnW5ptvzqWXXsrMmTO59dZb+e53v4uI8NFHHzFiRMsDPkcffXQG KSuz2mqr1fza2bNn89prryWYpiKFvvidBG8EoinQFliHqNSaa67JiBEjmDp1KqeddhodO3a0jlSx Rx99lJ122onvfve75tP3pewbQOXTl4Sl1o7q/2fvvKOjqtY2/uxJhUAgtBBK6GAEQokQlBZAmhQJ iIIocmkKVy4oF6VJERAQpBcpinjpJSBNWgTpRYJSo5TQO4aSXub9/jjBL2LKzD5l75k5z1q/dZfr cs777Jqz5+zzbhEPVY7zutAAMcYsjLGxAC4BGAhAj8nlJQBrAZxijL2ow/0dTTx9UNQCxFXHSw8Y mAWsXbt2KFasmFHhAABeXl546623sGvXLly+fBmfffYZNm3ahIsXL+Z4XWhoKJo3b26Qy+zFGIOv L39W9Q0bNsBqtWroKFclAfjZyIAyyuUXIBkf1UmfjrdAgQIYPXo0YmJiMHLkSK7sGKJ06NAhvPrq qwgLC8O+fftE2zFKkxljwk42EihzAeKAYowVArANwCgAHgaErArgKGPsTQNiySxzASKxGGP5AUww Mqae269sUdmyZfH555/jjz/+sOmh/ssvvxS+A6NWrVqqDhJcs2aNhm5s0l4ikiENuFC5/AIkQ9Ju w8qfPz9GjBiBmJgYjBkzBgUKFBBtyS6tXLkS9evXR2Sk9Gs8rVUKwKeiTQgQ72lOqSrj8lwv5OQp 2ZTxJiIKQEuDQ+cDsJox9qXBcWUSTx8UMVYA1xwvw8H/XZvdKlWqFFq2NHoYZi2LxWLTm5iaNWti 0aJFBjjKXq1ateK+9vfff8eePXs0dGOTXH77FWAuQJ5pC/jOEdBNPj4++PTTTxETE4Px48fDz89P tCUutW/fHkWLuuy3i0MYY4GiTRgs3ocbtb+681yv9kHO4cUY8wOwGUAZgTaGMMa0Oc7Y8cTTB0WM FcDFxgtjrByAj4yM2aNHD4c5LDizunXrhlGjRgmL3759e+5rp0+fDoMzqROA9UYGlFXmAgQAEd2E kuFFuPLkyYPBgwcjJiYGkyZNUpVWTgY9W0i5qPIAcLVfd3mPk1V7aA3P9UKOvpVFGR/XrgBQnuPy +1AOX/w3lAxB70L5tXgvAJ7N1FNcNEsWTx8UMVYA1xsvU6C+rm0WYww9e/Y0KpzmGjt2LBYuXGj4 oceNGzdGaGgo17X37t3D999/r7GjXHWIiG4YHVRGmQuQ/9dqkcG9vb0xcOBAXL58GVOnTnWqtwb9 +/dH8eKGvcWWTW8xxhqINmGgzAWI42gMAHv3LqQAGAagBBH1I6J5RLSRiJYR0UQiagLgRQBH7Lyv O4A1jLFSdl7n6DIXIBKKMdYIQCcjYzZt2hTlypUzMqTm6tOnD7Zv346AgADDYo4ePZr72pEjRyIx 0fBPMQz/4ERWmQuQ/9c68P1yp1peXl44f/48ZsyY4ZQP6nny5MHQoUNF2xCpGS6UdvQB53UiHqr+ VBnTYcUYKwHgEzsvIwCdiGhSTidxZxwK2BCAvRknCgMYYec1ji6e8SJqAeIS4yVjrp5hdFwtTj6X Qc2aNUN0dDQ++ugj3d+GdO3aFU2aNOG6NioqCt98843GjnKVFcqzpimYC5C/RER3YP8fTE2UnJyM Xbuc+/Ds999/HyVK8Bz66xQKgZLK0RV0h/M6/hyK/NffVxnTkfUJ7H8QnU5EW2z5hxkLlC4A4u2M 8a+MxZGriGe8iBgrgOuMl39BSaVumNzd3aU61E+tfH19MW3aNJw8eRKvv/46LBbtHzXr1q2Lb7/9 luva1NRUvP/++0an3gWAA0R0y+igsspcgPxdwrZhjR8/HikpKaLC6y5vb28MHz5ctA2R+oIxpvbB wRF0D3xvEv1VxuW5/p7KmA4pxpg/gL52XpYKYKo9FxDRbQDf2RnHC8AQO69xZPEsQESMFcAFFiCM sQIwOO0uAKSlpaFixYoIDw/Hli1bkJ6ebrQFXVStWjVs3LgRf/zxBwYMGKDqsMDMatiwITZt2gRv b77M0EOGDMEvv/yiiRc7ZW6/yiRzAfJ3rQcgZORfu3ZNxOtAm3Tp0iWcOXNG9X169+6N0qVLa+DI IeUPYLJoE3qLiNIBXOG4lPvkLcaYBwCeNHGXeGM6uPpCSZBgj7ZmLCjs1WKOa/owxgz7+Fewcj7p LWsVYoyp2dvCM9ZuEpErfAMyGeoXeFxKS0vDxo0b0a5dOwQGBmLEiBG4dMk5pqgKFSpg1qxZuHHj Br755hu0aNGCa3uWu7s7Ro4ciT179sDfn6+ZVq9ejZkzZ3Jdq1JWmNmv/i4iMskEgF1Q9jobTqlS pSgpKYlkUUxMDPXq1Yvc3d2pUaNGmtzz66+/FlK3kmAF0JAk6Od6gv9Pa20PC1TEK8HZHvV1rofe HJ56GdA+P3H4GsgZi0H5dsDeeGEG1MMNOz1d18HDS5x9N0BFzIUc8Xbp3R6iAdAoY47Wa/63G8YY hYWF0bJlyygxMZGcSffv36eFCxdSjx49qEaNGuTh4ZFlHVgsFqpatSpNnjyZ7ty5oyrmDz/8kG0c A9hDEvRzmRBuQDbA99CgGbNmzSLRunbtGr3//vv/GKi7d+9Wfe+UlBQqW7as8IldINEAvEiCvq4X UFIP21svP6mI15izLfx0rgfpFiBQDpNL4PBVW0XMzRzxxhjQT2VYgOSD8tbd3vpppCLmHo54M/Ru D5FAOeX9d855xBAKFixI/fv3p6ioKHJGJScn07lz5+jo0aO0e/du2rp1K505c0azH2XXrl1Lnp6e ItuwH0nQ12VCuAHZgJKJJVVUJw0ICBD2S8fNmzfp3//+N3l5eWXp7ZVXXtEkzuLFi4VP5oIZTxL0 db0A0JGjTv5UEW8QR7xzBtSDjAuQ+px9Np+KmF9xxPvZgPYRvgDJ8HGKo3643khlxIvliPem3u0h Eijffeg552tKrVq1aM6cORQbG0umclZqaip9/PHHotssDUAxkqCvy4T5DchzIqKHAHaLin/79m3M nz/f0Jh37tzBoEGDUKFCBcydOxfJyclZ/rtDhw5hx44dquO99957KF+e5+wzp9EnjLFg0SZ01CGO a/wYY2U54/FkrNnPGcvR9QrHNbFEFKci5jWOa0IZY453JDSfeMYLV5amjNO9C3Jc6rTjJWMutjcl tVCdPHkSH374IQICAvDOO+9gz549zxZSpjLpxIkTqF+/PqZNmybayl4icsmkJznJXIBkLaGHEk6e PBkJCQm6x7l//z6GDBmC8uXLY+bMmUhKyv0bw1GjRqmO6+7ursl9HFgeABY76wMWKSmtebIW2J3Q nTHGAIRxxHLuvNfZiyfFrdpTe3mu9wJQSGVcRxFPXwzjjMVzaMJZ4ktAIL0y5uDFUA7CdDglJSVh +fLlaNq0KSpVqoQvvvgCt26ZWV5v3bqFPn36oG7dujh27JhoO4CZ/SpLmQuQrLURyom/QnT37l3M nTtXt/s/fPgQw4YNQ7ly5TB16lS7TgI9duwYtm7dqtrDO++8g0qVKqm+j1bSI095LqoDYKDRQQ0U z4T7Jsc1oQAC7bwmEcCPHLGcQUU4rnmiMibv9a6yANkGwN43TGUYY6EcsXjGmDNn7hkIZS52eF26 dAkjRoxAYGAg2rVrh40bNyItLdvzQp1SZ8+exb/+9S+UK1cOixcvFnHOR1ZKAxAh2oSUEr0HTFbA 9+GkZhQtWpSePn1KWurPP/+kkSNHUv78+VV5CwkJ0cTPsmXLRO/LpDp16tC2bdto6tSpIuLHAyhH EvR3rQFQCfZnlEkFUNrOOAs46n2tQXUg4zcgP3J4UpUBCUADzvHxss51IcU3IBlelnHUz9d2xigN vu8bqxoxXowGQLmMOVjveV4Y/v7+NGTIEIqOjiZn1ZUrV2jKlClUt25d4fWdDTtJgv4uI8INyAqA d0R33IkTJ5IWevToEY0ZM4YKFCigmbeNGzeq9pWenk5BQUFC6rZWrVq0adOmv7wkJCRQ8eLFRXjZ A8BCEvR5rQGwg6M+1ttx/1pQfl2yN0aYQeWXcQFynMPTJpUxQzjHRlud60KmBcjLHPWTBqCWHTEi OGLsNWKsGA2U3R97OPulQ9KgQQNasmQJxcfHkzPp+PHj9MEHH2j6fKMxvUmCPi8jwg3ICgBfAEki O26hQoXoyZMnxKsnT57Q+PHjyc/PT3NvNWrUIKvVyu3tmVatWmVonQYHB1NERESW3mfOnCmqrUeT BH1eawC8xlkfA2y4tz+U70zsvfdvBpZfxgXIOQ5PESpj1uDsB7pmXoJEC5AMP8c46ugMgOI23PtD zjYIN2q8GAmA0Zz14fD4+vpS37596ejRo+RMSkhIoP/9738UFhZGjDHh9ZxBKoBCJEGflxHhBmQG yt5XoR143LhxZK/i4uJo0qRJVLhwYV29rVu3zm5vz8tqtVK1atV0r8cXX3yR1qxZk+OiKTExkUqW LCmindMBNCEJ+rzWADjMWSfTspu4oZz7cYHzvrr+qv6cTxkXIAc5PG1TGTOUs61a6FwXsi1AWnHW 02UATbO5px/4zuUhKAsiZtR4MQooH+LznL3idFSvXp1mzJhBDx48IGfSxYsXacSIEVSqVCnRdbyB JOjzsiLcgMwAaC16gihYsCA9evSIbFFCQgJNnTqVihUrZoi3atWqUXp6uk3ectK6det081ilShVa sWKFzT7nzp0rqq1vwQnzhIN//z9B+TB3NYBJAIYBmA8gSsX9dhtcdhkXID9weNqjMmYYZ3uF6FwX Ui1AMjztUtG/ozLGyHAAEzPGTpyK+zU0crwYAYBiUOZaLeZsp8HLy4veeust2rlzpyY7G2RReno6 ValSRWTdtiYJ+r2sCDcgM1D2iV4VPTmMHj2aclJiYiLNnDlTyDcMq1atytGbLbJarVSjRg1NfVWs WJG+//57SktLs8tLcnIyBQYGimrrnXDC70EAzBE9hqBkYjL0g3/IuQD5hsPTEZUxeX/I0bW9IOcC pHxGXxU9XmYbOVaMAMrf850S1K3UlClThsaOHUtXr14lR9fp06dF1uVVOOHfcy0RbkB2IMFe0QIF CtCff/5Jzys5OZnmzp0ratsQAaAXXnhBk7cgGzdu1MRPuXLl6Ntvv6XU1FRuLwsWLBDZ3iNIgn6v JQDyADgteBx1E1BuGRcgkzk8XVYZ8z3ONiugc11ItwDJ8CU6AcopAN5GjxcD6nWE4Hp1KCwWC7Vs 2ZLWrFlDycnJ5IgaOHCgyDocTRL0e5kRbkB2oKQuFL5fdMSIEfRMKSkptGDBAipdurTwSQoALVu2 jLRQSEgIt4fAwEBauHAhpaSkqPaRkpJC5cqVE1WfaQAakQR9X0syxtF1QXU6TlCZZVyA8HhKhopv AQCM5Ih5z4D2kXIBkuFtjKCxchN2psJ2BAA0Al/GPBOAihQpQh999BGdOXOGHEVJSUm6fwebA+nO OI60hpEyOE3lIMbYVigZfYQpf/78uHDhAra5nwCpAAAgAElEQVRu3Ypx48bhypUrIu38TZUqVcL5 8+fh5qbuYO+tW7eibdu2dl1TqlQpDB8+HL169YKnp6eq+Jn17bffolevXprdz07dBFCTiB6IMqCH GGMvQNnjXsrAsDOJaJAWN2KMlQAQbMclrWD/YZMzoKQvtlW/kR2nVDPGKgP43U5PABBAygn3dosx tgBAXzsvW0tEdh2axxhrBCCvHZcsA1DYjn//AMC7dvz7eCLab8e//5sYY1MA/Jf3eg7dAtCSiM4Y GFN3McaKAPgVQEnRXpxB9erVQ69evdClSxfky5dPtJ1stXr1anTp0kVU+G1E1EZUcIeR6BWQIwCg AyT4FcLHx0e4h+xYsmQJaSFbDxMKCAigWbNmUVJSkiZxn1dqaipVrFhRZJ3+COfMQFMSysOA3vWX BmCQxt5Fb43JCru3lgG4zRHnNRX1xnP2SH+OOBclaI/MXNCgzw2EMb/c/wqglOj5QYf5hoHv8E2T XPDx8aGePXvSwYMHSUY1b95cZP10IAn6v+wIN+AIAHAH3x9tl6F8+fKqvrt4pu3bt+cYp1ixYjRt 2jRKSEhQHSs3ff/996LrdShJ0P+1BoAXlNSgem1tvACgng6+nWUBspojziTOOssPvgfoII5YTrcA yShXXQDROnm0AvgKgJfoeUGnuWaoBP3A6QkKCqKpU6fS3bt3SQbFxMSIPAvkNgB3kqD/y45wA44C gC9ED3LZWbRoEWmhV1555R/3LlKkCH355ZeGnuKalpYmOoVfKoD6JEH/1wMo25k2aVhfdwF8BJ0+ oIXzLEDe5YhzirPOOnHE4npwh5MuQDLK5gXlbchdDf1thrLVU/hcoNN4rQ9lDhXdD1wGDw8P6tix I23btk2T5DS8GjVqlMh6+MKW/mlCEG7AUQBQAcqvRcIHuayUKVNGk4/Ad+/e/dc9CxUqRF988QU9 ffpU9X15tGLFCtH1eh1AYZJgDOgFgBegnPXBc7hgApQtFl2hc+YeOM8CxB3K4XX2xmrMEWsvR5ze nO3jtAuQTGX0BtAFwFYA8RyeLkHJhGb3GyZHAsq3PaKSXhhKsWLF6OuvvyZfX1/hXjJTqlQpGjly JF2+fJmMVHp6usgEPVYAFfTo086I+RG6HWKM7QbQTLQPmTV//nx88MEHqu/ToUMHhISEYODAgfD1 9dXAGZ+sViuqV6+Oc+fOCfMA5WGjHbnAYGWMBQB4GUAVABUBFIGyjccTyqFqTwBcg7JYOQXgBBGl GOTtHQD/MyKWHXqHiJbbexFjrA+AhXZedhjKIiTVxhjtoRx8aI+uA6jI06aMsYtQfiiSRReJqJJe N2eMeQAIgfImsRKAMlDGSj4ov/w/BfAQysLsdyjnudzUy48sYowxKG93nP4jYIvFgp07d6JZs2a4 cOECOnXqhNOnT4u29TcxxtC0aVP06tULHTt2hJeXl67xtm/fjtatW+saIwdFEtGrooI7nESvgBwJ AG9Bgl8WZKZ06dK6fRguSmvWrBFerwD+SxKMAVcGTvIGJKMsHuA7ZHUJAA8b7v8SgMcc9x+gon2c /g2IiU394L8StL0hjB8/njIrPj6eunfvLtxXdvj5+dGAAQPo119/Jb3UqVMnkWV8S1S/d0SEG3Ak oPwKe1/0IJad2bNnkzPJarVScHCw6HpNgQ4fVpvYNf6dZgGSUZ5m4PtA/ASAlgDcsrhnSQCjoJwd Yu9990LFx5swFyAuD4B6GXOl6LbXnTZt2pDVaqWstGDBAvLy8hLuMSdCQkJo/vz59OjRoyzLwKN7 9+6Rh4eHqDLdB+Apegw4EhaYslmkbAv4XrQP2TVx4kQkJSWJtqGZGGMYO3asaBseAFYzxvxEGzHl HCKiSChZguxVbQDbAdxhjO1jjK1ijG1hjJ2Csj1uLJQfa+zRNQCdiSiNw48pU8iYG1dDmSudWmXL lsX//vc/KLvN/qm+ffvi4MGDKFu2rLHG7NCJEyfQr18/BAQEoHv37ti3b5/qe37//fdITbVph6ge +p4M2g7sLDK/AbFTjLEgAEI/CHAETZ8+HYMGaXL+mzQKCQlBVFSUaBtboOQYTxdtxJRziDG2Csr2 UlFKBNCAiIQPLlOOKcaYG4CNAOw7ydYB5eXlhYMHDyIkJCTXfxsbG4t3330XW7duNcCZelWqVAk9 e/bEe++9h4CAALuvf/HFF3H+/HkdnNkWnoiEBXdEmW9A7FRGBzsg2ofsmjRpEhISEkTb0FTdunUT bQFQ/sDOE23ClFPpPdj/QbpWugngVXPxYUql5sEFFh8AMGvWLJsWHwDg5+eHzZs3Y/z48bBY5H/c u3DhAoYNG4bAwEC8/vrr2LRpE9LSbHspeujQIZGLjwPm4oNDoveAOSIA3oYEeyhlZ8qUKeQMOnny JLVv3154fT7H5yTBWDBxHgB0B19qV14iARQTXW4TxwbAOAnmY0Po3r078Wr37t1UtGhR4WWwl4CA ABo6dCj98ccfOZavZ8+eIn32ED0OHBFzCxaHGGPP8uiXFu1FZhUtWhQxMTHw8fERbYVLZ86cwejR o7FhwwZIOk7+TUTm2xBTmokxVh3AFCgfmeul+wCmAviKzK2EplSIMfYhgNmifRih6tWr4+jRo8iT Jw/3PW7evIk333wThw4d0tCZcWrUqBF69+6NN95442/18PTpUwQEBCA+Pl6ErTsAypD5/Yfdkv+d nIQi5UPJmaJ9yCwPDw+Eh4cjOTlZtBW7df78eXTp0gXBwcGIiIiQdfEBALMZY51FmzDlPCKi00TU CkAtAKsAaLlAiAHwIZQ/1l+aiw9TasQYewsu8nfY19cX69evV7X4AICSJUti7969GDhwoEbOjNW+ ffvQvXt3BAQEoF+/fjhx4gQAYPXq1aIWHwAw21x88Ml8A8IpxpgvlEOzxJ2SJ6Hc3d3RvXt3fPbZ Z1Jn4MhKf/zxBz7//HOsXLkSVqtVtB1blQKgNRH9JNqIqb+LMfYigFcA1IFyqGI5AH4A8kDJ1JMI ZcvTLShvVM9COezvEBE9NsCfjAk1JhLRcL1unjFvvwylXaoCKA8ldXBeKO2SBqVdHkFZMF0CcBxK m5zRy5cp+8QYexXKAa32ZltzSK1fvx4dO3bU9J5r165Fr1698PTpU03va7Rq1KiBuLg4XLp0SUT4 eACliShWRHCHl+g9YI4MlG0EwvdIyoCbmxt1796dLl68SI6mS5cu0XvvvUdubm7C65GTxwBqkQRj wtWBsi1zAtSdSZEMYBOATgAsOnoNkqDvPs8XOpTTAqAjlFPZec4necaljLYtLbqfuTJQTn9/KkFf NYTBgweTXoqOjqaqVasKL6MDM0v0eHBkhBtwZKA8bKRKMAiEYbFY6O2336bo6GhyNF25coV69+5N 7u7uwutRA+4AqEASjAtXBEAxAAug7gE3K85DOR9DD89OvwCBsvA4p7HHFACLAPiL7neuBoBKAO5J 0E8NoWHDhpSamkp6Ki4ujrp16ya8rA5IGoByoseEIyPcgKMDYLkEA8FwGGPUuXNnOnv2LDmarl+/ Th988IHIE1P14iLMhyIRc0B3AA91btvNAIpr7NtpFyAAAqC8RdLT658Auovuf65CRptelqCPGoK/ vz/dunWLjNK8efPI09NTeLkdiDVG9HtnRrgBRwfKqcCiB4JhMMYoPDycTp06RY6mmzdv0ocffkhe Xl7C61FHogD4kgRjw9kB4A4lA49RbXsTQF0N/TvlAgTKFp0bBnqeB8BDdH90ZgAUAPCbBP3TENzc 3GjPnj1ktI4dO0aBgYHCy+8gaDYXuypmFiyVIuUArT2ifRihdu3a4cSJE4iIiED16tVF27FZd+/e xUcffYQKFSpgzpw5DpmZyw7VArCBMeYSH2eKUkYq7tVQsjoZpRIA9jLGwgyM6VBijDUE8DOUD8uN Uj8A6zL6hCmNxRjzhvI2K1i0F6PUp08fhIWFGR63Tp06iIqKQqtWrQyP7WDaT0THRJtweIleATkD ANpA/GpcN1q3bk3Hjh0jR9P9+/dpyJAhlDdvXuF1KIA10PEDZlcHwAqBbfsUQIgGZXCqNyAAXoLY j5NXiO6XzgYANwAbJOiXhuLu7i70IF+r1Upjx44li8UivC4kpb0t/dckl/Et2oAzAIBB+w8dhdO8 eXM6fPgwOZoePnxIw4YNo3z58gmvQ8HMJQnGh7MBYLAEbXsFQCGV5XCaBQiAQgCuSuD/Y9H905mA 8rG/6DYVRnh4OD1+/JhEaceOHVSkSBHh9SAZ0cg4wsJE5fgWbcBZANBbgoGhCU2aNKH9+/eToyk2 NpY+++wz8vX1FV6HEvEZSTA+nAUANcGf+S4VwD4oiSu+hrKtJEZF265VWRZnWoCsVRHzakZbfA1g GZQtXCkq2rim6H7qDAAYL0F/FE7FihXpt99+I1G6du0a1atXT3g9SERfW/qvSe6YBxFqJMaYF5Q/ ZP6ivfCqYcOG+Pzzz4XsPVWjJ0+eYObMmZg2bRoePXok2o6Mep+IFoo24QxijO0H0IDj0jkAJhPR jefuxwC8BmAGlMMK7VVrItrOcd2zQ/les+OSSgA+tzPMLgDf2vHvzxHRKXsCZBxKt8suV4piAAwC sIWI/nbyKGOsBIAhGf+/vToC4BUy/7hyizE2AMAs0T5kUZ48eTB//ny89957QuKnpqbi448/xpw5 c4TEl0j3AJQhoiTRRpxColdAzgSAzyB+dW43L7/8Mu3cuZMcTU+fPqUvvviCChUqJLwOJScNwJsk wRhxZACEc9S9FTakaoVyQvoBjvufg0HbAaCcIG6vv3kG+PqVw9cRAEVsuHcXAOkc9+8iur86KgDe yRg3oudN6ejTpw8lJSWRKK1cudLVtzaPsqUPm9g41kUbcCYAFAaQIMEgsYk6derQtm3byNEUHx9P X375pbk31T7SYL46Vju+j3HU+xw77h8Ivo+oww0qv3QLEChvcOz1FAegrB0xZnLE+FV0f3VEAAyA ufjIkdq1a9Ply5dJlM6dO0dBQUHC60EACbDhRwsTO8a7aAPOBoC5EgyUHKlVqxZt2rSJHE2JiYk0 bdo08vf3F16HDoz5TQjfuH6Fo64fAchnZ5xRHHH2GlQHMi5Aduo9BgDkA/CYI06Y6H7rSACYIMH8 6BD4+fnR5s2bSZSePn1KXbp0EV4PBmMmddF6zIs24GwAKA0gSYLB8g+Cg4MpIiKCrFYrOZKSkpJo 9uzZFBAQILwOnYS5MFP02juuv+ao54UccUrD/i0/VgClDKgDqRYgUM5Fsbeu0nnqCnzZmOxuf1cE SqrdxRLMiw4FY4yGDx9OaWlpJEqzZ88mDw8P4XVhAEkAStvSn03sGPuiDTgjMPZ05FypVKkSrVmz xuEWHikpKTR//nwqVaqU8Dp0QtYA8CQJxovsQHlAeshRx2Gc8X7miDXIgHqQbQEyiMPPXs5YTThi PQTgJrr/ygwAbwAbJZgPHZamTZvS3bt3SZSOHDlCpUuXFl4POjPblv5sYh/mSej66AsAiaJNPFNA QAA6d+4MJeGO/EpLS8PixYtRqVIl9OvXDzdu3Mj9IlP2qjOAHzMyIZnKWTWgnDNhj9KhfDPCo0Mc 1zTnjOXIaspxDU/dAsBRKG1qjwoBqM0Zz+nFGCsIJXvZ66K9OLJ++ukn1K5dG4cO8XZtdQoNDUVU VBRatGghJL4BSoTyTGdKY5kLEB1ERLcBzBft45n27duHyMhI0TZyVXp6OpYuXYoqVaqgT58+uHr1 qmhLzq6mAPYyxhw2dbRBasxxzVkiSuCMd5zjmoaMMXfOeA4nxpgFQEOOS3nqFhlteY7j0iY88Zxd GWmOeVNam3pON2/eRFhYGGbMmCEkfpEiRfDjjz9i1KhRDvNDpx2an/FMZ0pjmQsQ/TQJQLxoE880 atQo0RayldVqxfLlyxEUFIQePXrg8uXLoi25kmoBOMgYqyDaiMQK4bjmNxXxeK7ND6CKipiOpvIA CnJcZ3S71FERzynFGKsC5U1UNdFenEmpqan46KOP8Oabb+Lp06eGx7dYLBg7diy2bduGwoULGx5f J8VDeZYzpYPMBYhOIqL7UL4FkUKHDh3C9u1c55XpJiLC6tWrUa1aNbzzzju4cOGCEB+vvfYa+vXr 54y/3NiqClAWIbVEG5FUVTmuuakiHu+1PD4dVbxlNbpdXKlNchVjrC6U827KiPbirFq7di3q1KmD s2fPConfqlUrREVFoU4dp1h7z854ljOlg8wFiL6aAuCJaBPPNHr0aNEWACgLj/Xr1yM4OBhdunTB +fPnhXnp0KEDNmzYgHnz5mHXrl0IDAwU5kWw/KFsx+LZV++0yjip/AWOS7lf2ZNyyu4jjkuDeGM6 oF7kuCaWiJJVxORp00qutDUuJzHGWgL4CUAR0V6cXb///jtCQ0OxfPlyIfEDAwNx4MAB9OvXT0h8 jfQEyjOcKZ1kLkB0FBH9CUDMpswsdOzYMWzZskWoh02bNqF27dp44403cObMGaFe3nzzTaxduxae np4AgGbNmuHMmTPo3bu3UF8C5Qvlw/TOoo1IpCJQMvXYK7V7hnmuL6kypiOpFMc1ItrEHUAxlXEd XoyxbgA2A/AR7cVVFB8fj3feeQf9+/dHSkqK4fE9PT0xb948LFu2DD4+DtnsMzKe4UzpJdFpuJwd AAUA/AnxaeQIUA4hFJGOd+vWrfTSSy8JL/8z3n333Rzzp2/fvp1Kliwp3Kcg0gH0JwnGj2gA1OSs w5Yq4x7miPmDznUhTRpe8KVuPawyZkvOvlBLdD8WCYCPYJ5uLpQ6derQ1atXSZTOnDlDVapUEV4P dvAngAK29G8Tfsw3IDqLiB4D+Eq0j2c6efIkNm7caFi8nTt3ol69emjTpg1++eUXw+LmpF69euG7 776Dm5tbtv+mZcuW+PXXX9GqVSsDnUkjC4C5jLHPRRuRQEU5r0tSGZdnq5DTfPlpg3jaRUSbAK7V Ln8TY2wygGkAXPYDOxl0/Phx1K5dW9h3oFWrVsXx48fRubPDvFz/KuPZzZSOMhcgxmgmgAeiTTzT 6NGjn/0ypZv27NmDBg0aoGXLljh69KiusexR//79sWjRIlgsuXf9IkWKYNu2bRg3bpxN/94J9Rlj bAFjLPuVmvMrD+d1ah92ea7n9eqI4imriDYBXKtdAACMMXfG2HcAPhHtRaTCw8NRtmxZ0TYAAA8f PkSbNm0wevRoWK1Ww+Pnz58fa9aswYwZM+Dh4WF4fDv0AMozmym9JfoVjKsAYAjEv1b8i9WrV5Me 2rdvH4WFhQkvX1Z89NFH3OWKjIwkf39/4WUQxGYAfiTBODIaAG9y1llNlXF/4Ih5Vue6kGkL1jkO LxtVxqzF2Rc6i+7HRgLlu6kdEsxbQqlduzYlJSXRn3/+SW3atBHuJzNt27aluLg4EqWDBw/KvMV5 iC393ESDuUK0AVcBQF4AdyQYXASAgoKCKD09nbTSoUOH6NVXXxVeruwYOnSo6jLeunWLGjZsKLws grgKoB5JMJaMBEBXzvoKVhl3A0fMaJ3rQqYFyO8cXiJUxqzB2Re6iO7HRgHlcMgbEsxXQvHz86PL ly/TM1mtVpowYQK5ubkJ9/aMWrVq0c2bN0mU7t27R82aNRNeD89xB0BeEjyOXAXhBlwJAAMlGGB/ sXz5clKrY8eOUatWrYSXJSfGjBmjupzPlJKSQv/617+El0kQKQD+C4CRBOPJCAB05KyrOirjbuOI +ZvOdSHTAuQUh5etKmPW5ewL4aL7sd5A+cZjOIA0CeYpoTDGaPPmzZSVIiMjqVixYsI9PqN06dJ0 9uzZLL0aofT0dBoxYgQxxoTXRQYDSYLx5CoIN+BKQEnneV2CQUYAqHLlyjlmgspJUVFR1K5dO+Fl yI2JEydylS83TZo0SaZJ02i2AChMEowpvQHQmrOOGqqM+xNHzCM614VMC5CjHF4iVcZsxNkXWonu xzr3i2Iwt1z9xbBhwygn3bhxg15++WXhPp9RokQJoRmyiIimTp0qvB6gvLnzJgnGlKsg3ICrAaCL BAPtL7777juyR7/99huFh4c7xMP322+/rWvK4YiICMqbN6/wcgriOoD6JMGY0hMA9Tnr51WVcQ9y xNylc13ItADZxeHlgMqYzTn7gtOOEwBhAG5JMB9JQZMmTWz6US8lJYU+/PBD4X6fERQURA8fPszV tx6KjY2l8uXLC68DAD1IgjHlSgg34IoAOCDBYCMAVL58eUpNTaXcdPbsWercubNDLDwyU6FCBZow YYJue11/+eUXKlGihPByCiIVwFA48ZYsAOU46+Z1lXF/5Yi5TOe6kGkBspTDy0mVMTtw9oWKovux DvVvAfAZzC1Xf1GiRAm6e/cu2aPly5dL8yNWWFiY4WeEWa1Wat++vfCyAzgOJ/47JivCDbgiAF6C RAczLVq0iLJTdHQ0de3alSwWi3CfanBzc6N27dpRZGRktmXl1aVLl6hMmTLCyyiQHwEUMWr8GAmU bZM8ddJXZdzbHDG/0rkuZFqATOTwcktlzPc5+0J+0f1Y47r3B7BbgnlHGtzd3Wn//v3Eo9OnT1Ol SpWElwEAff3111xl4NXEiROFlzkDp31LKTPCDbgqAJZIMOgIAJUpU4aSk5Mpsy5evEjdu3eXKmuH VrRp04bOnTtHWurq1atUsWJF4WUTyA0AjUSPKz0AX1afUSriWcD3y/K/da4HmRYgvTm8pAGwqIg5 miPmfdH9V+N6bwa+xbHmNG3alOrVqyfcBwD66quvSI0eP35MHTp0EF6OAgUK0O3bt1WVxVbt2bNH lueLlSTB2HJFhBtwVQAEAHgqweAjADR//nwiIoqJiaGePXuSu7u7cE964u7uTv369aN79+6RVrp1 6xYFBQUJL5tA0gCMgIqHPBkB3we281XEK85Z/2E614NMCxAeLwTAX0XMrzni7RXdfzWqbzcAYwGk SzDP0AcffECpqal0584dKl26tFAvnTp1Iq00adIk4Q/lAwYM0Kw82enWrVuynKuVAKA0STDGXBHh BlwZAMMkGIAEgEqVKkV9+/YlDw8P4V6MxNfXl7755hvSSnfv3qXg4GDh5RLMTgDFRI8vDcfpFI46 4M64BL5sS1bonJkMci1A8oPvYZg7Oxn4MpPNEt1/NajrAAB7JJhXyM3NjWbPnk2ZdfLkSfLx8RHi p1KlSvT48WPSUpGRkVS0aFFhdVygQAGKj4/XtEyZlZqaSg0aNBDelzIYSxKMMVdFuAFXBoAXgMsS DEKXp0uXLpr9IXn48CFVq1ZNeJkEcwtAE9FjTKNx+jpH+R+B86NGAB9zxDttQD1IswDJ8HOSw89H nLEYgMcc8TqJ7r8q67gFgLsSzCdUsGBB2rFjB2WliIgIwxOk5M2bl06dOpWlH7W6fv260O1l3377 rS7lIiIaPHiw8L6UwXWYhw6KnV9EG3B1AHSSYCCaQMkIdvToUdJCN2/epHLlygkvk2DSoeybd+gt WQAKgS9pRGXOeCs5Ys0woB5kW4DM4PCzgjNWFc7+X0h0/+UsrxuA8Zz9XnMqVqxI0dHRlJMmTJhg qKelS5fm6EetRKbq7datmy5lWr9+vfC+lIluJMFYc2WEGzAhQJLX2yYgDw8Pmjp1KmmhixcvUvHi xYWXSQL2ACgnepypHKN7Oco9mCOOJ4CHHLF0f9sE+RYgYRx+HgDw5Ij1X45YP4vut5z1WhESpYpv 2rSpzWdUdOvWzRBPffv2tcmPFlq+fLnhW8xq1qypeTn++OMP8vX1Fd6fMjgMM+2ucIQbMCEAqAFJ Pu6TDU9PTwoLC6MJEybQDz/8QKdPn6YrV65QTEwMnThxglatWkVDhw6lOnXqaJoq+OOPPyYtFBUV JU2ed8HEQ9la5CZ6vHGOUZ6sS79yxAnniHMLBrxlgnwLEAbgGoenDhyxfuOI84HofmtnGd2hnOuT KMF8QcD/f2xuq5KSknTfuhQSEkJJSUk2e9JCZ86coSpVqhhW73ny5MnVU2JiIsXFxdnkPz4+nqpX ry68P2VgBVCXJBhzro5wAyYZDQEskGBgSkO5cuVoypQp9ODBA7JVd+7cocmTJ1PlypU18dCrVy9K T0+3OX52Wrt2rcMd4KgjxwAEGzWutAKAL5TvOuwtbxs7YrgBOMoRY4JBdSDVAiTD0ygOT0dgx4IN QFuOGE8B+Inut3aUMQR839TogpubG82aNYt4pGdmrIIFC1JMTAyXL7V68uQJderUyZD6L1iwYK5+ UlNTKSQkJNetcURE3bt3F96nMrGUJBhzJgThBkwyGgIoCr4HHKcif/78NHny5H+cS2KPrFYrrVq1 il544QXVfjp37qzKyzONGTNGeN1KRAqU/eVeto4PGQDwBUdZb8DG7wAAfMpx/0QYlHEMci5ACgGI 4/D1qY33Lwy+c2B0PRRSw/rLC2AqJDrRvECBAtl+bG6r9MqM5ebmRpMnTzb8xPDMmjp1qu5p8itV qmSTl5CQEMqfPz+tXr0623+zYMEC4X0qE3EASpAEY8+EINyASabGAAZLMECF0aBBA7p69SpppfT0 dJo/fz4VLFhQla+WLVtSQkKCKi9Wq5VatWolvI4lIxoq0qIaDfh/JIgGUDGXew8H3we/Uwwsv64L EChvgCpw+JrA4csK4LNc7lsewHmOez8BECC6v9pQb80hWRbGihUr0vnz50kL6ZkZ6/XXX6dHjx5p 4pNH+/bt0/X7wtdee80mH7169frrmv/85z+UkpLyt///l19+IS8vL+H9KhMjSIKxZ5IxB4k2YJKp MZQPUP+QYJAaztChQyktLY300N27d6lr166q/LVr1061v9u3bwvN7y4pVgDzAfiSBGMwNwAM5Cxn EoAlAF4DUB1AWQCvAPgQwGnOe94AkM/Asmu2AIHy/UYlAG8DmA7lo+d4AOc4fPmA7y0FATib0Qav ZLRJtYw2+hb830Jwpfo1sB0LA1iq05DGvswAACAASURBVHjmpkmTJjZ/bG6r9MyMVaFCBfr11181 9WuP7ty5Q82aNdOlbLam4X2+fl9++WW6fv06ERH9+eefVLZsWeH9KhNXAHiTBGPQJGMuEm3A5LkG AVpLMFANw2Kx0Jw5c8gIrVixggoUKMDttWfPnqo9bNq0SXidS8odAD0hecpeKB/qHpSgvqwAXjO4 7NwLEAClAXSEso1tF4DYbP693QuQjPu3gRwpYw8CcBfdT7OpIzcA/aFkAhNdT3/j/ffft+tjc3uk Z2asPHny6HpmRm5KT0+nsWPHapqAxcvLi2JjY22Kv3jx4n9cX6RIEdqxYwe1adNGeL96jnCSYBya ZJqTRBswyaJRgBUSDFZDWLx4MRmpK1euUN26dbn9jh49WrWHt956S3i9S8wvABqQBOMwO6A8TIt+ iJssoNw8C5BbUBaXtv57rgVIhr8vBbfJAwClRPfPbOqmGfjftOnK9OnTSU8lJibqnhmrd+/elJiY qGs5ctKePXsoICBAk7IMHTrU5ribN28W3n9sZD1JMA5NnpuXRBswyaJRlL3moh9wdGfkyJEkQklJ SdSjRw8uzxaLhXbt2qUq/o0bNyhfvnzC619yVgEIJAnGY1YAqAu+k7G1YCUEvCkC3wLEXtQsQCwA lglqkycAQkX3yyzqpDyADYLqxCYGDx5MekvPzFjPqFWrFl2+fFn3smSnu3fvUosWLVSVoUyZMhQf H29zzJ9//ll4/7GBWDjAN1muiHADJtk0DNBdgoGrG++++y6J1vTp07leXfv7+9OdO3dUxf7yyy+F t4EDkABgLIC8JMGYfB4A9QDcM7hO/gdBW3wg+QIkw6MblO83jGyT+5DsrR2AfAAmQvn2SPQ4zhUj tjHplRkrMwULFqTNmzfrXpacNH/+fK4fuDw9PSkyMtKuWA6yAOlNEoxJkyzmKdEGTHJoHGCHBINX c2rWrKlJalsttGbNGvL09LS7DF27dlUVNyEhwTwl3XauQ/lYWbqTawEEQjnbRO86SAYwSHBZpV+A ZPI6MKPO9PZ7DEAZ0f0wU7kZgPegbH0TPW5txtPTk/bt20d6S8/MWM9gjNGwYcN0S6pii2JiYqhp 06Y2e3Z3d6cNGzbYHccBFiA/QcK/GyYZ85VoAyY5NA5QDkpmGNGDWFP27t1LMikyMpLy589v9x+Z I0eOqIo7ffp04W3hYEQBaEsSjM3MQPnVfTD4zqOwhYMAXpSgnA6zAMnwGwRgn04+4wF8AsBNdLtk Km8H8J3YLgVFihQxZAuTnpmxMtO0aVO6e/eu7uXJTlarlVauXJnrCeovvvgi7d+/nyvGli1bhPeb HEhALunPTQTPWaINmOTSQMDHEgxkzejYsSPJqKNHj9qdIat58+aqYiYkJKg+o8RFOQKgOUkwPjMD oAiUbS9/alTO/TA401Uu5XOoBUgm362g3ULkTwCTYNDhjzaWrw2AExKMS9VUq1aNnjx5QnpLz8xY mSlZsiQdPHhQ9/LkpLS0NFqxYgV16dKFSpYsSYULF6aAgAAKDw+n77777h9nd9ijuXPnCu8zOfAJ STA+TXKYu0QbMMmlgZRfV49LMJhV4+HhQRcvXiRZdfz4cbsWBBaL5a+c57x6//33hbeLA7MPQGOS YJxmBsp5Pu0ALARwBranh30EZdvlMADlRZcji3IZsQA5q6P/clBOm/8R2acBfh4rgHMAFgNoD8BT dDtkKk9zKItx0eNQU9q2bUvp6emkp4zIjPUMDw8P3TN9idInn3wivL9kQxQkTYdt8v8wUiYyUxKL MVYDSnpSd9Fe1Khly5bYvn27aBs56sSJE2jevDliY2Nt+vczZszAwIEDueMdOnQI9evX577eFAAg Esqp1odFG8lKjDEfKNmIygHwA5AHgAeUg+7ioezXvwzgBkk8ITPGXgZwSOPbxkD5geUZJ4goTuMY /xBjjAEoCaVdSgLIC6Vd0qC0y6MMb5eN8GOPGGNhAMYBaCDYim7673//iylTpuga486dO6hbty6u X7+ua5xn6ty5M7755hvkz5/fkHhG6NVXX0VkZKRoG88rDUBdIjop2oipXCR6BWRiG1AO8BL9q4Iq vv76a3IEHTt2jHx9fW0q04cffqgqltVqpSJFighvGydhG4CXSYLx6oxA/RuQOwA2AxgFZVtUEdFl ciQANIKy2BY9zgxhyZIlpLeMyIyVmSpVqtCZM2d0L5cRSkpKojx58gjvJ1lg+BlJJnyYb0AcRIwx bygfGFYW7YVHjDHcvHkTAQEBoq3YpMOHD6NFixaIi8v5x8+uXbtixYoVqmJ16tQJERERqu5h6m86 BGAqgB+IyCrajLOIMVYKQG87L0uDsoXpOBEZ81OzE4kx5gblBPn/Qjl7xmXk6emJyMhINGig74ue DRs2oFOnTjDqWcjHxwcLFy7E22+/bUg8vRQZGYlXX31VtI3ndRFAMBElijZiygaJXgGZ2A6AxrB9 P7lU1KpVixxNP//8M+XNmzfHcn366aeq40yZMkV4+zgpfwD4AEAekmD8mpjYCgAfAAOgbM0TPY6E UbRoUYqJiSG9ZVRmrMz0799fmnT0PHrvvfeE94/nsAJoQhKMXxPbsMCUw4iIfobyMaTDKTAwULd7 JyQkYNWqVRg+fDg++eQTTJ8+HefOnVN930aNGmHTpk3w9vbO9t+EhoaqjqNn3bi4KgGYD+AaY2wM Y6yoaEOmTOUkxlgAY+wLKGffzILy3ZDL6v79+2jXrh2ePn2qa5zhw4ejW7duusZ4XvPmzUPDhg1x 7do1Q+NqoadPn2Lt2rWibTyvb4hoj2gTpuyQ6BWQiX0AKAAHO2QKAPXp04f00Jw5c7L9hqJmzZq0 ZcsW1TF+/PHHLA8rrFy5sibZWvbv3y+8fVyEBCgLksokwVg2MXkGgKpQTnA34vBEh8OozFihoaGG l61w4cK0fft2XcumtaZNmya8TzzHLQAFSYKxbGLHvCfagAlHowHhEgx4uxgxYgRpqdTUVJtzubds 2ZLu3LmjKt6mTZvIw8Pjr3u6ubnRjh07NCnLiRMnhLePi2EFsBvAW5AoraqJawHAG0A3AHskGBPS M2TIENJbt2/fptKlSxteNovFQmPGjNF9kaWFnj59SkWLFhXeH54jnCQY0yZ2zoGiDZhwNhywRIJB bzOTJ08mLdW3b1+74hcvXpz27NmjKua6devI3d2dANCMGTO0KQgpWbdEt48L8wDANEhw0riJawAg GMr2Kq0OrHQZnDEzVmZatmxJDx480L2MajRmzBjh/eA5lpAE49rEfswsWA4qxlh+ACcBVBDtxRb9 5z//wcyZMzW51w8//IAOHTrYfZ2npydWrlyJjh07csdetWoVYmJiMGzYMO57PK+ff/4ZYWFhmt3P FLcOAVgEYA0RJYg2Y8p5lDFfdwHQB0AdwXYMUaFCheDv748iRYqgcOHC8PHxgYeHBzw8PLBhwwY8 ePDA7nt6enrip59+0v3spIiICLzxxhsQ8XwUGBiItWvXom5d+ZKenT59GnXq1EFycrJoK890CUAt ItL3IyFT+kj0CsiEHwD1AKRC/C8QudK+fXvSSlWrVuX24ebmRkuXLtXMixZauHCh8PYx+RuPAcwD EEISjHMTxwXK2SmLAcRJ0K91wdfXlxo1akSDBg2ipUuX0pEjR+jhw4eUk7766ivueEWLFqUrV67k eH8tNH78eGF16unpSXPnztW9jPYoOTmZatSoIby/ZSIVQD2SYJybcM6Pog2YqGxA5VAv0RNBrgQH B5MWunDhgmovFouFli1bpokfLTRo0CDh7WOSLRcATABQgyQY7ybyAyAEwJcArkjQfzXH3d2dmjRp QhMnTqRffvmF67uFhIQEKl68OLeH6tWr09OnT+2Oa6/efvttoXXdrVs3iouL072ctqhfv37C+95z jCIJxruJirlStAETlQ0IuAE4KMFkkCM+Pj6a5DzfunWrJn7c3NxozZo1qv1ooVq1aglvHxObiAbw OYCqJMHYN5EHADUAfAHlIDTR/VRzLBYLNWvWjBYuXKjZNwozZsxQ5aldu3ZOmxkrM1WrVqXo6Ghd y5mbZs2aJbwPPsdBAG4kwdg3UTFvijZgokEjKrniH0swKeTI5s2bSa02bNigmR8PDw/auHGjak9q dOPGDeHtYsLFWShvH18gCeYAEyHzblUoC9JoCfqjLgQGBtKYMWPo2rVrpLUSExOpRIkSqvx98skn mvt6XqIyY2XGx8eHFi1apHtZs9Ly5cvJzc1NeF/MxGMA5UiCOcBE5Rwq2oCJRg0JvCvBxJAjb7/9 NqnVH3/8oaknT09P2rZtm2pfvJo5c6bwdjFRze8AZgBoBcCbJJgPTHSZY/MCeA3AbChb80T3O90I CQmhiIgI3d8wzJ49W7XX7777TlePRERRUVHCMmNlplOnTnT37l3dy/tMy5Ytk23xQQDeJQnmAxMN 5lTRBkw0bExgpQSTQ7bky5ePEhISSI2sVitVqFBBU1/e3t60e/duVb54y1K5cmXh7WKiKQkAfgTw HwCVSIJ5wUTVnBoE4GMAOwEkSdC/dCU0NNTQQ/GSkpKoVKlSqjx7enrSwYMHdfe6fv16YowJb6NC hQoZko54woQJUpT3OVaSBPOCiUbzq2gDJho2JlAQwFUJJolsWbhwIamVHqew5s2bl/bt26famz3a smWL8PYw0Z1LAOYAaAvAhySYJ0xynEN9AXQAsACSz6VaUr58eVq9enX2k5WOmjdvnmr/xYoVc/rM WM/z8ssv0969ezUv4/3796lz587Cy5cFV2Gedu5UCDdgonGDAo0BpEswWWSJv78/PXnyhNQoOTmZ goKCNPeWP39+Onz4sCpvtspqtVJISIjw9jAxlFQAv0DZrtUZQAmSYM5wZQAEAugKZZF4EhLPnXrg 5+dHX331lSYJQniVnJxMgYGBqssSHBzsEpmxnqd58+a0c+dO1eVKS0ujJUuWULFixYSXKQvSATQm CeYMEw3nX9EGTHRoVCUbi+gJI1u0+HDw2LFjlCdPHk19+fj4qD4t3VYtXbpUeDuYSEEMgGUAPgBQ HYCFJJhDnBEoGQNrAfgQynbV6xK0vzDeeustunfvnj3Tlm7S6iyk9u3bu0RmrKyoXr06TZ8+nW7e vGlXeR4/fkwLFiyQfTvwFyTBHGKiLeZJ6E4oxpgHlFOdXxLtJSt5eXnh7NmzqFBB3SHu69atw1tv vQWr1arak5+fHzZt2oQGDRqovlduevz4MapWrYqbN2/qHsuUw+kxlLckpzM4BeAsESUKdeVgYoz5 AKgGZVEXnPG/IQDyi/Qlg4oXL4558+YhPDxctJW/lJqaisqVK+PKlSuq7/Xpp59i0qRJ6k3loDt3 7qBOnTq4ceOGrnF4ZLFY8NJLL6FBgwYIDQ1FmTJlULJkSXh7e8NiseD+/fu4evUqTp48iYMHDyIy MhIJCQmibeekXwC8QkSpoo2Y0liiV0Am+gCgMiQ+fTckJITi4+NJrSIiIlS/CQkKCqILFy6o9mKr ZHuFbyI96VAyba2Fkvq3A4AKgPIDkisDwAJlrusEYCyACChncVglaDfp6NKlS66nlIvSN998o1k5 ly5dqrvfqKgoyps3r/A2dXLiAVQmCeYaEx3mb9EGTHRsXOAdCSaQbOnUqRNZrVZSq2PHjlHFihXt jm+xWKhXr170+PFj1R5s1YoVK4TXu4nTEAflLckmALMAfAQgHEBNONHHmgAKAagNZZExGMr3Glug nMWSIEE7SI+7uzvNnDlT6+lMU6WmpmqW4dDLy8ulMmM5Mf8iCeYgE53mdtEGTHRuYOWDV9GTSLaM GDGCtFBKSgrNnj3bpoOtPDw86PXXX6dTp05pEttWnTp1ivLlyye8zk1chlgoH1ZHAJgC5eG9B4B2 AF4BUAVAEQg4URiAO4BiUNLcNgDwOoCeAIYA+ArARgC/wQEOWJUdf39/wzP88eq7777TrNzFihWj q1ev6u5ZpsxYTsbXJMEzlIl+mN+AOLkYY+4A9kD5Iy+lFixYgL59+2pyLyLCkSNHsHnzZly6dAn3 799HQkICihcvjpIlSyI0NBTt27dHwYIFNYlnq+7fv4+6detqssfZlCmNRQAeAXiYQTyAFADJmcju vwHAKxOeOfx3PgCFM/AFwHQvmYurRo0a2LZtG0qUKCHaik1KT09HUFAQLly4oMn9goODcfDgQeTL l0+T+2Wnbt26YcWKFbrGcDEdA9CQiFJEGzGln8wFiAuIMVYcQBSAANFestPUqVMxePBg0TZ0UWJi Ilq0aIEDBw6ItmLKlCkXUWhoKH788Uf4+fkJiX///n2cOHECFy9exPXr13H9+nU8fvwYycnJSEpK AgB4e3vDy8sL+fLlQ0BAAAICAhAVFYU1a9Zo5uP111/Hhg0bwJh+692kpCSEhYXh6NGjusVwId0H UJuI5PvC35SmMhcgLiLGWH0ob0I8RHvJTiNGjMC4ceN0/UNhtFJSUtC+fXvs2LHD0Lhubm6oWLHi X5QoUQLe3t7w9vaGm5sbHj16hNjYWDx48ADR0dE4deoUYmNjDfWoh9zd3ZGWlibahilTQhUWFobN mzfr/st/Zt29exc7duzA9u3bcfDgQVy7ds2w2Llp6NChmDhxoq4xZM6M5UBKB9CciPaINmLKAIne A2ZiHAAGQPy+zhx57bXX6MGDB+QMSk1Npfbt2xtWd2XKlKGBAwfSDz/8QI8ePbLb77Vr12j58uXU vXt3Kl68uPC+wMOhQ4do//799Mknn9CLL74o3I+JidE0adKEEhMTdZjR/qlHjx7RwoULqUGDBtJ/ jP3999/rXh9mZizVDCEJnpVMDHomFW3AxOAGVw49Ez3J5Ejp0qUNOxBQL6WkpFB4eLjudeXu7k5d u3alXbt2aZJR7JmsVisdPXqU+vXrR35+fsL7hC0UL178H3Vw6dIlmjlzJjVv3pw8PT2FezQx0ZOg oCCKjY3VbB7IThcuXKC+ffuSt7e38DLbipeXFx06dEj3ujEzY3GzliR4RjIx8HlUtAETgxscyAsl u4zoySZXunbtSjdu3CBHU1JSErVt21bXurFYLNStWze6ePGiIeVZuXIl1alTR3ifyIlevXrlWI4n T57QunXrqEePHlS0aFHhfk1MtMTf359iYmJ0nQuio6PpzTffJIvFIry8vHVkZsaSknMA8pEEz0gm Bj6PijZgIqDRlUPMYiWYdHLFx8eH+vfvT2fPniVHUEJCArVo0ULXOqlduzb9+uuvQsoXGRlJzZs3 F94vsmLDhg02lyM9PZ0OHz5Mw4cPp+DgYOHeTUzU4OnpSUePHtVt3N+/f58++OADcnd3F15WtdSo UYPi4uJ0q6tnMg+ctZknAF4gCZ6NTAx+FhVtwERQwwNt4GCnBdevX5/Gjh1LBw4coKSkJMpJ6enp lJycnOO/0VpxcXEUFhamW/k9PDxozJgxlJqaami5stKBAweobt26wvvEM7y8vFQ9VFy9epXmzp1L rVu3dqhtJSYmAGjy5Mkaju6/a8uWLeTv7y+8jFrSoUMHTbesZqXExEQKDQ0VXlYHoCNJ8ExkIuA5 VLQBE4GND4yRYPLhgjFGxYsXp9DQUGrZsiW1atWKWrVqRQ0bNqSyZctSWFiYoSecP378mOrXr69b ef38/KT7LsZqtdLy5cspMDBQeH9o3bq1ZuWKi4ujjRs3mgsRE4egUaNGlJ6erln/f6a0tDQaOHCg 8PLpxbBhwzSvs+d1+/ZtKlWqlPCySswkkuBZyETQM6hoAyYCGx+wANgmwSSkKY0bN6anT5+SUYqN jdX1bUD58uUpOjrasPLYq/j4eBowYIDQDy/nzp2raZnOnTsnvB+bmOSGr68vXblyRdO+T6TMaa++ +qrw8unN//73P83r7nmZmbGyZTcAN5LgWchE0DOoaAMmgjsA4AfgkgSTkSY0a9aM4uPjySg9ePCA ateurVt5KleuTLdv3zasPGq0d+9eKl++vJB21/rD0i+//FJ4XzYxyY1p06Zp2u+JlLe5L730kvCy GYGXlxcdPnxY8zp8XmZmrH9wDUARkuAZyETg86doAybiAVADQLwEk5IqWrVqZVj+eyKiu3fvUvXq 1XUrT9myZen69euGlUcLxcXFUb9+/Qxt9+DgYM3L0bBhQ+H92cQkJ8qVK6f5d25JSUm6biWVEX9/ f7p27Zqm9ZiVxo0bJ7yskpAIoA5J8OxjIvjZU7QBEzkA0B7KKaSiJycu2rZtm+uH6Vrq1q1bFBQU pFt5ihYtSpcvXzasPFpr6dKlhn1DMWLECE29P3z4kNzc3IT3aROTnFixYoWm/Z6IqG/fvsLLJYKa NWsakhmra9euwssqGCuAziTBM4+JeIQbMJEHOMBJ6VkRHh5OKSkpZJSuXbtGlSpV0q087u7utHfv XsPKo5eOHz9uyAeYWm+hWL58ufA+bWKSE7Vq1dI8i9PKlSuFl0sk4eHhhmTGkil7oADMk85N/kK4 ARO5ADBdgknKZhhj9PPPP5NRiomJoXLlyulaphkzZhhWHr11584devnll3Wrq2LFimmeAahLly7C +7WJSU4sWbJE0z4fGxvrdKl2eRg+fLim9ZqVXDgz1nyS4BnHRB6EGzCRCyiZsSIkmKxsxtfXl44d O0Z668KFC1S6dGldyxIeHq57OYxWXFwcNWvWTJf66tGjh6ZeU1NTqWDBgsL7tIlJdhQqVEjzb90G DRokvFyysGzZMk3rNiu5YGasrTAzXpk8h3ADJvIBIA+AoxJMWjbj5+dHJ0+eJL10/vx5CggI0L0M jpLxyl4lJiZS27ZtNa+z9evXa+pz7969wvuyiUlODB48WNM+/+DBA1d7GM4Rb29vQzJjrVu3zlUy Y0UByEcSPNuYyIUFpkw9JyJKBNAOQIxoL7YqNjYWzZs3x9mzZzW/9+nTp9G4cWPcvn1b83tn1owZ M1C8eHFdY4iSt7c3IiIi0LlzZ83u6enpiRYtWmh2PwDYvHmzpvczZUpr9erVS9P7LViwAAkJCZre 05GVlJSE8PBwXL9+Xdc4nTp1wueff65rDAl0HUBbIooTbcSUhBK9AjKRFwAvAPgT4n9BsRl/f39N D+2LioqiwoUL6+67WbNmmnmWWampqdSqVStN6qxFixaa+6tSpYrwPmxikh3ly5fXvM9XrVpVeLlk xMyMpZrHAKqTBM8yJnLCiAimTGUnxlhjADsBeIr2YqtKlCiBffv2oUKFCqruc+zYMbRs2RKPHj3S yFnWslgsiIqKQo0aNXSNk1nx8fHYv38/fv/9d0RHR+PmzZvw9fWFn58fihYtisaNG6N+/fpwd3fX PHZcXBwaN26MqKgoVfeZNWsWBgwYoJEr4MKFC6hcubJm9zNlSmv9+9//xpw5czS7X3R0NIKCgjS7 n7OpY8eOWLduHRhjusVISkpC48aNcezYMd1iCFAagNeIaJdoI6YklugVkIn8AOgG8b+m2EVgYCBd uXKFeHXgwAHy9fU1xKvWH1LnpCNHjlCfPn0of/78ufoqUKAAvfnmm7Rjxw7Nfdy+fZvKli2rqt5i YmI09TRt2jTh/dbEJCe2bNmiaZ+fN2+e8DLJjtbnDGUlJ8yM1ZMkeHYxkRvhBkwcAwAjJZjU7KJ8 +fJcJ4nv2bOHfHx8DPHo6elpyGnnDx48oDfeeIPb5yuvvEK7d+/W1FNUVBS3n6pVq2rqhYioadOm wvusiUl2WCwWzbcE9ejRQ3i5HIHly5drWu9ZyYkyY40nCZ5ZTORHuAETxwHANxJMbnZRuXJluzJL 7dy5k/LkyWOYv+7du9vsjVdbtmyh4sWLa+K3WbNmdPXqVU18jRo1itvH0KFDNfHwTI8ePSIPDw/h /dXEJDuqVKmiaZ8nIgoJCRFeLkfA29ubjhw5onn9Py8nyIy1jCR4VjFxDIQbMHEcALhD+R5E9CRn Fy+++CLdu3ePctOWLVvIy8vLUG9RUVG5+lKjJUuWaP4HrWDBgrRq1SpVvi5cuKCqrg8ePKhRDSla vXq18H5qYpITnTt31rTPExGVLFlSeLkcheLFixvytnrcuHHCy8rJXgCeJMGzioljINyAiWMBoACA MxJMdnYRHBxMDx8+pOwUERFBnp6ehnpq2LBhtn600LJly8hisejmv3v37pSQkMDlrXXr1txxixQp ovnp5++8847wPmpikhPjxo3TtM8TkfnWz05q1apF8fHxmrfD8woLCxNeVjs5C8CPJHhGMXEchBsw cTwABAC4IMGkZxchISH06NEjel6rVq0id3d3w/0sWrToH1600g8//EBubm66l6FZs2Z2L0IiIiJU xdR621paWpohqZZNTNSwZs0aTfs9EQkvkyPSsWNHslqtmrfFM02YMMHRtmFdBBBAEjybmDgWwg2Y OCYAygC4JsHkZxf16tWjJ0+e0DN9//33hjyoP4+7uzs9ePCA9NCNGzfIz8/PsLLYswiJj4+nwMBA VfG0fhA7cOCA8H5pYpIbu3bt0rTfE5HwMjkqI0eO1LwtEhMTqVu3bsLLZifXAJQhCZ5JTBwP4QZM HBcAlQDclmAStIuGDRtSXFwcLVq0SNctSjnRsmVL0kNWq1VINqdmzZpRcnJyrv6GDRumKo6Hhwc9 fvxY0zr79NNPhfdJE5PcOH78uKb9nogMTbjhbKxYsUKzdrh9+zaFhoYKL5Od3AFQmSR4FjFxTIQb MHFsAFQD8ECCydAuXnjhBaGvuadOnUp6aOrUqcLKNGjQoP9r797jc67//4E/3rt2cJwNOTanoVEh LKeVkBGbzhRKPvKRQ/EJ5aP6OZREiKL6Un3KoRQihw4OiQjlEEPOxrbGmM3Y+fD8/XGZho1t1+v9 fl3Xrsf9dnvekm3P9/P1vi7XdT33fr9er5vWdujQIYfn2ZixYzx3gma4Qhw9elT5c79Bgwbax+Wq UapUKdmxY4fDj8Hu3btdcQ+QIgLtnwAAIABJREFUeHCXc4aD4QEiB4jIfgBdACTprqUoDh06BBHR dvx27dopz3n+/HmMHz9eed7CmjlzJlauXFng14cNG4aMjAyHjhEeHu7Qz1/v5MmTOHDggNKcRGYo Xbq08pwBAQHKc7qLtLQ0PPLII4iOji52jmXLliEkJMShHBpcAvCQiEToLoRcGxsQcpiI7ALQHUCK 7lpcQalSpdC8eXPleadOnYrLly8rz1sU/fv3R1RU1A1//80332D9+vUO5w8LC3M4R16rV69Wmo/I LCkp6l9emzRpojynO4mNjcXDDz9crMfmrbfewpNPPmnK42qiVABhIvK77kLI9XnqLoBKBhHZYhjG wwBWA/DRXY8za9iwIby9vZXmjIuLw5w5c5TmLI4LFy5g4MCB+PHHH6/+3eXLl/Hyyy87nLtRo0YI DAx0OE9ebEBIh5o1a+Luu+9Go0aNUK9ePdSuXRu1atVCu3btkJycnO/PmPHLhZYtWyrP6W52796N Z599FkuWLIFhGLf8/rS0NPzrX//CV199ZUF1SmUAeExENusuhEoI3feAMUpWAOgBIBP671F12ujW rZuoNmbMGO3jyhvr16+/WtvIkSOV5Bw9erTSc3bp0iXL935huGd4enpKt27d5P3335fDhw8X+Jzs 0KFDgTk2b96s9PkvInL8+HHt56akxBtvvHHL8/3333/Lvffeq73WYkQW7M2H9s8YjJIT2gtglLwA 0AtAthO8aDplDBo0SFSrW7eu9nHljebNm0tOTo7s379f2R4rqj+ALVu2TPt5YpTsqF69uowbN06i o6ML9ZwcO3Zsgbm+++47pc//XI0bN9Z+nkpKfPXVVwWe5127drnqzvM5AJ4RJ/hswShZwTkgpJyI fA1gIOwvXnSdihUrKs23Z88enDx5UmlOR+3evRuLFy/G0KFDkZWV5XC+ihUrom3btgoq+wdvvyKz +Pr6YvLkyThx4gTGjx+PmjVrFurn2rRpU+DXjhw5oqq8a/To0cOUvO6of//++OOPP274+6VLl+K+ ++5DTEyMhqocNkREFugugkoeNiBkChH5DMBw3XU4o8LcJ1wU3377rdJ8qgwcOBCbNm1Skuuhhx6C zWZTkgsAcnJysGbNGmX5iHI9/vjjOHbsGMaMGYNSpUoV6Wdv1oAcOnTI0dLy1atXL1PyuqO0tDQ8 /PDD1zQaEydORM+ePV1tsnmu0SLyse4iqGRiA0KmEZEPALyqu46SbseOHbpLyFdBk2mLQ/Xyu3/8 8Qfi4uKU5iT35unpiWnTpmHp0qW47bbbipWjUqVKaNiwYb5fM6sBadasGZo2bWpKbl18fHwQGhqq 5dixsbHo0aMH4uPj8dRTT2HcuHEQccmbAf6fiEzTXQSVXGxAyFQiMhXAS+DtWFelpaUpzXfq1Cml +ZyNp6cnunTpojTnqlWrlObLq3z58ihTpoxp+claNpsNd911102/x8vLC8uXL8fIkSMdPl5BV0EO Hjxo2gfZ/v37m5JXl5EjR+Kjjz6Cp6eehT53796NOnXq4Ouvv9ZyfAVGi8ibuougko0NCJnuypWQ 52GfzOb2Tp8+rTRffvtulCT33Xcf/Pz8lOY0Y/6Ht7c3RowYgRMnTiA+Ph6rV6/GCy+8wM3eXEy1 atXwyCOP4J133sEvv/yCixcvIiIiAlWqVMn3+202GxYtWqRsj5qC5jolJCQgIsKcvd/69++PChUq mJLbajVr1sTYsWNRr149PPfcc9rq0L0nUzEJ7HM+eOWDzKd7FjzDfQL21bHcfone4OBgUSU5OVn7 eMyO6dOnKztfIiKnT59WWp+Hh4f07dtXTp48WeAx//zzT3nzzTelVatWYhiG9nPKsIePj4+0bt1a RowYIYsXL5bIyMgCH8MePXrkm2PGjBlKn5/79u0rsN733ntP6bHycralvIsby5YtuzqmyMhI8fLy 0l6Ti0QWgGfFCT4rMNwjtBfAcK+AfZ+QNCd4sdUW/v7+kpOTI6qULVtW+5jMjCNHjig7VyIiH374 obLaunbtKn/++WeRjn/27Fn57LPP5LHHHpNy5cppP7/uFLVr15ZevXrJzJkzZfv27ZKenl7ox23y 5Mk35DNjT5/s7Gzx9fXNt/7w8HDlx8t15swZKVOmjPbHyJHo27fvDeMaNGiQ9rpcIDIAPCFO8BmB 4T6hvQCG+wWABwEkO8GLrrY4ePCgqNKwYUPt4zErGjZsqOw85erWrZvDdQUHB8vPP//scC3p6emy du1aefHFF51uLxdXDy8vL2nfvr28+uqrsnz5comNjXXosdq4ceM1+W+77TaJi4tz+DmQn86dO+c7 Jl9fX8nMzDTlmCIir732mvbHrbgREBAgiYmJN4zp9OnT3HD05pEKoJs4wWcDhnuFISIgspphGCEA 1gDw1V2LDv/3f/+Hf//730pyhYaGYt26dUpyOZuRI0di2jR1tyOnpKSgUqVKxV4IoEGDBpg0aRKe fPJJZTXldfDgQaxatQqrV6/Gtm3bkJ2dbcpx8uPr64ugoCBUq1YNVapUQZUqVeDr6wsPDw94eHjA ZrMhLS0NiYmJSExMRHx8PE6ePImjR48iKSnJsjoLq3Llyjh37pyyfMnJyahQocLVx2TOnDkYMmSI svx5jRs3DhMnTsz3a99//z0eeughU46blJSE+vXrKz1vVvDy8sLGjRvRrl27fL8+bNgwzJkzx+Kq XMJlAD1EZKPuQsgN6e6AGO4bAFoAOA/9vwGyPHr16iWqzJo1S/t4zIqNGzcqO08iIt99912x6qhW rZp8+OGHpv72+Xrx8fGycOFC6dWrl/j5+Sk9rzabTVq1aiWvv/66rFmzRk6dOuVQrXFxcbJmzRoZ M2aMtGvXTjw9PbU/dwDI0aNHFT0adk2bNhXAfmXOzOfCDz/8UOCYevfubdpxRUTmzp2r/XEratxq bkxMTIyUKlVKe51OFgkAWosTfBZguGdoL4Dh3gHgLgCxTvBibGmUKVNGLl26JCqcOXNGbDab9jGp Dj8/P+Uf8gYOHFikGsqXLy8TJ06Uy5cvK62jqE6cOCHNmzd36HzabDbp2rWrfPnll5KQkGBqvXFx cTJ79mxp27at1ufQggULlI7rhRdeEACyePFipXmvl5CQUOBiBWXLljX1+ZiTkyMdO3bU/u+/sJHf vI/8DB8+XHutThRxAO4RJ/gMwHDf0F4AgwGgAYDTTvCibGnMnz9fVHnooYe0j0d1PPXUU8rOj4j9 g1X16tULdWxvb2956aWXTLvHv7CioqJk8ODBDt3D7ufnJ+PHj5eYmBgtY9izZ488/fTTWq6KDB06 VOlYPv/8c6lRo4YlV8IaN25c4LhUN1bXO378uEsskNCtWzfJyMgo1JhiY2OldOnS2mt2gogB0Eic 4L2f4d6hvQAGQ0QAoDaAo07w4mxZPPDAA6LKvn37Stxyk4sWLVJ2fkREdu7cectjGoYhvXv3lhMn Tig9dlFFRUXJkCFDHGo8ypcvL+PGjct3Yq4Ox48fL3ApW7OiefPmSsdw6NAhGTdunNKcBRkwYECB 4woJCTH9+IsWLdL+GnCzaN++vaSkpBRpTC+//LL2ujXHSQCB4gTv+QyG9gIYjNwAUB3Afid4kbYs tm7dKqr897//1T4eVWGz2eTChQvKzo2IyPjx4296zNDQUNm9e7fSYxaVisYDgDz88MMSFRWldSwF WblypQQEBFjyPPL09JTk5GRltefk5Ci7KpaRkSGxsbFy9OhRiYiIkMjISElISLi6RPcnn3xi2WtH QXJvOXO2CAsLK3LzIWJfArukL1t+kzgM4HZxgvd6BkNEoL0ABiNvAKgAYK0TvFhbEl27dhVVUlNT 5a677tI+JhVx//33KzsvuVq0aJHvsVq0aCHr169XfryiyG08fHx8HDpvfn5+snTpUq1jKYz4+HgJ Cwuz5Lm0efNm3cMVEfumeLNmzZLu3btLYGBggfO2ypUrJ/fee6906dLlpuPq0aOH6TVnZGRIaGio 9teDvNG/f3+HboF75ZVXtI9BQ2wFUFmc4D2ewcgN7QUwGNcHAE8AnzrBi7Yl8csvv4gqZ86ckTvu uEP7mByNqVOnKjsnIiJ///33DZN6AwMDZfHixUo3hSwqVY0HAGnUqJHyTRvNlJOTI2+//bbpO8NP mTJF2xizsrJk7ty5cs899ygfl2EYSvcTKsilS5ckODhY+2uCl5eXfPDBBw6P59y5cy4xv0VhfAOg lDjBezuDkTe0F8BgFBQAXneCF2/To2HDhpKWliaqxMTESP369bWPy5H466+/lJ0PkWuXFq1SpYrM nj270JNXzaCy8QAgDz74oCQlJWkbjyPmzZsnHh4epj2XHn30US3jWrFihQQFBZn676SwK0A5KjEx UR544AFtrwd169aVbdu2KRvP2LFjtb/GWRRTAPt+bwyGs4X2AhiMmwWAPgDSneCF3NR47bXXRKUz Z87c8hYOZ4369esrPRciIj169JBy5crJ+PHjlS1/XBxRUVEydOhQZY0HAOnYsWOx7od3JgsXLjSt CalevbqlY8nJybFsyVfDMCybt5SWliZPP/20pa8FhmHIkCFDlC87vGbNGu2vcyZHFoAXxAnewxmM gkJ7AQzGrQJAewAXnOBF3bTw9PSUTZs2iUo5OTkyc+ZMpR92rYgRI0YoPQ+ZmZny6quvytmzZ5Xm LYro6GjljQdgXw1J5SRrnaZPn27acyoyMtKSMWRmZkqfPn0s/ffSoUMHS8aWa86cOZa8prRs2dKU +Ttnz56VGjVqaH+dMzEuAXhInOC9m8G4WWgvgMEoTAAIAnDCCV7cTYuqVauasldDRESES+0TsmHD BuXnQBezGg8AUqNGDTlz5ozuISo1dOhQU55TZm8cmEvXZnerVq2yZHy5Dhw4IB06dDBlLPXq1ZNF ixaZMjcrKyvLpTZZLEbEAGgmTvCezWDcKrQXwGAUNgBUAbDDCV7kTYs2bdpIamqqmGHbtm3SuXNn 7WO8Wfj6+mqdm6GKmY0HYJ+Qa8UyrFbLzMyUli1bKj9fqq+q5WfdunWmT6gvKIKCgiQ9Pd30MV5v 6dKlBa4uV9Ro0aKFLF68WLKyskyr16wG10liH4AAcYL3agajMGGICIhchWEYpQEsAvCo7lrMEhYW huXLl8PT09OU/Fu3bsX8+fOxatUqxMbGmnKM4urZsye+/vpr3WUUW0xMDCZPnoxPPvkE6enpph1n 3LhxGD9+vGn5ASAqKgq///47Tp8+jYsXLyIlJQVVqlRBQEAAWrRogfr165ty3EOHDqF58+ZITU1V lrNVq1bYvn27snzXS0lJwR133IHo6GjTjnErY8eOxaRJk7Qc+5dffsHChQuxYsUKxMfHF/rnGjRo gEcffRR9+vRBkyZNTKwQmD59OkaNGmXqMTRaB+AJEUnSXQhRYbEBIZdjGIYHgOkARuiuxSy9e/fG ggUL4OHhYdoxRAS///47vvvuO+zYsQNHjx5FdHQ0dL4mzJ8/H88884y24xdXTEwM3nnnHcybN8/U xgOwf2iLiIiAj4+P8tzx8fH4+OOPMXfuXJw+ffqm39uoUSM899xzeOmll1CqVCmldUybNg2jR49W ls/b2xtJSUmmnDMA+OKLL/Dcc8+ZkruwbDYbtm3bhuDgYG01ZGVlYe/evdi5cyciIiIQGxuLc+fO AQB8fHxQtWpVNGjQAI0aNUJISAhq1KhhSV1ffvkl+vbtq/W1zUSfwj7hPEt3IURFovsSDINR3ADw IoBs6L/0bUr07dvX8tuRUlJSZN++fbJu3TrZtGmTbN++Xf78809Lbt2y2Wxy/vx5S8frqOjoaBk2 bJilE/3Xrl1ryljmzJkjZcqUKXI9derUUT5vJz09XerUqaP0vKlcxvV6ISEh2l8vAEjjxo2VLuld EixZsqTATR9dPHIAvCZO8F7MYBQntBfAYDgSAHoASHaCNwNTolOnTnLx4kXRacuWLZbc296uXTut 4ywKHY0HYF/1SrWUlBTp3r27Q3V5e3vLN998o7SuhQsXKj137733ntL6ch0/flz760TeGD58uCnj dEXLly8XLy8v7Y+JCZEOoLc4wXswg1Hc0F4Ag+FoAGgK4LgTvCmYEk2bNrVsGdHrZWVlSdOmTS0Z 5zvvvKNljEURExOjpfHIje+//17peNLT05XtF+Ph4SHr1q1TVltOTo4EBgYqO3c9e/ZUVltey5Yt 0/4acX18/vnnpozVlXz22Wcl9crHKQAtxQneexkMR0J7AQyGigDgD+B7J3hzMCX8/f1l5cqVYrWZ M2daNsb9+/dbPr7CiomJkRdffFHrnip33XWX8nENHjxYaY233XabREdHK6tv6tSpymqrVauWsrry mjRpkvbXh+vDx8dHtm/fbsp4XcHkyZO1PwYmxXoAlcUJ3nMZDEdDewEMhqoA4AFgPOz3xup+o1Ae hmHI6NGjLZsXEhsbK76+vpaMrW7dupaMqaicofHIjbffflvp2DZv3mzKrXUDBgxQVuO5c+eUnvu/ //5bWW25nnnmGe3PjfyievXqEhUVpXy8ziw1NVWeffZZ7efepHgHgE2c4L2WwVAR5i2xQ2QxEckR kfEAwgEkai5HORHBu+++i+DgYOzatcv0440aNQpJSdas6hgWFmbJcYpi5MiRCAwMxAcffGD6ylaF 0atXL6X5hg0bBhFRmhMAFi5ciDNnzijJVblyZXTq1ElJLgDYtm2bsly5EhISlOdUITY2Fh06dNC6 NLCVoqKicN9992H+/Pm6S1HtEoDHRWSMiGTrLoZIFTYgVOKIyBoALWHfmKnE2bt3L1q1aoVXXnlF 6V4JeW3atAmLFi0yJXd+wsPDLTtWYSUnJyMtLU13GQCAe+65B/Xq1VOWb8uWLdi3z5x/Hunp6Viy ZImyfN27d1eWy4y9QLy8vJTnVOXYsWNu0YQsX74czZo1w86dO3WXotohAPeKyLe6CyFSjQ0IlUgi chxAG9g3LSxxsrOz8e6776Jx48ZYuHAhcnJylOXOysrC0KFDleW7lfLly6N9+/aWHa+w3njjDeX7 WxRXx44dleb7+OOPlea73pYtW5Tl6tatm7JcZjQgZm0YqkpuE3Lq1CndpSiXnJyMQYMG4bHHHsOF Cxd0l6Pat7A3H4d0F0JkBjYgVGKJSIqI9AXwEoBM3fWYITIyEs888wyaN2+OH374QUnOWbNm4cCB A0pyFUZoaCi8vb2V5izKbswFqVmzpqWN2M3cf//9SvOtXbtWab7r/fHHH8py1alTB7fffruSXDt3 7kRWltr92pz5CkiuY8eOoWXLlti4caPuUpRZsWIFGjVqhLlz5+ouRbVsAGNE5HERuaS7GCKzsAGh Ek9EPgDQAUCs7lrMsnfvXnTr1g3t27fHypUri31FJCYmBuPHj1db3C2ovv1q//79mDBhgpJcY8aM Qfny5ZXkckRISIiyXIcPH766O7VZVM+LaNasmZI8qamp2Lt3r5JcuWrVqqU0n1nOnz+P0NBQzJo1 S3cpDjl69CjCw8Px6KOPIioqSnc5qp0H0FVEpuguhMhszn3tmEgREdlqGEZzAEsAqPs052Q2b96M zZs3o27duhg6dCgGDBgAPz+/Qv/8yJEjcfnyZRMrvJaHh4fSW2wAYNWqVZg3bx7++9//onr16g7l qly5Ml5++WVlDU1x1KhRAxUrVlSWLyMjAy+//DIyMjKURGZm5g2T2VU/h5o2bYrVq1crybV9+3a0 aNFCSS4ACAoKUpbLbFlZWRgxYgS2bt2K2bNno0qVKrpLKrRz585hwoQJmDt3LjIzS+QF7Z2wTzY/ rbsQIkvoXoaLwbAyYG+6Z0L/koqWRJkyZaRv376yevXqWy7fu379esvra9OmzU1rKo62bdsKoG5H 6IsXL0qlSpW0PYbt27dXMg4zZWRkSHJysiQkJMjZs2eVL/+6YMECZeezT58+Smvbvn279n/nxYmK FSvK//73P6XnwgzR0dEyatQoKV++vPZzZmJ8AsBHnOA9ksGwKrQXwGDoCAB9AVx2gjcey8Lf318G DBggP/74o1y+fFnySk9Pl6CgIMtrmjRpkqh07tw58fDwEABSqlQpiY2NVZJX5YZ4RY3nn39eyRhc 2c8//6zsfAYGBiqtLSEhQfu/bUeiU6dO8scffyg9JypERERIv379xMvLS/s5MjFSAPxbnOA9kcGw OjgHhNySiCwE0Bz2y95uISEhAZ9++im6du0KPz8/tGrVCiNHjsSKFSvw5ptv4tAh6xdbUT3/4/vv v786/yUtLQ1Tpqi5lXrYsGGoUaOGklxF5SpzDMyk8twfP35c6RwYPz8/1KlTR1k+q23YsAHBwcEI Dw/XvoxtamoqvvrqK4SGhqJJkyb44osvSurtVgCwF0BLESlxs+iJCkV3B8Rg6AwAXgDehn3lEd2/ DXOrqF27tqj2xBNPXHOM0qVLK7sK8uGHH2o5T7Nnz1ZSvytTfZVh1apVSut76qmntP97UhUPPvig fPHFF3Lp0iWl56ggOTk5smXLFhk4cKBUqFBB+/gtiBwA08FbrhhuHrwCQm5NRDJFZCyAjgA4+c9C qnc/z8zMvGF52dTUVLz77rtK8j///PNKNwMsLH9/f8uP6WxU78eiekf0Nm3aKM2n0/r169GvXz9U rVoVvXv3xtKlSxEXF6f0GGfPnsX8+fPRp08fVK1aFSEhIZg3bx4uXryo9DhOKBZAFxEZKSLpuosh 0skQEd01EDkFwzD8AHwE4CndtbiDH374AV27dlWWb/369ejcufMNf1+mTBmcOHECVatWdfgYCxYs wLPPPutwnqJQfZ5cUVZWltL9Njp27IgNGzYoy/f777+jVatWyvI5o6CgILRv3x4tW7ZE/fr1Ub9+ fdSsWROGYRT4M6mpqThz5gwOHjyIvXv3Xo0jR47ADT97rADwvIg4vkkRUQnABoToOoZhPANgNgBf 3bWUVGXLlkV8fDx8fHyU5RwxYkSBexyMHDkS06ZNc/gYOTk5uPvuu3Hw4EGHcxXWTz/9hNDQUMuO 56xu9kG3qMqVK4eLFy/Cw0PNTQAZGRnw9fVFerp7/VK7VKlSqFatGnx8fODt7X11Q9Hz58/j/Pnz SE5O1lyhU0gB8B/hXA+ia/AWLKLriMgCAM0A/Ka7lpKqc+fOSpsPwL7/R0E++ugjJbeReHh44K23 3nI4T1Go3rmb7PuU7N+/X1k+b29vpXuLuIq0tDRERkbi8OHDiIiIwK5du7Br1y6cOnWKzYfdLgDN 2XwQ3YgNCFE+ROQkgPsBjAPAT4CKqV796q+//sKJEycK/HpKSoqSKyAA8Oijj6Jly5ZKchUGGxCY cmVh+/btSvO1bt1aaT5yaTkApgBoIyKHdRdD5IzYgBAVQESyRWQigPsAHNddT0lhGAa6d++uNOfN rn7k+vDDD5Utvzpp0iQleQrD3W7ryQ8bEHIh0QA6icgYESmxawgTOYoNCNEtiMh2APcA+FxzKSVC cHCwkgnhea1evfqW35OcnKzsKkhoaCjat2+vJNetxMbGWnIcZ2ZGA6J6JSw2IARgCYAmIvKL7kKI nJ2n7gKIXIGIXALQ3zCMlQDmAKiuuSSXpfr2qwsXLuC33wo3XWfOnDkYPXo0Kleu7PBx3377bbRr 187hPLcSExOjNN+KFSuQnp4OLy+vqxOHvb29b/n/ef9O5YTwwjCjATl8+DASExPh5+enJF9AQABq 1qyp/PEil3AewAgRWaS7ECJXwQaEqAhEZLlhGD8DeBfA8wCs/SRWAqje/+OHH35AdnZ2ob43OTkZ 06dPx+TJkx0+btu2bdG9e3esWbPG4Vw3Ex0drTTfjBkz8OuvvzqUw9PTs8hNiyPfk5CQoGj0/xAR 7NixA126dFGWs3Xr1li2bJmyfOQSFsHefJzXXQiRK2EDQlREInIRwL8Nw1gEYC6AhppLchm33347 mjVrpjRnYeZ/5DV79myMGjUKlSpVcvjYb731Fr7//ntT9zQ4cuSI0nxBQUEONyBZWVklYnL8tm3b 2IBQcZ0C8IKI/Ki7ECJXxDkgRMUkIpsANAUwGVwpq1BUX/3IysrCTz/9VKSfuXz5MqZPn67k+M2a NUPPnj2V5CrI/v37lX7YDwoKUpbL1ameiF6SdkSnAuUAmAXgTjYfRMXHBoTIASKSJiJjAbQEsFN3 Pc5O9fyPX3/9FYmJiUX+udmzZ+PChQtKapg4cSJsNpuSXPlJS0vD4cPqVvJU+Rt/V7djxw6lV69a tGihdMd2cjoRANqKyAgR4UYnRA5gA0KkgIjsBdAawEjYd76lfPz11184ffq0snyFWf0qP5cuXcKM GTOU1NCwYUP069dPSa6CqPxN/Z133ok777xTWT5XlpiYqLS5K1WqFJo2baosHzmNdABvAGghIjt0 F0NUErABIVLkyr4hMwDcBWCt7nqc0ahRo1C7dm00adIEY8eOxbZt25CTk1PsfEWd/5HXBx98oGxy 87hx45Tv7J5XcRutgvTu3VtpPlemejle3oZV4vwKoKmIvMV9PYjUYQNCpJiInBSRLgD6AYjXXY8z ioiIwOTJk9G2bVtUrVoV/fr1w5IlS5CUlFToHEeOHMHRo0eLXUNSUpKyqyC1atXCoEGDlOTKz7p1 65CWlqYs30svvYTq1bmSNMANCalASQAGA2jP3cyJ1GMDQmQSEZkPoBGAr3TX4szOnz+P+fPno2fP nqhcuTIefPBBzJw5E8eOHbvpzzly9SPX+++/r+wqyNixY1G2bFklua6XnJxc5Mn2N1OuXDlMmTJF WT6VbDYb+vbtiy+//NKS47EBoXx8B6CxiHwsZi5xR+TG2IAQmUhEzolIbwDdABT/1/VuIjMzExs2 bMB//vMfNGjQAI0aNcLo0aOxadOmG1aCUnFbUlJSEmbOnOlwHgCoWrUqhg8friRXfj766COl+fr2 7Wv63JWiKF26NAYNGoS+icrnAAAOIElEQVQjR45gwYIFqF+/viXH3b9/Py5duqQsX7169VClShVl +chSJwA8JiKPiAh3lCQykcHmnsgahmF4A3gR9smMFTSX43L8/f3RtWtXhIWFoXXr1rjjjjuULE9b oUIFREZGKtkROzExEXXr1i3Wyly3YhgGDh8+jAYNGijLmZ2djaeffhpLlixRlrOo6tSpgyFDhmDA gAGoWLHi1b/funUrQkJCLKlhw4YN6Nixo7J8Dz/8MFauXKksH5nuMoBJAN4TkXTdxRC5A14BIbKI iGSIyHQADWDfwLD4s6/dUEJCAr766iv06dMHgYGByvbGuHjxImbNmqUkl5+fH0aPHq0k1/VERNn+ JblsNhu+/PJLjB8/3tLlY8uXL49nn30WP/30E44fP47Ro0df03wAQEZGhmX18DYstyUAPgfQUETe YfNBZB1eASHSxDCMpgBmAnhAcyluz8/PD5GRkahQwfELU8nJyQgMDMTZs2cVVHYtm82GPXv24O67 71aee8+ePRg+fLjDu6QXpFKlSujWrRt69OiB7t27o3Tp0jf9/p9++gldu3Y1pZbrhYWFKZlTlGvj xo1Kr6iQKX4DMFxEuH8TkQa8AkKkiYjsFZEOAJ4AcFJ3Pe4sMTFR2VWQsmXLYuzYsUpyXS87Oxsj RowwJfc999yDzZs3Y9++fRg8eDBuv/12h/LVrFkTjz32GKZMmYItW7bg7NmzmD9/Pp544olbNh+A tVdAduxQu7VDcHCwqZtTkkOiAfQWkXZsPoj04RUQIidgGIYPgJcBjAVQTnM5bsnf3x+RkZHw9fV1 OFd6ejoaNmyodNPFvObOnYuBAweakjuvqKgobNu2DQcOHEBcXBzi4uJw7tw5ZGdnw8PDAzabDf7+ /qhSpQqqVq2KunXrIigoCEFBQfD393fo2N9++y0ef/xxRSO5tWPHjiEwMFBZvmbNmmHv3r3K8pHD UgFMBTBVRLhZLJFmnroLICLgyr3Hkw3D+BzA27DvIWJoLcrNJCQk4P3338frr7/ucC4fHx+MGzcO AwYMUFDZjUaMGIGQkBA0atTIlPy5AgICEBAQYOoxCmLlFRDAviGhygakdevWbECcx2IAr4hIlO5C iMiOt2ARORERiRWR/gDuBbBVdz3uZsaMGUXaDPFm+vXrh4YNGyrJdb2UlBT06tVL6fKxzsbqBkT1 RHTuiO4UdgEIEZGn2XwQORc2IEROSER2ikgIgKdhv2eZLJCQkKBsd3SbzYY333xTSa78RERE4JFH HkF6eslcuMfVGxCuhKVVLIB/AQgWEf4ih8gJsQEhcmIishj2ZXtHAFC/rBLdYMKECahbty5efPFF rF271qEPwk8++SSaNWumsLpr/fzzz+jdu7eyJYmdidUNyN69e5Gamqok16lTp7B7925ORLfeOQCj AQSKyP+4izmR8+IkdCIXYRhGGQBDAbwCoLLmctxGuXLlEBoaivDwcHTr1q3Iu1yvWbMGYWFhJlVn 9+CDD2Lp0qVKlhF2FrNmzTJtxa+CbN68Gffdd1+RfiY5ORk7d+7E9u3br8aZM2dMqpAKkABgGoD3 ReSy7mKI6NbYgBC5GMMwygEYDmAkAMeWGqIi8fDwwL333ovw8HCEhYWhSZMmhfq5du3a4bfffjO1 tsaNG2PlypVKJ1Lr9O677+KVV16x9JhTp0696UaSIoIjR45c02xEREQgOzvbwiopjyQA78G+g/lF 3cUQUeGxASFyUYZhVIB96d4RABxfO5aKrFatWlebkQ4dOsDHxyff79u0aRMeeOAB0+spV64cpkyZ gsGDB8MwXHsRtUmTJilZkawoHnvsMSxbtuzq/ycmJmLHjh1Xm40dO3YgISHB0pooX8kAPgDwrohc 0F0MERUdGxAiF2cYRkXY73t+EUBZzeW4rbJly6Jz584IDw9H9+7dUbVq1Wu+3qVLF6xdu9aSWjp0 6IDZs2ejcePGlhzPDOPGjcPEiRMtPWa1atUwYcIEbNu2Ddu3b8fhw4fB90inkgbgQwBTRCROdzFE VHxsQIhKCMMwbgMwBsBgALfeappMYxgGgoODER4ejvDwcDRt2hQ7d+5EcHCwZTXYbDb069cPEyZM cHhXc6vk5ORg8+bNWLJkCZYsWYJz587pLomcQwaAeQDeFpG/dRdDRI5jA0JUwhiGUR32HdUHAsj/ niCyVEBAAMLCwrB27VocP37c0mP7+PjgySefxKBBgxASEmLpsQvjwoULWLduHdauXYvVq1cjLo6/ 2KarsgD8D8BbInJadzFEpA4bEKISyjCMANiviPQHr4gQgDvvvBM9e/ZEjx49TF0e+GbOnj2LrVu3 YuvWrfj111+xa9cu5OTkaKmFnFYagAUA3hGRE7qLISL12IAQlXCGYVQCMAT2JXyr3uLbyU0EBASg U6dOaNmyJVq2bImmTZuiVKlSyvJnZ2fj1KlTOHz4MPbs2YPdu3dj165diIyMVHYMKnHOwz7HYw7n eBCVbGxAiNyEYRg+AJ6BfeWsRprLISdjs9lQq1Yt1KtXD3Xr1kWdOnXg7+8PX19f+Pr6oly5ctds rJeeno5Lly4hKSkJFy9exJkzZxAbG4u///4bp0+fxsmTJ5GZmalxRORCjgKYAeALEVGzGyQROTU2 IERuxrCvz9oN9n1EOmguh4jc1xYA0wGsFBHeh0fkRtiAELkxwzCaw96I9ATgqbkcIir5sgEsBzBN RHboLoaI9GADQkS5E9aHw75yFjc1JCLVkgF8BmAmJ5YTERsQIrrKMAxf2JuQ4QACNJdDRK7vDOy7 ln8kItxGnogAsAEhonwYhuEJ+21ZgwE43+YRROTs/gDwEYBFIpKhuxgici5sQIjopgzDaATgeQDP AqisuRwicl6JABYBmCcie3UXQ0TOiw0IERWKYRjeAB6F/RatjgAMvRURkZPYAmAegCVcRpeICoMN CBEVmWEYgQAGwL7LejXN5RCR9c4DmA/71Y5DuoshItfCBoSIiu3KXJEw2K+KdAXgobciIjKRANgA 4BMAyzm3g4iKiw0IESlxZSnff12JWprLISJ1YgH8D8CnXEKXiFRgA0JEShmG4QGgC+wT17sD8NFb EREVQwaAnwB8CmCNiGRproeIShA2IERkmiv7ivQA0AtAKABvvRUR0U1kAlgP4GsAK0TkouZ6iKiE YgNCRJYwDMMPwCOwNyMPAvDUWxERAcgGsBH2puNbEbmguR4icgNsQIjIcoZhVIJ9Sd9eADoAsOmt iMit5ADYDHvTsUxEzmmuh4jcDBsQItLKMIzbADwOezNyP7iSFpEZBMBvsDcdS0UkVnM9ROTG2IAQ kdMwDKMagCdgb0bagZsdEjlqB+xNxxIRidZdDBERwAaEiJyUYRg1Yd9j5CEAnQCU01sRkUtIgX1O x48AVotIpN5yiIhuxAaEiJyeYRjeAEJgb0a6ArhLb0VETuUQgB9gbzo2iUi65nqIiG6KDQgRuZwr mx52xT9XR3z1VkRkqcsAfsaVpoNXOYjI1bABISKXZhiGF4C2sDcjDwFoorciIlMcgL3h+AHAFhHJ 0FwPEVGxsQEhohLFMIwa+OfqSGcAFfRWRFQsSQA24J+rHFGa6yEiUoYNCBGVWIZheMB+RaQd7HNI 2gEI0FoUUf5iAWwBsPVK/CkiWXpLIiIyBxsQInIrhmHUgr0RyW1K7gb3HiFrCYCD+Kfh2CIiJ/WW RERkHTYgROTWDMPwBdAG/zQkrQCU0VoUlTRpAH7HP1c3fhORBL0lERHpwwaEiCgPwzA8AdyDf66S tAZwu9aiyNX8jX8aji0AdnPSOBHRP9iAEBHdgmEYfrDfqtUkz3/vAlBeZ12kXTLsq1PtAxBx5b/7 ROSC1qqIiJwcGxAiomIwDMMAUAf2ZiRvY1IfgE1fZWSCHAAncKXBwD/NxgkRydFZGBGRK2IDQkSk kGEYpQE0xrVNyd0AquisiwotHv80GLn/PSAiyVqrIiIqQdiAEBFZwDCM8gDqXhd18vy5nLbi3EsK gJNXIjLPn08COCkiF/WVRkTkHtiAEBE5AcMwKqPg5qQ2AB9txbmWTACnUHCDEaevNCIiAtiAEBE5 vSvzTWoAqAWgMoBKVyLvn68Pby3FqpcJ4AKA87DfHnV9nM/z3ygAMZyXQUTk3NiAEBGVQFdu+bq+ KcltWPxhv6Linee/1//5Zl/L/TMAZFyJ9AL+fLOv5f45ATc2FPEA4kUkSe2ZISIi3diAEBERERGR ZTx0F0BERERERO6DDQgREREREVmGDQgREREREVmGDQgREREREVmGDQgREREREVmGDQgREREREVmG DQgREREREVmGDQgREREREVmGDQgREREREVmGDQgREREREVmGDQgREREREVmGDQgREREREVmGDQgR EREREVmGDQgREREREVmGDQgREREREVmGDQgREREREVmGDQgREREREVmGDQgREREREVmGDQgRERER EVmGDQgREREREVmGDQgREREREVmGDQgREREREVmGDQgREREREVmGDQgREREREVmGDQgREREREVmG DQgREREREVmGDQgREREREVmGDQgREREREVmGDQgREREREVmGDQgREREREVmGDQgREREREVmGDQgR EREREVmGDQgREREREVmGDQgREREREVmGDQgREREREVmGDQgREREREVmGDQgREREREVmGDQgRERER EVmGDQgREREREVmGDQgREREREVmGDQgREREREVmGDQgREREREVmGDQgREREREVmGDQgREREREVmG DQgREREREVmGDQgREREREVmGDQgREREREVmGDQgREREREVmGDQgREREREVnm/wOkWVt85hZ0MAAA AABJRU5ErkJggg== "
     style="image-rendering:optimizeQuality"
     preserveAspectRatio="none"
     height="426.66666"
     width="426.66666" />
</svg>
